<?xml version="1.0" encoding="utf-8"?>
<!-- Generator: Adobe Illustrator 16.0.0, SVG Export Plug-In . SVG Version: 6.00 Build 0)  -->
<!DOCTYPE svg PUBLIC "-//W3C//DTD SVG 1.1//EN" "http://www.w3.org/Graphics/SVG/1.1/DTD/svg11.dtd">
<svg version="1.1" id="Layer_1" xmlns="http://www.w3.org/2000/svg" xmlns:xlink="http://www.w3.org/1999/xlink" x="0px" y="0px"
	 width="24px" height="40px" viewBox="0 0 24 40" enable-background="new 0 0 24 40" xml:space="preserve">
<path d="M23.35,18.439L5.168,0.631c-0.421-0.4-0.982-0.632-1.58-0.632c-0.6,0-1.162,0.231-1.58,0.632L0.67,1.95
	c-0.874,0.856-0.874,2.233,0,3.091l15.26,14.955L0.651,34.959C0.232,35.369,0,35.917,0,36.503s0.232,1.133,0.651,1.544l1.337,1.311
	c0.429,0.414,0.988,0.645,1.587,0.645c0.597,0,1.159-0.23,1.577-0.643L23.35,21.543c0.422-0.411,0.65-0.962,0.65-1.547
	C24,19.398,23.771,18.855,23.35,18.439z"/>
</svg>
