<?xml version="1.0" encoding="utf-8"?>
<!-- Generator: Adobe Illustrator 16.0.0, SVG Export Plug-In . SVG Version: 6.00 Build 0)  -->
<!DOCTYPE svg PUBLIC "-//W3C//DTD SVG 1.1//EN" "http://www.w3.org/Graphics/SVG/1.1/DTD/svg11.dtd">
<svg version="1.1" id="Layer_1" xmlns="http://www.w3.org/2000/svg" xmlns:xlink="http://www.w3.org/1999/xlink" x="0px" y="0px"
	 width="40px" height="24px" viewBox="0 0 40 24" enable-background="new 0 0 40 24" xml:space="preserve">
<path fill="#FFFFFF" d="M21.561,23.352L39.368,5.169C39.768,4.747,40,4.187,40,3.589c0-0.6-0.23-1.162-0.632-1.581l-1.319-1.337
	c-0.855-0.874-2.232-0.874-3.091,0L20.003,15.932L5.042,0.651C4.631,0.233,4.083,0,3.498,0C2.912,0,2.365,0.233,1.954,0.651
	l-1.31,1.337C0.23,2.417,0,2.977,0,3.576c0,0.596,0.23,1.159,0.642,1.577l17.815,18.199C18.869,23.771,19.419,24,20.003,24
	C20.602,24,21.145,23.771,21.561,23.352z"/>
</svg>
