<?xml version="1.0" encoding="utf-8"?>
<!-- Generator: Adobe Illustrator 16.0.0, SVG Export Plug-In . SVG Version: 6.00 Build 0)  -->
<!DOCTYPE svg PUBLIC "-//W3C//DTD SVG 1.1//EN" "http://www.w3.org/Graphics/SVG/1.1/DTD/svg11.dtd">
<svg version="1.1" id="Layer_1" xmlns="http://www.w3.org/2000/svg" xmlns:xlink="http://www.w3.org/1999/xlink" x="0px" y="0px"
	 width="24px" height="40px" viewBox="0 0 24 40" enable-background="new 0 0 24 40" xml:space="preserve">
<path d="M0.649,21.561L18.83,39.369c0.422,0.399,0.982,0.632,1.58,0.632c0.6,0,1.162-0.23,1.58-0.632l1.338-1.319
	c0.875-0.855,0.875-2.233,0-3.091L8.069,20.003L23.348,5.041C23.768,4.631,24,4.083,24,3.497s-0.232-1.133-0.652-1.544l-1.336-1.31
	c-0.43-0.413-0.988-0.644-1.588-0.644c-0.596,0-1.158,0.23-1.576,0.642L0.649,18.457C0.228,18.868,0,19.419,0,20.004
	C0,20.602,0.228,21.145,0.649,21.561z"/>
</svg>
