<?xml version="1.0" encoding="utf-8"?>
<!-- Generator: Adobe Illustrator 24.3.0, SVG Export Plug-In . SVG Version: 6.00 Build 0)  -->
<svg version="1.1" id="Layer_1" xmlns="http://www.w3.org/2000/svg" xmlns:xlink="http://www.w3.org/1999/xlink" x="0px" y="0px"
	 viewBox="0 0 52 49.1" style="enable-background:new 0 0 52 49.1;" xml:space="preserve">
<style type="text/css">
	.st0{fill:#DEAF69;}
</style>
<g id="layer1">
	<g id="g858" transform="matrix(0.26458333,0,0,0.26458333,47.546741,86.332938)">
		<path id="path835" class="st0" d="M-6.6-185.8c1.2-4,2.8-7.9,4-11.9c1.2-3.6,2.8-6.3,6.3-8.3c2-1.2,4.4-3.6,5.5-6.3
			c2-4,1.6-8.7-0.8-12.3c-2.8-4-7.5-6.7-13.1-6.7c-36.8,0-73.3,0-110.1,0h-37.6v-72.9c0-5.5,1.2-9.1,3.6-10.7
			c2.4-1.6,5.9-1.2,11.5,1.2c1.2,0.4,2.4,1.2,3.6,2l2.8,1.6l-0.4,1.2c-3.6,7.1-2.4,15.8,2.8,21.8c1.2,1.6,2.4,2.4,3.6,2.4
			c0.8,0,2-0.4,3.2-1.6c6.3-6.3,12.7-12.7,19-19c1.2-1.2,1.6-2.4,1.6-3.2c0-1.2-0.8-2-2-3.2c-5.5-4.8-15-7.1-21.4-3.2l-0.8,0.4
			l-0.8-0.4c-0.8-1.2-1.6-1.6-2.4-2.4c-2-1.2-3.6-2.4-5.5-3.2c-3.6-1.6-7.1-2.4-10.3-2.4s-5.9,0.8-8.3,2.4
			c-4.4,3.2-6.7,8.7-6.7,15.8c0.8,16.6,0.4,33.7,0.4,50.3c0,7.1,0,14.7,0,21.8v0.8l-0.8,0.4c-6.3,4-9.5,8.7-9.5,13.5
			s3.2,9.5,9.1,13.1c2,1.2,3.2,4,3.2,4.8l1.6,4.4c2.8,7.9,5.5,16.2,7.9,24.2c2.4,8.7,7.1,12.7,15,13.1h2l-0.4,2.8
			c-0.4,1.6-0.8,3.2-1.6,4.4l-0.8,3.2c-1.2,4,1.2,4.8,2,5.1c2.4,0.8,4-0.4,4.8-2.8l0.4-0.8c0.8-1.6,1.2-3.6,1.6-5.1
			c0.8-5.5,4.4-6.3,8.3-6.3c19,0,38.4,0,57,0H-49c11.5,0,11.9,0.4,15.8,11.1c0,0,0,0.4,0.4,0.8l0,0c0.4,0.4,1.2,0.8,1.6,1.2
			c1.2,0.8,2.8,2,3.6,2s1.6-0.4,2-1.2c0.4-0.8,0.8-2.4,0-4c-0.4-1.6-1.2-3.2-1.6-4.8c-0.4-0.8-0.8-2-0.8-2.8l-0.4-2h2
			c7.9-0.4,12.3-4.4,14.7-12.3C-10.2-175.5-8.2-180.6-6.6-185.8z M-122.2-307c2.8-2.4,5.9-3.2,8.7-2.4l2.8,0.8l-2,2
			c-2.8,2.4-5.1,4.8-7.5,7.5l-5.5,5.5l-0.4-3.2C-126.6-300.6-125-304.6-122.2-307z M-153.5-210.7c-1.6,0-3.2,0.4-4.4-0.8
			c-2-1.2-4-3.6-4-5.9c0-2.8,3.6-5.5,4.4-5.9c1.2-0.8,2.8-0.8,4-0.8c0.4,0,0.8,0,1.2,0H-6.6c0.4,0,0.8,0,1.2,0
			c1.2,0,2.8-0.4,3.6,0.4c2.8,2,5.1,4,4.8,5.9c-0.4,2.4-2.4,4.4-4.8,6.3c-0.8,0.4-1.6,0.8-2.4,0.8c-0.4,0-1.2,0-1.6,0
			c-0.4,0-0.8,0-1.2,0h-72.5c-24.2,0-48.7,0-73.3,0C-152.7-211.1-153.1-210.7-153.5-210.7z M-20.1-169.6c-0.8,2.4-5.5,4-7.9,4
			c-20.2,0-40.4,0-60.2,0h-12.7c-3.2,0-6.3,0-9.1,0c-6.7,0-13.5,0-20.2,0h-0.4c-5.1,0-7.5-2-9.1-6.7c-2-6.7-4.4-13.1-6.3-20.2
			c-1.2-3.2-2-6.3-3.2-9.5l-0.8-2H-8.2l-0.8,2.4c-1.2,3.2-2,5.9-2.8,9.1C-14.5-185-16.9-177.1-20.1-169.6z"/>
		<path id="path837" class="st0" d="M-93.3-291.9c-0.4,0.4-0.8,0.8-1.2,1.2c-0.8,0.8-2,2.4-2,2.8c0,1.2,2.4,3.6,3.6,3.6
			c0.4,0,2.8-2.4,2.8-3.2s-0.8-2-1.6-3.2c-0.4-0.4-0.8-0.8-0.8-1.2C-92.5-291.9-92.9-291.9-93.3-291.9z"/>
		<path id="path839" class="st0" d="M-108.8-278c-0.4,0.4-0.4,0.4-0.8,0.8c0.4,0.4,0.4,0.4,0.8,0.8c0.8,1.2,2,2.4,2.8,2.4
			c0.4,0,1.6-1.2,2.4-1.6c0.4-0.4,0.8-0.8,1.2-1.2c0-0.4,0-0.4,0-0.8c-0.4-0.4-0.8-0.8-1.2-0.8c-1.2-0.8-2.4-2-3.2-2
			C-107.2-280.4-108.4-278.8-108.8-278z"/>
		<path id="path841" class="st0" d="M-77.1-283.6c0-0.8-2-3.2-2.8-3.2c-1.2,0.4-3.6,2.4-3.6,3.2s1.2,2,2,3.2
			c0.4,0.4,0.8,0.8,1.2,1.2h0.8c0.4-0.4,0.8-0.8,0.8-1.2C-78.3-281.6-77.1-282.8-77.1-283.6z"/>
		<path id="path843" class="st0" d="M-89.4-270.9c-0.4-0.4-1.2-0.8-1.6-1.2c-1.2-1.2-2.4-2-3.2-2h-0.4c-0.8,0-1.2,0.4-1.6,0.8
			c-0.8,0.8-1.2,1.6-0.8,2.8c0,1.2,0.4,2.4,1.2,2.8c0.8,0.4,1.6,0.4,2.4,0.4s2-1.2,3.2-2.4C-90.6-270.1-89.8-270.5-89.4-270.9z"/>
		<path id="rect860" class="st0" d="M-129.3-210.7h101.1c11.4,0,20.6,9.2,20.6,20.6v0c0,11.4-9.2,20.6-20.6,20.6h-101.1
			c-11.4,0-20.6-9.2-20.6-20.6v0C-149.9-201.5-140.7-210.7-129.3-210.7z"/>
		<path id="rect943" class="st0" d="M-136.4-173.7h113.8c3.3,0,6,2.7,6,6l0,0c0,3.3-2.7,6-6,6h-113.8c-3.3,0-6-2.7-6-6l0,0
			C-142.4-171.1-139.7-173.7-136.4-173.7z"/>
		<path id="rect945" class="st0" d="M-147.5-210.7h5.5c3.3,0,6,2.7,6,6v0.2c0,3.3-2.7,6-6,6h-5.5c-3.3,0-6-2.7-6-6v-0.2
			C-153.5-208-150.8-210.7-147.5-210.7z"/>
		<path id="rect947" class="st0" d="M-15.2-206.3h7.4c1.9,0,3.4,1.5,3.4,3.4v5.1c0,1.9-1.5,3.4-3.4,3.4h-7.4c-1.9,0-3.4-1.5-3.4-3.4
			v-5.1C-18.6-204.7-17.1-206.3-15.2-206.3z"/>
	</g>
</g>
</svg>
