<?xml version="1.0" encoding="utf-8"?>
<!-- Generator: Adobe Illustrator 16.0.0, SVG Export Plug-In . SVG Version: 6.00 Build 0)  -->
<!DOCTYPE svg PUBLIC "-//W3C//DTD SVG 1.1//EN" "http://www.w3.org/Graphics/SVG/1.1/DTD/svg11.dtd">
<svg version="1.1" id="Layer_1" xmlns="http://www.w3.org/2000/svg" xmlns:xlink="http://www.w3.org/1999/xlink" x="0px" y="0px"
	 width="20px" height="20px" viewBox="0 0 20 20" enable-background="new 0 0 20 20" xml:space="preserve">
<path d="M17.917,9.954c1.147,0,2.083,0.79,2.083,1.762v4.933C20,16.842,19.841,17,19.38,17c-0.46,0-0.562-0.158-0.562-0.352v-1.543
	H1.232v1.543C1.232,16.842,1.135,17,0.64,17C0.145,17,0,16.842,0,16.648v-4.933c0-0.971,0.935-1.762,2.083-1.762H17.917z M16.805,5
	c0.858,0,1.555,0.696,1.555,1.554v2.551c0,0.086-0.07,0.156-0.155,0.156H1.835c-0.086,0-0.155-0.07-0.155-0.156v-2.55
	C1.68,5.694,2.376,5,3.234,5H16.805z"/>
</svg>
