<?xml version="1.0" encoding="utf-8"?>
<!-- Generator: Adobe Illustrator 16.0.0, SVG Export Plug-In . SVG Version: 6.00 Build 0)  -->
<!DOCTYPE svg PUBLIC "-//W3C//DTD SVG 1.1//EN" "http://www.w3.org/Graphics/SVG/1.1/DTD/svg11.dtd">
<svg version="1.1" id="Layer_1" xmlns="http://www.w3.org/2000/svg" xmlns:xlink="http://www.w3.org/1999/xlink" x="0px" y="0px"
	 width="436px" height="320px" viewBox="0 13 436 320" enable-background="new 0 13 436 320" xml:space="preserve">
<filter  width="110.9%" height="109.1%" id="xw9lpwv7da" filterUnits="objectBoundingBox" y="-2.3%" x="-7.6%">
	<feOffset  result="shadowOffsetOuter1" in="SourceAlpha" dy="3" dx="-2"></feOffset>
	<feColorMatrix  values="0 0 0 0 0.533333333 0 0 0 0 0.450980392 0 0 0 0 0.321568627 0 0 0 1 0" in="shadowOffsetOuter1">
		</feColorMatrix>
</filter>
<g transform="matrix(-1 0 0 1 438 0)">
	<path opacity="0.1" fill="#C4A576" enable-background="new    " d="M242-68.225c132.555,0,240,84.34,240,188.379
		S374.555,308.533,242,308.533S2,224.193,2,120.154S109.445-68.225,242-68.225z"/>
	<g>
		<g transform="translate(73 74)">
			<g filter="url(#xw9lpwv7da)">
				<path id="_x36_teylojpib_2_" d="M318.606,7.757c-13.876,0-25.127,11.139-25.127,24.864c0,13.73,25.127,47.846,25.127,47.846
					s25.139-34.125,25.139-47.846C343.745,18.896,332.495,7.757,318.606,7.757L318.606,7.757z M318.066,45.188
					c-7.082-0.005-12.829-5.759-12.826-12.842c0.002-7.081,5.753-12.831,12.835-12.831c7.082,0.001,12.833,5.752,12.834,12.833
					c-0.001,3.413-1.357,6.675-3.762,9.077c-2.418,2.401-5.671,3.758-9.082,3.754V45.188L318.066,45.188z"/>
			</g>
			<g>
				<path id="_x36_teylojpib_1_" fill="#C4A576" d="M318.606,7.757c-13.876,0-25.127,11.139-25.127,24.864
					c0,13.73,25.127,47.846,25.127,47.846s25.139-34.125,25.139-47.846C343.745,18.896,332.495,7.757,318.606,7.757L318.606,7.757z
					 M318.066,45.188c-7.082-0.005-12.829-5.759-12.826-12.842c0.002-7.081,5.753-12.831,12.835-12.831
					c7.082,0.001,12.833,5.752,12.834,12.833c-0.001,3.413-1.357,6.675-3.762,9.077c-2.418,2.401-5.671,3.758-9.082,3.754V45.188
					L318.066,45.188z"/>
			</g>
		</g>
		<path fill="none" stroke="#535461" stroke-width="4.153" d="M115.309,219.112c0,0-9.179-31.112,1.712-54.026
			c4.631-9.589,6.025-20.411,3.991-30.849c-1.008-4.955-2.466-9.796-4.358-14.479"/>
		<path fill="#C4A576" d="M123.403,105.292c0,3.812-6.928,14.87-6.928,14.87s-6.928-11.058-6.928-14.87
			c-0.163-2.577,1.124-5.042,3.34-6.385c2.188-1.33,4.959-1.33,7.175,0c2.215,1.343,3.474,3.808,3.313,6.385H123.403z
			 M134.81,126.409c-2.06,3.206-13.864,8.74-13.864,8.74s0.199-13.045,2.292-16.245c1.235-2.257,3.641-3.633,6.238-3.551
			c2.57,0.07,4.9,1.572,6.039,3.899C136.629,121.581,136.378,124.347,134.81,126.409L134.81,126.409z M134.314,162.524
			c-3.402,1.736-16.396,0.555-16.396,0.555s6.784-11.153,10.182-12.882c2.231-1.31,5.001-1.279,7.172,0.093
			c2.199,1.364,3.455,3.832,3.237,6.417C138.319,159.27,136.688,161.518,134.314,162.524L134.314,162.524z M127.779,189.744
			c-3.052,2.271-16.06,3.319-16.06,3.319s4.785-12.117,7.859-14.405c1.965-1.672,4.701-2.103,7.083-1.127
			c2.38,1.002,4.038,3.202,4.262,5.781c0.252,2.554-0.965,5.059-3.14,6.432H127.779L127.779,189.744z M106.438,135.895
			c2.743,2.646,15.481,5.399,15.481,5.399s-3.128-12.661-5.871-15.32c-2.778-2.358-6.888-2.152-9.442,0.452
			C104.078,129.048,104.005,133.187,106.438,135.895z M99.193,167.841c3.426,1.714,16.393,0.529,16.393,0.529
			s-6.753-11.155-10.154-12.875c-3.379-1.413-7.248,0.01-8.874,3.263C94.905,162.006,96.079,165.987,99.193,167.841z
			 M96.423,199.854c3.079,2.271,16.085,3.29,16.085,3.29s-4.781-12.116-7.86-14.406c-1.967-1.634-4.695-2.056-7.069-1.079
			c-2.376,0.975-4.027,3.197-4.255,5.745c-0.254,2.573,0.955,5.045,3.092,6.45H96.423z"/>
		<path fill="#A8A8A8" d="M186.97,295.983c0,0,12.091-2.416,15.328-5.652c3.239-3.232,17.773-8.882,19.402-4.835
			c1.6,4.021,21.797,17.774,8.072,20.192c-13.73,2.418-32.31,3.233-36.353,1.604C189.404,305.691,186.97,295.982,186.97,295.983
			L186.97,295.983z"/>
		<path opacity="0.2" enable-background="new    " d="M229.761,304.191c-13.725,2.42-32.31,3.215-36.353,1.605
			c-3.061-1.24-5.21-7.135-6.059-9.889c-0.238,0.052-0.384,0.075-0.384,0.075s2.423,9.705,6.442,11.31
			c4.047,1.633,22.636,0.813,36.353-1.604c3.956-0.715,5.102-2.341,4.67-4.438C234.098,302.611,232.713,303.656,229.761,304.191
			L229.761,304.191z"/>
		<g>
			<path fill="#A8A8A8" d="M382.76,242.396c0,0,12.103-2.42,15.341-5.653s17.77-8.898,19.38-4.862
				c1.611,4.063,21.807,17.773,8.07,20.19c-13.722,2.444-32.312,3.234-36.337,1.631C385.19,252.066,382.76,242.396,382.76,242.396z"
				/>
			<path opacity="0.2" enable-background="new    " d="M425.561,250.576c-13.722,2.418-32.313,3.233-36.337,1.627
				c-3.074-1.239-5.189-7.158-6.059-9.887l-0.393,0.079c0,0,2.418,9.675,6.456,11.306c4.037,1.6,22.623,0.813,36.336-1.631
				c3.962-0.686,5.101-2.345,4.672-4.409c-0.339,1.374-1.72,2.398-4.676,2.913V250.576z"/>
		</g>
		<path fill="#A8A8A8" d="M88.519,221.023c-4.5,8.744-3.962,19.205,1.422,27.44c0.843,1.276,1.646,2.207,2.272,2.471
			c3.045,1.209,9.17,4.147,9.17,4.147l14.699-5.773c0,0,2.387-12.63,4.647-23.497c1.56-7.377,3.044-13.939,3.645-15.104
			c1.517-2.833,0-33.686,0-33.686s-14.696-0.984-18.753,10.351l-1.773,3.476L88.519,221.023L88.519,221.023z"/>
		<path opacity="0.1" fill="#FFFFFF" enable-background="new    " d="M108.028,224.43c8.939,10.251,12.71,1.386,12.71,1.386
			c1.558-7.377,3.043-13.939,3.643-15.104c1.518-2.833,0-33.686,0-33.686s-14.696-0.984-18.752,10.351l-1.773,3.476
			C102.734,199.914,101.598,217.086,108.028,224.43L108.028,224.43z"/>
		<path fill="#A8A8A8" d="M109.988,252.995l51.916-5.974l9.273-60.949l-7.009-15.829c-2.95-6.76-7.055-12.937-12.121-18.277
			c-3.51-3.713-7.771-7.296-12.26-9.097c-0.604-0.236-1.248-0.462-1.873-0.635c-1.479-0.45-3.102-0.153-4.322,0.776
			c-6.411,4.525-8.702,23.835-9.427,33.103c-0.313,3.84-0.826,7.633-1.563,11.393L109.988,252.995z"/>
		<path opacity="0.1" fill="#FFFFFF" enable-background="new    " d="M144.552,185.404l-10.812,26.61
			c5.668-4.15,14.063-26.713,14.063-26.713l7.542,25.735l-6.002-27.125c0.882-5.902,1.149-11.85,0.772-17.802
			c-0.472-6.793-6.875-17.74-10.333-23.242c-0.604-0.236-1.248-0.462-1.872-0.635c-1.479-0.45-3.102-0.153-4.322,0.776
			c2.731,5.459,9.51,19.153,11.62,23.208C147.822,171.34,144.552,185.404,144.552,185.404z"/>
		<path fill="#A8A8A8" d="M153.387,255.082h37.065c0,0-0.868-36.424-6.307-56.236c-2.047-7.362-4.404-11.246-6.551-13.153
			c-1.034-0.979-2.325-1.612-3.724-1.761c-1.084-0.086-2.142,0.158-3.043,0.749c-5.23,4.994-11.334,31.396-11.334,31.396
			l-6.105,39.006H153.387z"/>
		<path opacity="0.1" fill="#FFFFFF" enable-background="new    " d="M179.393,231.683c1.176,3.218,1.634,6.927,0,10.521
			l-6.267,3.111c0,0-16.872-7.148-14.83-21.817c0,0,0.576-3.019,6.374-2.781C171.347,221.031,177.184,225.358,179.393,231.683z
			 M172.68,193.16c-0.18-5.141,2.608-6.907,4.915-7.487c-1.034-0.979-2.325-1.615-3.724-1.761c-1.622,1.349-2.746,3.168-3.248,5.188
			l-5.898,28.669C164.725,217.77,173.017,201.762,172.68,193.16L172.68,193.16z"/>
		<path fill="#A8A8A8" d="M145.972,215.82l13.962,19.092l2.411,15.727l-8.953,4.439l-14.84,3.271l-37.169-3.271l4.791-11.127
			l16.59-23.267L145.972,215.82z"/>
		<path opacity="0.1" fill="#FFFFFF" enable-background="new    " d="M140.588,209.285c0,0,9.509,0.669,5.924,16.997
			c-3.556,16.354-40.338,17.669-40.338,17.669s7.824-13.851,19.85-23.768c1.327-1.103,2.635-2.254,3.886-3.495
			c2.778-2.776,8.046-7.627,10.679-7.405V209.285z"/>
		<path opacity="0.1" enable-background="new    " d="M149.143,221.598c0,0,12.885,11.729,11.68,29.808 M170.828,184.659
			c0,0-13.536,17.985-15.049,45.67 M124.385,177.014c0,0,6.567,29.756-9.803,52.172"/>
		<path fill="#C4A576" d="M179.741,254.75c-0.941-0.869-1.823-1.903-2.081-3.164c-0.283-1.238,0.249-2.739,1.46-3.196
			c1.344-0.535,2.78,0.407,3.855,1.334c1.079,0.928,2.337,2.03,3.758,1.816c-1.481-1.354-2.146-3.379-1.772-5.342
			c0.057-0.407,0.245-0.788,0.489-1.08c0.757-0.803,2.113-0.434,3.008,0.165c2.836,1.986,3.634,5.839,3.651,9.325
			c0.27-1.261,0.043-2.573,0.051-3.837c0.008-1.291,0.338-2.714,1.437-3.417c0.665-0.345,1.435-0.539,2.186-0.516
			c1.282-0.042,2.699,0.077,3.573,1.012c1.078,1.174,0.814,3.115-0.131,4.4c-0.942,1.277-2.371,2.064-3.695,2.945
			c-1.052,0.622-1.954,1.489-2.65,2.507c-0.073,0.159-0.133,0.294-0.183,0.436h-7.997
			C182.901,257.235,181.224,256.104,179.741,254.75L179.741,254.75z M130.268,257.213c-0.941-0.843-1.826-1.903-2.105-3.139
			c-0.254-1.263,0.274-2.758,1.459-3.219c1.345-0.512,2.779,0.436,3.88,1.363c1.08,0.925,2.337,2.002,3.762,1.814
			c-1.512-1.354-2.17-3.404-1.773-5.371c0.059-0.403,0.216-0.781,0.489-1.076c0.73-0.809,2.086-0.46,2.98,0.162
			c2.835,1.987,3.637,5.863,3.652,9.32c0.296-1.258,0.04-2.538,0.047-3.829c0.009-1.295,0.367-2.718,1.439-3.39
			c0.69-0.369,1.434-0.543,2.211-0.518c1.279-0.071,2.701,0.078,3.548,1.009c1.104,1.146,0.813,3.088-0.131,4.372
			c-0.942,1.283-2.374,2.09-3.696,2.95c-1.051,0.647-1.956,1.515-2.622,2.536c-0.092,0.128-0.163,0.265-0.212,0.434h-8.005
			c-1.795-0.908-3.439-2.066-4.921-3.42H130.268z M83.435,250.463c-0.938-0.869-1.824-1.9-2.104-3.166
			c-0.251-1.235,0.276-2.763,1.459-3.221c1.346-0.508,2.781,0.434,3.886,1.361c1.078,0.926,2.335,2.03,3.758,1.814
			c-1.513-1.351-2.172-3.373-1.775-5.338c0.065-0.401,0.232-0.781,0.508-1.093c0.756-0.778,2.082-0.456,2.979,0.189
			c2.836,1.991,3.635,5.84,3.65,9.326c0.298-1.261,0.043-2.571,0.051-3.839c0.008-1.289,0.365-2.707,1.439-3.414
			c0.688-0.344,1.43-0.538,2.205-0.513c1.283-0.045,2.705,0.073,3.579,1.009c1.079,1.173,0.786,3.116-0.157,4.4
			c-0.942,1.256-2.374,2.063-3.697,2.95c-1.053,0.619-1.957,1.485-2.621,2.506c-0.076,0.159-0.153,0.295-0.213,0.437H88.37
			C86.568,252.959,84.921,251.824,83.435,250.463L83.435,250.463z"/>
		<g transform="translate(73 74) matrix(-1 0 0 1 221.988 18.594)">
			
				<linearGradient id="SVGID_1_" gradientUnits="userSpaceOnUse" x1="56.549" y1="99.0173" x2="56.5351" y2="100.1193" gradientTransform="matrix(112.2998 0 0 -207.7452 -6318.8018 20740.2715)">
				<stop  offset="0" style="stop-color:#808080;stop-opacity:0.25"/>
				<stop  offset="0.54" style="stop-color:#808080;stop-opacity:0.12"/>
				<stop  offset="1" style="stop-color:#808080;stop-opacity:0.1"/>
			</linearGradient>
			<path fill="url(#SVGID_1_)" d="M93.103,160.99c-0.546-2.24-1.976-3.043-5.103-2.657c-3.432,0.436-6.844,0.841-11.023-2.12
				c-2.223-1.55-3.926-2.928-5.079-3.887l0.204-0.046c0,0-8.471-10.61-7.907-16.703c0.554-6.091-3.932-21.836-3.932-21.836
				s-0.25-10.292-2.603-16.27c-0.625-1.561-1.103-3.199-1.426-4.845c-1.417-7.538-5.616-27.45-12.417-36.231l-0.415-17.573v-0.667
				l0.178,0.172c0.64-0.671,1.149-1.459,1.507-2.32c2.001,1.021,6.304,3.158,8.634,3.608c3.085,0.598,6.908,3.218,6.908,3.218
				s8.803,10.246,15.539,5.711c6.761-4.561-12.59-11.874-12.59-11.874s-6.59-3.548-9.353-4.496c-1.97-0.68-6.018-3.318-8.228-4.812
				c-0.037-0.25-0.073-0.482-0.118-0.739c-1.304-6.582-3.145-9.107-2.365-13.143c0.199-1.045,0.528-2.059,0.955-3.03
				c2.594-6.136-8.219-14.666-8.219-14.666s-7.362-6.234-4.681-9.677c0,0,4.094-0.435,0.589-3.73
				c-0.593-0.561-1.22-1.086-1.839-1.565c0.024-0.099,0.062-0.18,0.091-0.28c0.724-2.245,1.867-4.345,3.36-6.18
				c0.233-0.287,0.482-0.569,0.742-0.869c5.855-1.564,9.883-6.924,9.78-12.985c-0.067-3.215-1.334-6.285-3.533-8.622
				c0.82-0.743,1.24-1.847,1.123-2.959c0.351-4.279-8.252-8.594-11.838-7.973c-2.049,0.366-3.886,1.472-5.938,1.837
				c-2.123,0.395-4.333-0.032-6.494,0c-2.886,0.031-5.711,0.864-8.173,2.386c-0.61,0.345-1.143,0.833-1.512,1.436
				c-0.308,0.703-0.447,1.458-0.434,2.216C6.882-43.297,1.185-36.739-4.874-31.566c-0.811,0.6-1.509,1.366-2.058,2.221
				c-0.606,1.16-0.594,2.534-0.602,3.845C-7.637-12.453-12.255,1.262-22.757,9.226c0.165,0.1,0.322,0.206,0.497,0.29l-0.484,0.387
				c3.406,2.211,8.542,1.138,10.813-2.174c-0.848,3.619-2.309,7.048-4.319,10.166c0.142,0,0.294,0,0.421-0.021
				c-0.135,0.234-0.279,0.467-0.421,0.697c4.742-0.141,8.205-4.214,10.963-7.936c0.042,0.356,0.058,0.722,0.07,1.078
				c0.01,4.045-1.103,8.003-3.209,11.436l0.435-0.037c-0.14,0.241-0.27,0.479-0.435,0.713c0.689-0.052,1.381-0.123,2.07-0.208
				c-2.763,5.632-7.086,15.871-7.086,15.871l-1.637,4.026c-0.873,2.144-2.148,4.099-3.733,5.755
				c-1.759,1.832-3.964,4.058-4.911,4.643c-1.698,1.048-5.825,14.672,1.66,12.466c7.485-2.212,10.321-12.735,10.321-12.735
				c0.231-1.73,0.901-3.379,1.938-4.773c0.572-0.779,1.052-1.637,1.418-2.542c2.076-4.575,4.404-9.021,6.974-13.337
				c1.477-2.458,2.739-5.025,3.745-7.71c0.572-1.51,1.308-2.957,2.197-4.32c1.678-0.703,3.277-1.595,4.767-2.646
				c1.256-0.882,2.348-1.986,3.206-3.247c0.542,2.128,1.18,4.226,1.948,6.286c1.807,4.902,5.123,16.294,0.324,23.902
				c-4.412,6.981-4.501,10.358-4.178,11.751c0,0.07-0.041,0.137-0.056,0.217c-0.831,3.12-0.427,6.427,1.119,9.255
				c0.827,1.582,1.291,3.35,1.343,5.151v0.512c0.039,1.205-0.124,2.378-0.467,3.536c-0.938,3.167-2.89,10.181-3.546,15.267
				c-0.855,6.789-6.537,13.34-6.537,13.34s-15.032,16.201-20.757,35.255c0,0-3.234,8.168-5.591,9.917c0,0-4.484,2.68-5.229,7.799
				c-0.021,0.13-0.05,0.26-0.062,0.434l-0.931,2.402c0,0,8.333,4.516,10.042,4.479l0.976-2.04l8.728,6.551l13-0.319
				c0.365-0.221,0.676-0.524,0.939-0.867c0.628-0.793,0.993-2.072-0.979-3.404c-0.979-0.62-2.16-0.881-3.313-0.677
				c-1.672,0.227-4.877-0.32-7.879-6.574l-1.652-3.089l0.213,0.069c0,0-2.847-4.659,2.829-10.865
				c5.676-6.205,13.841-22.601,13.841-22.601s11.101-9.032,13.015-14.835c0,0,7.391-12.472,11.683-19.888
				c0.716,1.541,1.29,2.728,1.29,2.728s8.846,11.935,10.083,21.013c1.239,9.105,9.652,31.531,13.207,37.506
				c3.581,6,3.629,8.357,3.629,8.357s-2.268,5.652-0.862,10.334c0,0.049,0.029,0.117,0.041,0.163l0.066,2.681l9.961,0.128
				l-0.026-1.353l12.685,0.379c0,0,12.238-3.667,11.834-6.362C93.18,161.359,93.146,161.169,93.103,160.99L93.103,160.99z"/>
			<path fill="#EFB4B6" d="M37.751-26.325c-1.559,1.089-2.951,2.378-4.14,3.863c-1.448,1.792-2.554,3.848-3.255,6.045
				c-0.587,1.781-0.877,3.645-0.855,5.518l-6.411-5.464l-8.239,1.836c1.73-1.639,3.211-3.509,4.418-5.545
				c1.09-1.838,1.952-3.79,2.594-5.828c0.434-1.321,0.734-2.665,0.91-4.039C22.773-29.939,46.561-32.489,37.751-26.325z"/>
			<path fill="#565388" d="M4.46,167.41c-0.255,0.341-0.557,0.644-0.911,0.869l-12.583,0.306l-8.436-6.438l-0.948,2.005
				c-1.651,0.057-9.7-4.402-9.7-4.402l0.938-2.34c0-0.132,0.028-0.288,0.045-0.436c0.72-5.051,5.066-7.65,5.066-7.65l1.641-0.715
				l9.989,2.414l3.128,5.898c2.896,6.14,5.992,6.686,7.611,6.457c1.119-0.197,2.264,0.061,3.21,0.672
				C5.418,165.373,5.067,166.635,4.46,167.41L4.46,167.41z M91.168,161.254c0.397,2.653-11.439,6.254-11.439,6.254l-12.262-0.383
				l0.031,1.328l-9.622-0.124l-0.058-2.635c0-0.045-0.034-0.116-0.045-0.162c-1.344-4.556,0.806-10.126,0.806-10.126l0.95-1.69
				l9.538-2.881c2.037,1.854,4.167,3.581,6.418,5.149c4.05,2.883,7.362,2.469,10.658,2.061c3.016-0.355,4.414,0.412,4.913,2.608
				C91.101,160.848,91.135,161.058,91.168,161.254L91.168,161.254z"/>
			<path fill="#7679B4" d="M34,82.087c-0.31,0.691-1.36,2.568-2.738,4.994c-4.111,7.263-11.248,19.54-11.248,19.54
				c-1.856,5.674-12.569,14.539-12.569,14.539s-7.912,16.08-13.422,22.171C-11.473,149.422-8.698,154-8.698,154l-13.363-4.656
				c2.284-1.719,5.407-9.739,5.407-9.739c5.517-18.687,20.051-34.612,20.051-34.612s5.489-6.406,6.321-13.07
				c0.631-4.971,2.521-11.862,3.432-14.994c0.316-1.112,0.467-2.295,0.434-3.45v-0.504c-0.048-1.769-0.493-3.502-1.304-5.061
				c-1.483-2.786-1.872-6.033-1.065-9.078c0.263-1.096,0.703-2.132,1.292-3.08l3.266-0.949l11.539-3.368c0,0,0.728,2.51,1.69,6.105
				C31.245,65.949,34.886,80.214,34,82.087L34,82.087z"/>
			<path opacity="0.1" enable-background="new    " d="M33.771,81.72c-0.311,0.664-1.357,2.541-2.739,4.966
				c-4.11,7.29-11.268,19.541-11.268,19.541c-1.864,5.677-12.571,14.538-12.571,14.538s-7.906,16.079-13.42,22.171
				c-5.5,6.091-2.688,10.672-2.688,10.672l-13.358-4.658c2.279-1.719,5.403-9.74,5.403-9.74
				c5.529-18.688,20.063-34.611,20.063-34.611s5.455-6.394,6.288-13.017c0.629-4.996,2.521-11.889,3.431-14.993
				c0.313-1.142,0.465-2.295,0.435-3.478v-0.506c-0.048-1.767-0.493-3.476-1.305-5.06c-1.483-2.785-1.872-6.03-1.065-9.073
				c0.267-1.083,0.707-2.135,1.292-3.085l3.266-0.947l11.539-3.374c0,0,0.731,2.528,1.69,6.107
				C31.021,65.552,34.657,79.847,33.771,81.72L33.771,81.72z"/>
			<path fill="#7679B4" d="M70.76,152.14l-12.189,3.266c0,0-0.054-2.315-3.514-8.212c-3.445-5.868-11.587-27.874-12.789-36.791
				c-1.201-8.915-9.751-20.641-9.751-20.641s-0.57-1.166-1.263-2.682c-0.631-1.405-1.385-3.133-1.894-4.551
				c-1.056-2.947-5.804-7.145-5.804-7.145c-8.673-4.803-10.378-10.58-10.473-14.164c-0.047-1.188,0.101-2.359,0.464-3.499
				l2.217-2.909l4.205-5.523l14.225-15.23l8.652,1.784l0.521,22.183c6.588,8.606,10.636,28.157,11.991,35.563
				c0.313,1.613,0.775,3.223,1.383,4.754c2.286,5.875,2.511,15.957,2.511,15.957s4.338,15.468,3.831,21.45
				C62.557,141.733,70.76,152.14,70.76,152.14L70.76,152.14z"/>
			<path fill="#EFB4B6" d="M44.011,28.522c0,0,6.729,4.813,9.412,5.743c2.676,0.932,9.031,4.439,9.031,4.439
				s18.725,7.169,12.198,11.637c-6.521,4.45-15.034-5.623-15.034-5.623s-3.71-2.577-6.692-3.16
				c-3.006-0.591-9.366-4.067-9.366-4.067L44.011,28.522z"/>
			<path opacity="0.1" enable-background="new    " d="M37.751-26.325c-1.559,1.089-2.951,2.378-4.14,3.863
				c-0.783,0.154-1.578,0.255-2.39,0.274c-3.635,0.082-5.521-3.899-7.936-6.279c0.768-2.403-0.524-1.472-0.524-1.472
				S46.56-32.489,37.751-26.325z"/>
			<path fill="#EFB4B6" d="M30.91-48.684c7.128,0,12.917,5.774,12.917,12.916c0,7.128-5.789,12.917-12.917,12.917
				c-7.142,0-12.916-5.789-12.916-12.917C17.994-42.91,23.768-48.684,30.91-48.684z"/>
			<path opacity="0.1" enable-background="new    " d="M29.504-10.887l-6.415-5.477l-8.239,1.836
				c1.73-1.639,3.211-3.509,4.418-5.545h0.053c2.768-0.522,5.624,0.021,7.999,1.524c1.064,0.663,2.08,1.385,3.065,2.174
				C29.781-14.614,29.488-12.756,29.504-10.887L29.504-10.887z M42.854,35.845l0.109,4.942c-0.99-0.996-5.958-5.709-4.602,1.126
				c1.499,7.588-7.322,13.098-7.322,13.098c-0.692,0.945-1.375,1.781-2.039,2.542c-6.994,7.737-13.196,5.376-15.909,3.669
				c-0.522-0.334-1.027-0.709-1.469-1.132c-0.272-0.354-0.415-0.794-0.434-1.242c0.263-1.1,0.703-2.137,1.291-3.083l3.266-0.952
				l4.206-5.521l14.225-15.23L42.854,35.845z"/>
			<path fill="#565388" d="M43.125,40.302c0,0-6.289-6.64-4.755,0.939c1.52,7.583-7.325,13.096-7.325,13.096
				c-10.259,14.15-19.416,5.096-19.416,5.096s-2.391-2.604,3.677-12.341c4.648-7.459,1.434-18.629-0.32-23.458
				c-0.753-2.087-1.398-4.21-1.921-6.363l-0.435-1.725l-0.988-4.058c-1.168-4.724-1.539-9.614-1.086-14.452
				c0.292-3.242,0.97-6.441,2.021-9.522c0.655-1.967,1.414-3.67,2.212-4.682c1.155-1.382,2.769-2.305,4.537-2.595
				c2.766-0.523,5.624,0.019,8.01,1.534c1.699,1.046,3.296,2.263,4.755,3.632c3.385,3.235-0.583,3.661-0.583,3.661
				c-2.57,3.368,4.538,9.508,4.538,9.508s10.456,8.371,7.957,14.396c-2.512,6.013-0.148,7.957,1.355,15.871
				C46.876,36.758,43.125,40.302,43.125,40.302L43.125,40.302z"/>
			<path opacity="0.1" enable-background="new    " d="M30.05-54.598c-1.976,0.361-3.772,1.447-5.742,1.808
				c-2.062,0.382-4.173-0.033-6.264,0c-2.801,0.03-5.542,0.847-7.907,2.339c-0.592,0.343-1.11,0.824-1.467,1.398
				c-0.289,0.685-0.442,1.419-0.436,2.16c-0.576,7.73-6.095,14.167-11.952,19.236c-0.785,0.598-1.46,1.329-1.979,2.173
				c-0.603,1.14-0.587,2.471-0.595,3.762c-0.084,12.801-4.552,26.263-14.71,34.066c3.436,2.269,8.653,1.046,10.718-2.517
				c-0.752,3.917-2.25,7.655-4.394,11.01c4.535-0.089,7.867-4.09,10.543-7.743c0.383,4.534-0.683,9.061-3.03,12.955
				c6.059-0.526,12.252-1.833,17.14-5.425c2.249-1.64,4.287-4.025,4.241-6.804c-0.037-1.579-0.747-3.074-1.25-4.579
				c-1.31-3.931-1-8.881,2.272-11.432c0.62-0.406,1.193-0.862,1.725-1.365c0.758-0.832,1.021-1.991,1.165-3.106
				c0.376-2.72,0.234-5.471-0.394-8.145c-0.176-0.555-0.272-1.146-0.275-1.726c0.082-1.22,1.005-2.255,2.045-2.877
				c1.054-0.634,2.247-0.988,3.348-1.508c3.893-1.907,6.385-5.838,6.445-10.161c0-1.239-0.165-2.623,0.626-3.578
				c1.165-1.432,3.583-0.935,4.977-2.141c1.31-1.119,1.172-3.221,2.095-4.706c0.753-1.209,2.16-1.857,3.179-2.828
				C45.313-49.094,34.21-55.337,30.05-54.598L30.05-54.598z"/>
			<path opacity="0.1" enable-background="new    " d="M28.955-5.662v0.091L20.806,5.487l-5.013,6.789c0,0-1.348,1.29-3.177,3.251
				l-0.988-4.06c-1.167-4.723-1.538-9.614-1.085-14.452c1.888-3.771,3.927-6.304,5.829-7.997c2.179-1.947,5.28-2.455,7.977-1.313
				C27.032-11.156,28.832-8.573,28.955-5.662z"/>
			<path fill="#A66477" d="M30.016-55.25c-1.975,0.347-3.77,1.435-5.755,1.791c-2.044,0.385-4.156-0.033-6.25,0
				c-2.795,0.028-5.531,0.841-7.895,2.327c-0.593,0.343-1.11,0.822-1.468,1.397c-0.288,0.686-0.44,1.42-0.434,2.161
				c-0.587,7.73-6.096,14.167-11.953,19.249c-0.785,0.585-1.459,1.318-1.98,2.161c-0.599,1.134-0.586,2.47-0.594,3.762
				C-6.393-9.602-10.866,3.861-21.023,11.664c3.432,2.268,8.652,1.042,10.714-2.517c-0.747,3.928-2.242,7.674-4.387,11.051
				c4.535-0.103,7.867-4.107,10.543-7.748c0.379,4.523-0.689,9.046-3.038,12.937c6.059-0.533,12.252-1.831,17.143-5.409
				c2.247-1.64,4.288-4.039,4.23-6.805c-0.029-1.59-0.734-3.087-1.238-4.591C11.629,4.651,11.941-0.3,15.212-2.85
				c0.607-0.393,1.194-0.851,1.724-1.368c0.747-0.827,1.01-1.988,1.165-3.103c0.373-2.71,0.23-5.474-0.41-8.149
				c-0.163-0.556-0.258-1.132-0.259-1.726c0.083-1.221,1.001-2.254,2.042-2.876c1.04-0.636,2.25-0.976,3.349-1.51
				c3.892-1.897,6.389-5.804,6.46-10.136c0-1.237-0.169-2.621,0.626-3.582c1.152-1.414,3.578-0.931,4.972-2.124
				c1.316-1.13,1.172-3.233,2.095-4.705c0.755-1.223,2.162-1.858,3.184-2.829C45.297-49.762,34.194-55.989,30.016-55.25z"/>
			<path fill="#EFB4B6" d="M28.291-6.296v0.077L20.126,4.852l-5.01,6.792c0,0-9.398,8.839-11.877,15.856
				c-0.971,2.607-2.189,5.144-3.616,7.541c-2.477,4.235-4.732,8.601-6.726,13.094c-0.369,0.884-0.829,1.721-1.373,2.485
				c-1.021,1.38-1.657,3.001-1.878,4.685c0,0-2.746,10.334-9.984,12.499c-7.24,2.139-3.247-11.189-1.61-12.218
				c0.918-0.579,3.049-2.759,4.767-4.564c1.541-1.629,2.763-3.562,3.606-5.647l1.583-3.935c0,0,7.526-18.072,8.82-19.092
				c0.385-0.335,0.702-0.715,0.95-1.151c1.051-1.693,2.103-3.396,3.197-5.059c1.432-2.185,3.702-6.555,6.953-15.256
				c0.23-0.607,0.459-1.198,0.697-1.759c2.217-5.333,4.754-8.653,7.083-10.739c2.179-1.925,5.271-2.441,7.964-1.306
				C26.347-11.786,28.147-9.214,28.291-6.296L28.291-6.296z"/>
			<path fill="#565388" d="M28.459-6.347v0.095L20.155,5.024L8.428-0.816c2.267-5.426,4.845-8.826,7.218-10.94
				c2.215-1.965,5.38-2.482,8.109-1.326C26.494-11.938,28.328-9.305,28.459-6.347L28.459-6.347z"/>
			<path opacity="0.1" enable-background="new    " d="M18.17-15.105c0,0,8.816,3.778,13.15,4.007 M91.168,161.254
				c0.397,2.653-11.439,6.254-11.439,6.254l-12.262-0.383l0.031,1.328l-9.622-0.124l-0.058-2.635c0-0.045-0.034-0.116-0.045-0.162
				l22.062,0.46l11.205-5.322C91.102,160.846,91.134,161.058,91.168,161.254z M4.46,167.41c-0.255,0.341-0.557,0.644-0.911,0.869
				l-12.583,0.306l-8.436-6.438l-0.948,2.005c-1.651,0.057-9.7-4.402-9.7-4.402l0.938-2.34c0-0.132,0.028-0.288,0.045-0.436
				l9.817,4.32l8.428,6.095L4.46,167.41z M13.055,57.576c0,0,4.73-10.042,9.611-13.156 M31.879,12.747c0,0,2.774,5.164,11.176,3.176
				"/>
		</g>
		<path opacity="0.1" fill="#C4A576" enable-background="new    " d="M206.854,16.861h-2.723c1.013-0.046,1.815-0.875,1.815-1.9
			c0-1.011-0.803-1.854-1.815-1.9h-22.026c-0.688-0.03-1.366,0.317-1.706,0.924c-0.365,0.609-0.365,1.358,0,1.952
			c0.34,0.608,1.019,0.956,1.706,0.924h2.722c-0.668,0-1.313,0.37-1.635,0.951c-0.347,0.597-0.347,1.32,0,1.902
			c0.321,0.596,0.967,0.965,1.635,0.965h-3.797c-0.716-0.044-1.368,0.316-1.735,0.91c-0.365,0.607-0.365,1.357,0,1.964
			c0.367,0.596,1.02,0.958,1.735,0.925h22.023c0.687,0.031,1.362-0.329,1.73-0.924c0.34-0.608,0.34-1.357,0-1.964
			c-0.366-0.594-1.044-0.956-1.731-0.911h3.802c1.046,0,1.901-0.857,1.901-1.916C208.756,17.719,207.9,16.861,206.854,16.861z
			 M357.12,184.826h-2.71c1.044,0,1.902-0.857,1.902-1.9c0-1.046-0.857-1.903-1.902-1.903h-22.011c-1.058,0-1.902,0.857-1.902,1.903
			c0,1.043,0.844,1.9,1.902,1.9h2.709c-0.701-0.029-1.366,0.33-1.719,0.924c-0.366,0.594-0.366,1.356,0,1.949
			c0.353,0.597,1.018,0.957,1.719,0.925h-3.8c-0.701-0.03-1.366,0.332-1.72,0.925c-0.365,0.596-0.365,1.358,0,1.951
			c0.354,0.621,1.019,0.955,1.72,0.924h22.016c0.702,0.031,1.366-0.303,1.719-0.924c0.367-0.593,0.367-1.355,0-1.951
			c-0.353-0.593-1.018-0.955-1.719-0.925h3.803c1.024-0.044,1.816-0.887,1.816-1.897c0-1.012-0.792-1.856-1.816-1.9H357.12
			L357.12,184.826z M165.669,71.447h-2.721c1.071,0,1.902-0.844,1.902-1.903c0-1.044-0.831-1.901-1.902-1.901h-22.016
			c-1.046,0-1.903,0.856-1.903,1.901c0,1.059,0.857,1.903,1.903,1.903h2.721c-1.011,0.046-1.815,0.888-1.815,1.899
			c0,1.026,0.805,1.855,1.815,1.901h-3.801c-0.687-0.031-1.363,0.329-1.731,0.923c-0.338,0.609-0.338,1.357,0,1.964
			c0.368,0.595,1.045,0.957,1.731,0.926h22.013c1.01-0.06,1.818-0.889,1.818-1.9c0-1.025-0.809-1.854-1.818-1.913h3.804
			c0.715,0.044,1.365-0.317,1.733-0.925c0.365-0.593,0.365-1.343,0-1.95C167.034,71.777,166.384,71.414,165.669,71.447z"/>
	</g>
</g>
</svg>
