<?xml version="1.0" encoding="utf-8"?>
<!-- Generator: Adobe Illustrator 16.0.0, SVG Export Plug-In . SVG Version: 6.00 Build 0)  -->
<!DOCTYPE svg PUBLIC "-//W3C//DTD SVG 1.1//EN" "http://www.w3.org/Graphics/SVG/1.1/DTD/svg11.dtd">
<svg version="1.1" id="Layer_1" xmlns="http://www.w3.org/2000/svg" xmlns:xlink="http://www.w3.org/1999/xlink" x="0px" y="0px"
	 width="18px" height="15px" viewBox="0 0 18 15" enable-background="new 0 0 18 15" xml:space="preserve">
<path fill="#FFFFFF" d="M16.74,6.14l-5.669-5.622c-0.345-0.343-0.906-0.343-1.253,0c-0.346,0.343-0.346,0.899,0,1.242l4.157,4.121
	H1.884c-0.488,0-0.885,0.393-0.885,0.879c0,0.484,0.397,0.878,0.885,0.878h12.092l-4.157,4.121c-0.346,0.344-0.346,0.9,0,1.242
	c0.174,0.172,0.399,0.258,0.628,0.258c0.225,0,0.453-0.086,0.625-0.258L16.74,7.38C17.086,7.037,17.086,6.481,16.74,6.14z"/>
</svg>
