<?xml version="1.0" encoding="utf-8"?>
<!-- Generator: Adobe Illustrator 16.0.0, SVG Export Plug-In . SVG Version: 6.00 Build 0)  -->
<!DOCTYPE svg PUBLIC "-//W3C//DTD SVG 1.1//EN" "http://www.w3.org/Graphics/SVG/1.1/DTD/svg11.dtd">
<svg version="1.1" id="Layer_2" xmlns="http://www.w3.org/2000/svg" xmlns:xlink="http://www.w3.org/1999/xlink" x="0px" y="0px"
	 width="29px" height="29px" viewBox="0 0 29 29" enable-background="new 0 0 29 29" xml:space="preserve">
<path fill="#DEAF69" d="M11.056,29c-0.578,0-1.131-0.252-1.51-0.694L0.484,17.761c-0.72-0.838-0.626-2.101,0.208-2.821
	c0.836-0.722,2.094-0.627,2.813,0.209l7.349,8.551L25.347,1.893c0.61-0.92,1.849-1.17,2.766-0.555
	c0.916,0.613,1.164,1.855,0.553,2.774l-15.95,23.998c-0.346,0.521-0.914,0.849-1.536,0.887C11.138,28.999,11.097,29,11.056,29z"/>
</svg>
