<?xml version="1.0" encoding="utf-8"?>
<!-- Generator: Adobe Illustrator 16.0.0, SVG Export Plug-In . SVG Version: 6.00 Build 0)  -->
<!DOCTYPE svg PUBLIC "-//W3C//DTD SVG 1.1//EN" "http://www.w3.org/Graphics/SVG/1.1/DTD/svg11.dtd">
<svg version="1.1" id="Layer_1" xmlns="http://www.w3.org/2000/svg" xmlns:xlink="http://www.w3.org/1999/xlink" x="0px" y="0px"
	 width="40px" height="40px" viewBox="0 0 40 40" enable-background="new 0 0 40 40" xml:space="preserve">
<path fill-rule="evenodd" clip-rule="evenodd" fill="#DEAF69" d="M15.335,22.368c0.432-0.436,0.856-0.865,1.283-1.293
	c5.201-5.209,10.402-10.419,15.605-15.625c1.036-1.037,2.542-1.031,3.584,0.006c1.155,1.15,2.308,2.304,3.458,3.459
	c0.938,0.943,0.99,2.436,0.082,3.406c-0.766,0.818-1.574,1.597-2.367,2.39c-6.592,6.592-13.186,13.182-19.774,19.776
	c-0.769,0.77-1.653,1.021-2.692,0.704c-0.369-0.113-0.679-0.33-0.949-0.602c-4.276-4.275-8.556-8.549-12.826-12.83
	c-0.981-0.983-0.983-2.508-0.009-3.501c1.157-1.178,2.336-2.335,3.5-3.506c1.022-1.028,2.647-0.891,3.551,0.025
	c2.453,2.488,4.927,4.958,7.393,7.435C15.22,22.261,15.27,22.307,15.335,22.368z"/>
</svg>
