<?xml version="1.0" encoding="utf-8"?>
<!-- Generator: Adobe Illustrator 16.0.0, SVG Export Plug-In . SVG Version: 6.00 Build 0)  -->
<!DOCTYPE svg PUBLIC "-//W3C//DTD SVG 1.1//EN" "http://www.w3.org/Graphics/SVG/1.1/DTD/svg11.dtd">
<svg version="1.1" id="Layer_1" xmlns="http://www.w3.org/2000/svg" xmlns:xlink="http://www.w3.org/1999/xlink" x="0px" y="0px"
	 width="40px" height="40px" viewBox="0 0 40 40" enable-background="new 0 0 40 40" xml:space="preserve">
<g>
	<path fill-rule="evenodd" clip-rule="evenodd" fill="#00AF1D" d="M19.999,40C8.945,40-0.001,31.05,0,19.978
		C0.001,8.944,8.968-0.001,20.035,0C31.06,0.002,40.002,8.982,40,20.044C39.998,31.055,31.018,40,19.999,40z M18.302,32.894
		c0.117-0.005,0.136-0.082,0.173-0.125c0.333-0.502,0.663-0.978,0.996-1.479c4.671-6.918,9.357-13.85,14.043-20.78
		c0.085-0.14,0.074-0.196-0.072-0.276c-0.864-0.585-1.729-1.169-2.588-1.773c-0.229-0.156-0.307-0.099-0.429,0.096
		c-4.142,6.15-8.313,12.298-12.454,18.435c-0.121,0.194-0.181,0.198-0.354,0.038c-2.99-3.007-5.996-6.011-8.986-9.018
		c-0.153-0.139-0.215-0.156-0.368-0.001c-0.724,0.743-1.465,1.483-2.208,2.221c-0.155,0.154-0.177,0.232-0.003,0.394
		c1.604,1.599,3.206,3.202,4.807,4.804c2.441,2.428,4.882,4.881,7.322,7.31C18.225,32.807,18.278,32.854,18.302,32.894z"/>
	<path fill-rule="evenodd" clip-rule="evenodd" fill="#FCFDFC" d="M18.302,32.894c-0.024-0.04-0.077-0.087-0.121-0.156
		c-2.44-2.429-4.881-4.882-7.322-7.31c-1.602-1.602-3.203-3.205-4.807-4.804C5.878,20.463,5.9,20.385,6.055,20.23
		c0.743-0.737,1.483-1.478,2.208-2.221c0.153-0.155,0.215-0.138,0.368,0.001c2.99,3.007,5.996,6.011,8.986,9.018
		c0.173,0.16,0.233,0.156,0.354-0.038c4.142-6.137,8.313-12.285,12.454-18.435c0.122-0.195,0.199-0.252,0.429-0.096
		c0.859,0.604,1.724,1.188,2.588,1.773c0.146,0.08,0.157,0.136,0.072,0.276c-4.687,6.93-9.372,13.862-14.043,20.78
		c-0.333,0.502-0.663,0.978-0.996,1.479C18.438,32.812,18.419,32.889,18.302,32.894z"/>
</g>
</svg>
