<svg xmlns="http://www.w3.org/2000/svg" width="16" height="16" viewBox="0 0 16 16">
    <g fill="none" fill-rule="evenodd">
        <g fill="#000" fill-rule="nonzero">
            <g>
                <g>
                    <g>
                        <path d="M15.555 15.552c.592-.592.592-1.59.011-2.171l-5.374-5.374 5.374-5.387c.58-.58.58-1.578-.011-2.17-.592-.604-1.59-.592-2.171-.012L7.998 5.813 2.612.427c-.557-.558-1.579-.58-2.17.011C-.152 1.03-.14 2.052.428 2.62l5.387 5.387-5.387 5.386c-.568.557-.58 1.578.012 2.17.592.592 1.614.569 2.17.012l5.387-5.386 5.386 5.374c.58.58 1.579.592 2.17-.011z" transform="translate(-1362 -105) translate(512 75) translate(850 30)"/>
                    </g>
                </g>
            </g>
        </g>
    </g>
</svg>
