<?xml version="1.0" encoding="utf-8"?>
<!-- Generator: Adobe Illustrator 24.3.0, SVG Export Plug-In . SVG Version: 6.00 Build 0)  -->
<svg version="1.1" id="Layer_1" xmlns="http://www.w3.org/2000/svg" xmlns:xlink="http://www.w3.org/1999/xlink" x="0px" y="0px"
	 viewBox="0 0 52 49.1" style="enable-background:new 0 0 52 49.1;" xml:space="preserve">
<style type="text/css">
	.st0{fill:#DEAF69;}
</style>
<g>
	<path class="st0" d="M12,36.5H2V25.1c0-0.4-0.3-0.7-0.7-0.7s-0.7,0.3-0.7,0.7v22.8c0,0.4,0.3,0.7,0.7,0.7S2,48.3,2,47.9v-3.8h9.3
		v3.8c0,0.4,0.3,0.7,0.7,0.7s0.7-0.3,0.7-0.7V37.2C12.6,36.8,12.3,36.5,12,36.5L12,36.5z M2,42.8V39h9.3v3.8H2z M50.7,24.4
		c-0.4,0-0.7,0.3-0.7,0.7v11.4H40c-0.4,0-0.7,0.3-0.7,0.7v10.7c0,0.4,0.3,0.7,0.7,0.7s0.7-0.3,0.7-0.7v-3.8H50v3.8
		c0,0.4,0.3,0.7,0.7,0.7s0.7-0.3,0.7-0.7V25.1C51.2,24.7,51,24.4,50.7,24.4L50.7,24.4z M40.7,42.8V39H50v3.8H40.7z M41.2,33.7
		c0.4,0,0.7-0.3,0.7-0.7s-0.3-0.7-0.7-0.7h-9.8v-7.2c0-0.4-0.3-0.7-0.7-0.7S30,24.7,30,25.1V27h-8.4v-1.9c0-0.4-0.3-0.7-0.7-0.7
		c-0.4,0-0.7,0.3-0.7,0.7v7.2h-9.6c-0.4,0-0.7,0.3-0.7,0.7s0.3,0.7,0.7,0.7h4v14.2c0,0.4,0.3,0.7,0.7,0.7s0.7-0.3,0.7-0.7V33.7h4.2
		v2.8h-0.8c-0.4,0-0.7,0.3-0.7,0.7v10.7c0,0.4,0.3,0.7,0.7,0.7c0.4,0,0.7-0.3,0.7-0.7v-3.8h11.5v3.8c0,0.4,0.3,0.7,0.7,0.7
		c0.4,0,0.7-0.3,0.7-0.7V37.2c0-0.4-0.3-0.7-0.7-0.7h-0.9v-2.8H36v14.2c0,0.4,0.3,0.7,0.7,0.7s0.7-0.3,0.7-0.7V33.7H41.2z
		 M21.7,30.4h8.4v1.9h-8.4V30.4z M20.2,42.8V39h11.5v3.8H20.2z M30.1,36.5h-8.4v-2.8h8.4V36.5z"/>
</g>
</svg>
