<?xml version="1.0" encoding="utf-8"?>
<!-- Generator: Adobe Illustrator 16.0.0, SVG Export Plug-In . SVG Version: 6.00 Build 0)  -->
<!DOCTYPE svg PUBLIC "-//W3C//DTD SVG 1.1//EN" "http://www.w3.org/Graphics/SVG/1.1/DTD/svg11.dtd">
<svg version="1.1" id="Layer_1" xmlns="http://www.w3.org/2000/svg" xmlns:xlink="http://www.w3.org/1999/xlink" x="0px" y="0px"
	 width="17px" height="22px" viewBox="0 0 17 22" enable-background="new 0 0 17 22" xml:space="preserve">
<path fill="#DEAF69" d="M16.346,2.578h-1.83V0.645C14.516,0.289,14.223,0,13.861,0h-0.174c-0.36,0-0.654,0.289-0.654,0.645v1.933
	h-1.918c-0.36,0-0.653,0.289-0.653,0.645v3.91c0,1.052,0.515,1.988,1.308,2.576v8.424H5.231V9.709
	c0.793-0.588,1.307-1.524,1.307-2.576v-3.91c0-0.356-0.292-0.645-0.653-0.645H3.967V0.645C3.967,0.289,3.674,0,3.313,0H3.05
	C2.69,0,2.484,0.289,2.484,0.645v1.933h-1.83C0.293,2.578,0,2.867,0,3.223v3.91C0,8.185,0.514,9.12,1.308,9.709v8.424
	C1.308,20.266,3.068,22,5.23,22h6.538c2.164,0,3.924-1.734,3.924-3.867V9.709C16.486,9.121,17,8.185,17,7.133v-3.91
	C17,2.867,16.707,2.578,16.346,2.578z M1.308,3.868H5.23v3.265c0,1.066-0.88,1.633-1.962,1.633c-1.081,0-1.961-0.567-1.961-1.633
	L1.308,3.868L1.308,3.868z M14.385,18.133c0,1.422-1.174,2.578-2.615,2.578H5.231c-1.442,0-2.616-1.156-2.616-2.578V9.818
	c0.212,0.042,0.43,0.065,0.654,0.065S3.712,9.86,3.923,9.818v8.315c0,0.71,0.587,1.289,1.308,1.289h6.539
	c0.721,0,1.308-0.578,1.308-1.29v-8.27c0.211,0.042,0.43,0.065,0.653,0.065c0.225,0,0.442-0.023,0.654-0.065V18.133L14.385,18.133z
	 M15.691,7.133c0,1.066-0.879,1.676-1.961,1.676s-1.961-0.61-1.961-1.676V3.867h3.922V7.133z"/>
</svg>
