<?xml version="1.0" encoding="utf-8"?>
<!-- Generator: Adobe Illustrator 16.0.0, SVG Export Plug-In . SVG Version: 6.00 Build 0)  -->
<!DOCTYPE svg PUBLIC "-//W3C//DTD SVG 1.1//EN" "http://www.w3.org/Graphics/SVG/1.1/DTD/svg11.dtd">
<svg version="1.1" id="Layer_1" xmlns="http://www.w3.org/2000/svg" xmlns:xlink="http://www.w3.org/1999/xlink" x="0px" y="0px"
	 width="25px" height="25px" viewBox="0 0 25 25" enable-background="new 0 0 25 25" xml:space="preserve">
<g>
	<path fill="#DEAF69" stroke="#DEAF69" stroke-width="0.5" d="M22.833,1H2.167C1.524,1,1,1.524,1,2.167v20.666
		C1,23.477,1.524,24,2.167,24h3.18c2.518,0,4.96-0.493,7.26-1.466c2.222-0.94,4.217-2.284,5.93-3.997
		c1.712-1.713,3.057-3.708,3.997-5.93C23.507,10.307,24,7.865,24,5.347v-3.18C24,1.524,23.477,1,22.833,1z M23.255,5.347
		c0,4.783-1.862,9.28-5.245,12.663s-7.88,5.245-12.663,5.245h-3.18c-0.232,0-0.422-0.19-0.422-0.422V2.167
		c0-0.232,0.19-0.422,0.422-0.422h20.666c0.231,0,0.422,0.19,0.422,0.422V5.347z"/>
	<path fill="#DEAF69" d="M19.652,2.987H5.347c-1.301,0-2.36,1.059-2.36,2.36v14.305c0,1.302,1.059,2.361,2.36,2.361
		c3.018,0,5.976-0.818,8.555-2.363c0.098-0.06,0.164-0.16,0.178-0.274s-0.025-0.228-0.105-0.31c-0.261-0.26-0.404-0.606-0.404-0.975
		c0-0.367,0.143-0.715,0.404-0.975l1.308-1.309l0.526-0.526l1.309-1.308c0.537-0.539,1.412-0.539,1.949,0
		c0.082,0.08,0.195,0.119,0.311,0.105c0.113-0.014,0.214-0.08,0.273-0.178c1.545-2.581,2.363-5.538,2.363-8.555
		C22.014,4.046,20.954,2.987,19.652,2.987z M19.225,13.15c-0.82-0.517-1.92-0.417-2.635,0.297l-1.308,1.308l-0.527,0.527
		l-1.308,1.308c-0.714,0.715-0.813,1.814-0.295,2.635c-2.376,1.338-5.065,2.043-7.805,2.043c-0.89,0-1.615-0.724-1.615-1.615V5.347
		c0-0.89,0.724-1.615,1.615-1.615h14.305c0.891,0,1.615,0.724,1.615,1.615C21.268,8.087,20.563,10.777,19.225,13.15z"/>
	<path fill="#DEAF69" d="M17.666,14.91c-0.098,0-0.193,0.039-0.264,0.109c-0.069,0.068-0.109,0.164-0.109,0.263
		c0,0.098,0.04,0.194,0.109,0.263c0.07,0.07,0.166,0.109,0.264,0.109s0.195-0.039,0.264-0.109c0.07-0.068,0.109-0.165,0.109-0.263
		c0-0.099-0.04-0.194-0.109-0.263C17.861,14.949,17.766,14.909,17.666,14.91L17.666,14.91z M16.573,16.102
		c-0.099,0-0.194,0.041-0.263,0.109c-0.07,0.068-0.11,0.165-0.11,0.264c0,0.098,0.04,0.193,0.11,0.262
		c0.069,0.07,0.166,0.111,0.263,0.111c0.098,0,0.194-0.041,0.264-0.111c0.07-0.068,0.108-0.164,0.108-0.262
		c0-0.099-0.039-0.195-0.109-0.264C16.768,16.141,16.672,16.102,16.573,16.102L16.573,16.102z M15.282,17.294
		c-0.099,0-0.194,0.04-0.263,0.108c-0.07,0.07-0.11,0.166-0.11,0.264c0,0.1,0.04,0.195,0.11,0.264
		c0.068,0.07,0.164,0.109,0.263,0.109c0.098,0,0.194-0.04,0.263-0.109c0.07-0.068,0.109-0.166,0.109-0.264s-0.039-0.193-0.109-0.264
		C15.477,17.333,15.38,17.293,15.282,17.294L15.282,17.294z M12.5,4.577c-0.098,0-0.194,0.04-0.263,0.109
		c-0.07,0.069-0.11,0.165-0.11,0.263c0,0.098,0.04,0.194,0.11,0.264c0.069,0.07,0.165,0.109,0.263,0.109s0.194-0.04,0.263-0.11
		c0.07-0.069,0.11-0.165,0.11-0.263c0-0.098-0.04-0.194-0.11-0.263C12.694,4.616,12.598,4.576,12.5,4.577L12.5,4.577z M4.95,12.127
		c-0.099,0-0.195,0.04-0.264,0.11c-0.07,0.069-0.11,0.165-0.11,0.263s0.04,0.194,0.11,0.263c0.069,0.07,0.165,0.11,0.263,0.11
		c0.098,0,0.194-0.04,0.264-0.11c0.07-0.069,0.109-0.165,0.109-0.263s-0.04-0.194-0.11-0.263C5.143,12.167,5.047,12.127,4.95,12.127
		L4.95,12.127z M4.95,10.538c-0.099,0-0.195,0.04-0.264,0.11c-0.07,0.068-0.11,0.165-0.11,0.262c0,0.098,0.04,0.195,0.11,0.264
		c0.069,0.07,0.165,0.109,0.263,0.109c0.098,0,0.194-0.04,0.264-0.11c0.07-0.068,0.109-0.165,0.109-0.263
		c0-0.098-0.04-0.194-0.11-0.263C5.143,10.577,5.047,10.537,4.95,10.538L4.95,10.538z M4.95,13.717c-0.1,0-0.195,0.04-0.264,0.11
		c-0.07,0.067-0.11,0.165-0.11,0.263s0.04,0.194,0.11,0.264c0.069,0.069,0.165,0.109,0.263,0.109c0.098,0,0.194-0.04,0.264-0.109
		c0.07-0.07,0.109-0.166,0.109-0.264c0-0.099-0.04-0.195-0.11-0.264C5.143,13.756,5.047,13.717,4.95,13.717L4.95,13.717z
		 M10.91,4.577c-0.097,0-0.194,0.04-0.263,0.109c-0.07,0.069-0.11,0.165-0.11,0.263c0,0.098,0.04,0.194,0.11,0.264
		c0.07,0.07,0.166,0.109,0.263,0.109c0.098,0,0.195-0.04,0.264-0.11c0.07-0.069,0.109-0.165,0.109-0.263
		c0-0.098-0.04-0.194-0.11-0.263C11.105,4.616,11.008,4.576,10.91,4.577L10.91,4.577z M14.09,4.577c-0.098,0-0.195,0.04-0.264,0.109
		c-0.07,0.069-0.109,0.165-0.109,0.263c0,0.098,0.04,0.194,0.11,0.264c0.067,0.07,0.165,0.109,0.263,0.109s0.194-0.04,0.264-0.11
		c0.069-0.069,0.109-0.165,0.109-0.263c0-0.098-0.04-0.194-0.109-0.263C14.283,4.616,14.188,4.576,14.09,4.577L14.09,4.577z"/>
</g>
</svg>
