<?xml version="1.0" encoding="utf-8"?>
<!-- Generator: Adobe Illustrator 24.3.0, SVG Export Plug-In . SVG Version: 6.00 Build 0)  -->
<svg version="1.1" id="Layer_1" xmlns="http://www.w3.org/2000/svg" xmlns:xlink="http://www.w3.org/1999/xlink" x="0px" y="0px"
	 viewBox="0 0 52 49.1" style="enable-background:new 0 0 52 49.1;" xml:space="preserve">
<style type="text/css">
	.st0{fill:#DEAF69;}
	.st1{fill:none;stroke:#DEAF69;stroke-width:1.024;}
</style>
<g>
	<path class="st0" d="M40.5,2.7H11.5c-2.2,0-3.9,1.8-3.9,4v37.1c0,2.2,1.8,4,4,4h29.1c2.2,0,4-1.8,4-4V6.7
		C44.5,4.5,42.7,2.7,40.5,2.7L40.5,2.7z M11.5,5.4h29.1c0.7,0,1.3,0.6,1.3,1.3v6.7H10.1V6.7C10.1,6,10.7,5.4,11.5,5.4z M40.5,45.1
		H11.5c-0.7,0-1.3-0.6-1.3-1.3V16h31.7v27.8C41.9,44.5,41.3,45.1,40.5,45.1z"/>
	<circle class="st1" cx="26" cy="29.3" r="10.5"/>
	<path class="st0" d="M30.1,32.2c1.5,0,2.3,0.6,3.2,1.3c0.7,0.5,1.7,0.5,2.3-0.2s0.5-1.5-0.2-2c-1.2-0.9-2.6-2-5.3-2s-4.2,1.1-5.3,2
		c-1,0.8-1.7,1.3-3.2,1.3c-1.5,0-2.3-0.6-3.2-1.3c-0.7-0.5-1.7-0.5-2.3,0.2c-0.6,0.6-0.5,1.5,0.2,2c1.2,0.9,2.6,2,5.3,2
		s4.2-1.1,5.3-2C27.9,32.7,28.6,32.2,30.1,32.2z"/>
	<circle class="st0" cx="37.9" cy="9.4" r="2.1"/>
	<path class="st0" d="M14,10.7h3.4c0.6,0,1.1-0.6,1.1-1.3c0-0.7-0.5-1.3-1.1-1.3H14c-0.6,0-1.1,0.6-1.1,1.3
		C12.9,10.1,13.4,10.7,14,10.7z M37.9,39.7h-2.6c-0.7,0-1.3,0.6-1.3,1.3c0,0.7,0.6,1.3,1.3,1.3h2.6c0.7,0,1.3-0.6,1.3-1.3
		C39.2,40.3,38.6,39.7,37.9,39.7z"/>
</g>
</svg>
