<?xml version="1.0" encoding="utf-8"?>
<!-- Generator: Adobe Illustrator 24.3.0, SVG Export Plug-In . SVG Version: 6.00 Build 0)  -->
<svg version="1.1" id="Layer_1" xmlns="http://www.w3.org/2000/svg" xmlns:xlink="http://www.w3.org/1999/xlink" x="0px" y="0px"
	 viewBox="0 0 52 49.1" style="enable-background:new 0 0 52 49.1;" xml:space="preserve">
<style type="text/css">
	.st0{fill:#DEAF69;stroke:#DEAF69;stroke-width:0.25;}
</style>
<g>
	<path class="st0" d="M44.3,24.5c0,7,0,14.1,0,21.1c0,0.8-0.4,1.5-1.1,1.8c-0.3,0.1-0.6,0.2-0.9,0.2c-3.1,0-6.2,0-9.3,0
		c-5.4,0-10.8,0-16.2,0c-2.3,0-4.6,0-6.9,0c-1.2,0-2-0.9-2-2.1c0-2.8,0-5.6,0-8.3c0-3.5,0-7.1,0-10.6c0-5.1,0-10.2,0-15.3
		c0-2.7,0-5.3,0-8c0-1,0.6-1.8,1.5-2c0.2,0,0.4-0.1,0.5-0.1c2,0,3.9,0,5.9,0c5.5,0,10.9,0,16.4,0c3.4,0,6.8,0,10.2,0
		c1.2,0,2,0.9,2,2.1c0,4.9,0,9.8,0,14.6C44.3,20.2,44.3,22.3,44.3,24.5z M9.2,11.6c0,1.7,0,4.4,0,2.5c0-4.5,0,6.6,0,11
		c0,4.6,0,9.2,0,13.7c0,2.2,0,4.4,0,6.7c0,0.4,0.2,0.7,0.7,0.7c2.8,0,5.6,0,8.3,0c5.4,0,10.7,0,16.1,0c2.6,0,5.3,0,7.9,0
		c0.4,0,0.6-0.2,0.6-0.6c0-3.5,0-7,0-10.5c0-4.9,0-9.8,0-14.7c0-2.8,0-5.7,0-8.5c0-0.1,0-0.2,0-0.2c-0.5,0-1,0-1.5,0
		c-1.5,0-3,0-4.6,0c-4.9,0-9.7,0-14.6,0c-3.4,0-6.9,0-10.3,0c-0.1,0-0.2,0-0.3,0C10.8,11.6,10,11.6,9.2,11.6z M26,10.2L26,10.2
		c4.2,0,8.4,0,12.6,0c1.2,0,2.4,0,3.6,0c0.4,0,0.6-0.2,0.6-0.6c0-2.1,0-4.2,0-6.3c0-0.3-0.2-0.6-0.5-0.6c-0.1,0-0.1,0-0.2,0
		c-3.9,0-7.9,0-11.8,0c-4,0-8.1,0-12.1,0c-1.1,0-2.1,0-3.2,0c-1.7,0-3.4,0-5.1,0C9.4,2.8,9.2,3,9.2,3.4c0,2.1,0,4.1,0,6.2
		c0,0.3,0.3,0.6,0.6,0.6c0.3,0,0.5,0,0.8,0C15.7,10.2,20.9,10.2,26,10.2z"/>
	<path class="st0" d="M38.6,4c1.4,0,2.5,1.1,2.5,2.5c0,1.4-1.1,2.5-2.6,2.5c-1.3,0-2.5-1.1-2.5-2.5C36.1,5.1,37.2,4,38.6,4z
		 M38.6,5.5c-0.6,0-1.1,0.5-1.1,1c0,0.6,0.5,1.1,1.1,1.1c0.6,0,1.1-0.5,1.1-1.1C39.7,6,39.2,5.5,38.6,5.5z"/>
	<path class="st0" d="M13.7,4c1.4,0.1,2.5,1.2,2.5,2.6c0,1.4-1.2,2.5-2.7,2.4c-1.4-0.1-2.4-1.2-2.4-2.6C11.2,5.1,12.4,4,13.7,4z
		 M13.6,5.5c-0.5,0-1.1,0.4-1.1,1.1c0,0.6,0.5,1.1,1.1,1.1c0.6,0,1.1-0.5,1.1-1.1C14.7,5.9,14.2,5.5,13.6,5.5z"/>
	<path class="st0" d="M20,4c1.4,0,2.5,1.2,2.5,2.6c0,1.4-1.2,2.5-2.6,2.4c-1.4,0-2.5-1.2-2.5-2.7C17.5,5.1,18.7,4,20,4z M18.9,6.5
		c0,0.6,0.5,1.1,1.1,1.1c0.6,0,1.1-0.5,1.1-1.1c0-0.6-0.5-1.1-1.1-1.1C19.4,5.5,18.9,6,18.9,6.5z"/>
	<path class="st0" d="M32.4,9c-1.4,0-2.5-1.1-2.5-2.5c0-1.4,1.1-2.5,2.5-2.5c1.4,0,2.5,1.1,2.5,2.5C34.9,7.9,33.8,9,32.4,9z
		 M31.3,6.5c0,0.6,0.5,1.1,1.1,1.1c0.6,0,1.1-0.5,1.1-1.1c0-0.6-0.5-1.1-1.1-1.1C31.8,5.4,31.3,5.9,31.3,6.5z"/>
	<path class="st0" d="M28.5,6.5C28.5,7.8,27.4,9,26,9c-1.4,0-2.5-1.1-2.6-2.5c0-1.4,1.1-2.6,2.5-2.6C27.4,3.9,28.5,5,28.5,6.5z
		 M27.1,6.5c0-0.6-0.5-1.1-1.1-1.1c-0.6,0-1.1,0.5-1,1.1c0,0.6,0.5,1.1,1.1,1C26.6,7.5,27.1,7,27.1,6.5z"/>
	<path class="st0" d="M26.1,23.6c3.2,0,6.4,0,9.6,0c0.7,0,1.5,0,2.2,0c0.9,0,1.4,0.5,1.4,1.4c0,4,0,8,0,11.9c0,0.2,0,0.5-0.1,0.7
		c-0.2,0.5-0.7,0.9-1.2,0.9c-2.9,0-5.8,0-8.7,0c-2.5,0-4.9,0-7.4,0c-2.5,0-5.1,0-7.6,0c-0.8,0-1.4-0.6-1.4-1.4c0-2.3,0-4.6,0-6.9
		c0-1.8,0-3.5,0-5.3c0-0.8,0.5-1.4,1.3-1.4c2.5,0,4.9,0,7.4,0C23.1,23.6,24.6,23.6,26.1,23.6C26.1,23.6,26.1,23.6,26.1,23.6z
		 M37.9,25.1c-7.9,0-15.7,0-23.5,0c0,4,0,8,0,12c0.1,0,0.2,0,0.3,0c1.9,0,3.8,0,5.7,0c5.7,0,11.5,0,17.2,0c0.2,0,0.2-0.1,0.2-0.3
		c0-3.7,0-7.4,0-11.1C37.9,25.5,37.9,25.3,37.9,25.1z"/>
	<path class="st0" d="M13.7,20.9c0-0.5,0-0.9,0-1.4c8.3,0,16.6,0,25,0c0,0.5,0,0.9,0,1.4C30.3,20.9,22,20.9,13.7,20.9z"/>
</g>
</svg>
