<?xml version="1.0" encoding="utf-8"?>
<!-- Generator: Adobe Illustrator 16.0.0, SVG Export Plug-In . SVG Version: 6.00 Build 0)  -->
<!DOCTYPE svg PUBLIC "-//W3C//DTD SVG 1.1//EN" "http://www.w3.org/Graphics/SVG/1.1/DTD/svg11.dtd">
<svg version="1.1" id="Layer_1" xmlns="http://www.w3.org/2000/svg" xmlns:xlink="http://www.w3.org/1999/xlink" x="0px" y="0px"
	 width="23px" height="22px" viewBox="0 0 23 22" enable-background="new 0 0 23 22" xml:space="preserve">
<g>
	<path fill="#DEAF69" d="M19.898,4.138c0.652,0,1.246,0.008,1.84-0.001c0.768-0.012,1.273-0.529,1.262-1.27
		c-0.014-0.722-0.509-1.219-1.25-1.234c-0.516-0.01-1.032,0.02-1.547-0.017c-0.137-0.01-0.337-0.166-0.389-0.307
		c-0.318-0.867-0.838-1.303-1.688-1.304C13.714-0.001,9.302-0.002,4.889,0.003c-0.857,0-1.427,0.431-1.677,1.297
		C3.128,1.592,3.001,1.639,2.768,1.634C2.253,1.623,1.737,1.621,1.222,1.635C0.489,1.655-0.006,2.176,0,2.898
		s0.511,1.229,1.241,1.24c0.596,0.009,1.191,0.011,1.786,0.017c0.013,0,0.025,0.021,0.095,0.081c0,0.137,0,0.325,0,0.512
		c0,4.575,0,9.15,0.002,13.727c0,1.176,0.38,1.594,1.445,1.594c0.367,0.002,0.733,0,1.158,0c0,0.3-0.017,0.543,0.003,0.781
		c0.057,0.68,0.49,1.143,1.115,1.144c3.962,0.009,7.922,0.009,11.887,0.002c0.703-0.001,1.131-0.509,1.14-1.334
		c0.015-1.302,0.011-2.604,0.011-3.906c-0.001-4.03-0.004-8.06-0.005-12.089C19.878,4.51,19.891,4.355,19.898,4.138z M6.474,16.212
		c0-0.208,0-0.364,0-0.521c0-3.271,0.022-6.542-0.009-9.813C6.45,4.204,6.312,0.833,6.312,0.833s0.15-0.026,0.227-0.026
		c3.847,0,7.693-0.003,11.541,0.005c0.707,0.001,1.047,0.405,1.047,1.195c0.002,4.52,0.002,9.039,0.003,13.56
		c0,0.205,0,0.41,0,0.646C14.9,16.212,10.721,16.212,6.474,16.212z M6.474,17.367c4.252,0,8.441,0.018,12.653,0.018
		c0,0.553,0.002,2.563,0,3.071c-0.002,0.657-0.07,0.735-0.656,0.735c-1.642,0.004-3.283,0.004-4.925,0.004
		c-2.157,0-4.313-0.008-6.469,0.002c-0.421,0.002-0.631-0.145-0.609-0.641C6.492,20.016,6.474,17.95,6.474,17.367z M5.696,19.189
		c-0.066,0.027-0.095,0.05-0.124,0.05c-0.338,0.006-0.676,0.011-1.014,0.011c-0.641-0.001-0.688-0.052-0.688-0.755
		c-0.001-4.591-0.001-9.182,0-13.773c0-0.186,0.014-0.371,0.022-0.553c0.632,0,1.205,0,1.803,0
		C5.696,9.188,5.696,14.178,5.696,19.189z M5.698,3.32c-1.501,0-2.946-0.001-4.389,0.001c-0.278,0-0.545-0.042-0.549-0.42
		C0.754,2.493,1.033,2.447,1.332,2.447C2.696,2.451,4.061,2.45,5.426,2.455c0.091,0,0.181,0.032,0.272,0.049
		C5.698,2.771,5.698,3.011,5.698,3.32z M19.92,3.318c0-0.326,0-0.578,0-0.865c0.661,0,1.285-0.029,1.905,0.021
		c0.149,0.012,0.43,0.224,0.422,0.44c-0.006,0.205-0.274,0.374-0.425,0.384C21.201,3.343,20.577,3.318,19.92,3.318z M3.953,1.6
		c0.122-0.54,0.429-0.811,0.882-0.776C5.272,0.857,5.558,1.095,5.678,1.6C5.071,1.6,4.514,1.6,3.953,1.6z"/>
</g>
</svg>
