<?xml version="1.0" encoding="utf-8"?>
<!-- Generator: Adobe Illustrator 24.3.0, SVG Export Plug-In . SVG Version: 6.00 Build 0)  -->
<svg version="1.1" id="Layer_1" xmlns="http://www.w3.org/2000/svg" xmlns:xlink="http://www.w3.org/1999/xlink" x="0px" y="0px"
	 viewBox="0 0 52 49.1" style="enable-background:new 0 0 52 49.1;" xml:space="preserve">
<style type="text/css">
	.st0{fill:#DEAF69;}
</style>
<g>
	<g>
		<path class="st0" d="M10.7,45.4H2.2V31.3h8.5L10.7,45.4z M2.9,44.8H10l0-12.8H2.9L2.9,44.8z"/>
		<path class="st0" d="M10.7,45.9H2.2c-0.3,0-0.5-0.2-0.5-0.5V31.3c0-0.3,0.2-0.5,0.5-0.5h8.5c0.3,0,0.5,0.2,0.5,0.5l0,14.1
			c0,0.1-0.1,0.3-0.1,0.4S10.8,45.9,10.7,45.9z M3.4,44.3h6.1V32.4H3.4V44.3z"/>
	</g>
	<g>
		<path class="st0" d="M18.5,45.4H10V31.3h8.5V45.4z M10.7,44.8h7.1V31.9h-7.1V44.8z"/>
		<path class="st0" d="M18.5,45.9H10c-0.3,0-0.5-0.2-0.5-0.5V31.3c0-0.3,0.2-0.5,0.5-0.5h8.5c0.3,0,0.5,0.2,0.5,0.5v14.1
			C19,45.7,18.8,45.9,18.5,45.9z M11.2,44.3h6.1V32.4h-6.1V44.3z"/>
	</g>
	<g>
		<path class="st0" d="M49.8,35.4h-32v-4.1h32L49.8,35.4L49.8,35.4z M18.5,34.7h30.6v-2.8H18.5L18.5,34.7z"/>
		<path class="st0" d="M49.8,35.9h-32c-0.3,0-0.5-0.2-0.5-0.5v-4.1c0-0.3,0.2-0.5,0.5-0.5h32c0.3,0,0.5,0.2,0.5,0.5v4.1
			C50.3,35.7,50.1,35.9,49.8,35.9z M19,34.2h29.6v-1.8H19V34.2z"/>
	</g>
	<g>
		<path class="st0" d="M34.1,40.4H17.8v-5.7h16.3L34.1,40.4L34.1,40.4z M18.5,39.7h15v-4.4l-15,0V39.7z"/>
		<path class="st0" d="M34.1,40.9H17.8c-0.3,0-0.5-0.2-0.5-0.5v-5.7c0-0.3,0.2-0.5,0.5-0.5h16.3c0.3,0,0.5,0.2,0.5,0.5v5.7
			C34.6,40.7,34.4,40.9,34.1,40.9z M19,39.2h14v-3.4H19V39.2z"/>
	</g>
	<g>
		<path class="st0" d="M34.1,45.4H17.8v-5.7h16.3L34.1,45.4L34.1,45.4z M18.5,44.8h15v-4.4h-15V44.8z"/>
		<path class="st0" d="M34.1,45.9H17.8c-0.3,0-0.5-0.2-0.5-0.5v-5.7c0-0.3,0.2-0.5,0.5-0.5h16.3c0.3,0,0.5,0.2,0.5,0.5v5.7
			C34.6,45.7,34.4,45.9,34.1,45.9z M19,44.3h14v-3.4H19V44.3z"/>
	</g>
	<g>
		<path class="st0" d="M49.8,40.4H33.5v-5.7h16.3V40.4z M34.1,39.7h15v-4.4l-15,0V39.7z"/>
		<path class="st0" d="M49.8,40.9H33.5c-0.3,0-0.5-0.2-0.5-0.5v-5.7c0-0.3,0.2-0.5,0.5-0.5h16.3c0.3,0,0.5,0.2,0.5,0.5v5.7
			C50.3,40.7,50.1,40.9,49.8,40.9z M34.6,39.2h14v-3.4h-14V39.2z"/>
	</g>
	<g>
		<path class="st0" d="M49.8,45.4H33.5v-5.7h16.3V45.4z M34.1,44.8h15v-4.4h-15V44.8z"/>
		<path class="st0" d="M49.8,45.9H33.5c-0.3,0-0.5-0.2-0.5-0.5v-5.7c0-0.3,0.2-0.5,0.5-0.5h16.3c0.3,0,0.5,0.2,0.5,0.5v5.7
			C50.3,45.7,50.1,45.9,49.8,45.9z M34.6,44.3h14v-3.4h-14V44.3z"/>
	</g>
	<g>
		<path class="st0" d="M24.4,31.6c0-0.4-0.4-4.3,0.8-5.2c0.3-0.2,0.6-0.3,0.9-0.2c0.4,0,1.3,0.3,1.5,1.5l-0.6,0.1
			c-0.2-1-0.9-1-0.9-1l-0.1,0c-0.2,0-0.3,0-0.4,0.1c-0.7,0.6-0.7,3.2-0.5,4.7L24.4,31.6z"/>
		<path class="st0" d="M24.4,32.1c-0.3,0-0.5-0.2-0.5-0.5c-0.1-1.1-0.3-4.6,1-5.6c0.4-0.3,0.9-0.4,1.4-0.3c0.5,0,1.6,0.4,1.9,1.9
			c0,0.1,0,0.3-0.1,0.4s-0.2,0.2-0.3,0.2L27,28.3c-0.3,0.1-0.5-0.1-0.6-0.4c-0.1-0.5-0.4-0.6-0.4-0.6c0,0-0.1,0-0.1,0
			c-0.3,0.4-0.5,2.2-0.3,4.2c0,0.1,0,0.3-0.1,0.4c-0.1,0.1-0.2,0.2-0.3,0.2L24.4,32.1C24.4,32.1,24.4,32.1,24.4,32.1z"/>
	</g>
	<g>
		<path class="st0" d="M21.6,29.9H23v0.7h-1.3V29.9z"/>
		<path class="st0" d="M23,31.1h-1.3c-0.3,0-0.5-0.2-0.5-0.5v-0.7c0-0.3,0.2-0.5,0.5-0.5H23c0.3,0,0.5,0.2,0.5,0.5v0.7
			C23.5,30.9,23.2,31.1,23,31.1z"/>
	</g>
	<g>
		<path class="st0" d="M26.3,29.9h1.3v0.7h-1.3V29.9z"/>
		<path class="st0" d="M27.6,31.1h-1.3c-0.3,0-0.5-0.2-0.5-0.5v-0.7c0-0.3,0.2-0.5,0.5-0.5h1.3c0.3,0,0.5,0.2,0.5,0.5v0.7
			C28.1,30.9,27.9,31.1,27.6,31.1z"/>
	</g>
	<g>
		<path class="st0" d="M38.5,31.4h-5v-3.1h5V31.4z M34.1,30.7h3.7v-1.8h-3.7V30.7z"/>
		<path class="st0" d="M38.5,31.9h-5c-0.3,0-0.5-0.2-0.5-0.5v-3.1c0-0.3,0.2-0.5,0.5-0.5h5c0.3,0,0.5,0.2,0.5,0.5v3.1
			C39,31.7,38.8,31.9,38.5,31.9z M34.6,30.2h2.7v-0.8h-2.7V30.2z"/>
	</g>
	<g>
		<path class="st0" d="M38.2,29.1h1v0.7h-1V29.1z"/>
		<path class="st0" d="M39.3,30.2h-1c-0.3,0-0.5-0.2-0.5-0.5v-0.7c0-0.3,0.2-0.5,0.5-0.5h1c0.3,0,0.5,0.2,0.5,0.5v0.7
			C39.8,30,39.6,30.2,39.3,30.2z"/>
	</g>
	<g>
		<path class="st0" d="M32.8,29.1h1v0.7h-1V29.1z"/>
		<path class="st0" d="M33.8,30.2h-1c-0.3,0-0.5-0.2-0.5-0.5v-0.7c0-0.3,0.2-0.5,0.5-0.5h1c0.3,0,0.5,0.2,0.5,0.5v0.7
			C34.3,30,34.1,30.2,33.8,30.2z"/>
	</g>
	<g>
		<path class="st0" d="M35.7,27.2h0.7v1.4h-0.7V27.2z"/>
		<path class="st0" d="M36.3,29.1h-0.7c-0.3,0-0.5-0.2-0.5-0.5v-1.4c0-0.3,0.2-0.5,0.5-0.5h0.7c0.3,0,0.5,0.2,0.5,0.5v1.4
			C36.8,28.9,36.6,29.1,36.3,29.1z"/>
	</g>
</g>
</svg>
