<?xml version="1.0" encoding="utf-8"?>
<!-- Generator: Adobe Illustrator 24.3.0, SVG Export Plug-In . SVG Version: 6.00 Build 0)  -->
<svg version="1.1" id="Layer_1" xmlns="http://www.w3.org/2000/svg" xmlns:xlink="http://www.w3.org/1999/xlink" x="0px" y="0px"
	 viewBox="0 0 52 49.1" style="enable-background:new 0 0 52 49.1;" xml:space="preserve">
<style type="text/css">
	.st0{fill:#DEAF69;}
</style>
<g>
	<path class="st0" d="M43.4,10.9c1.3,0,2.6,0,3.8,0c1.6,0,2.6-1.1,2.6-2.6c0-1.5-1.1-2.5-2.6-2.6c-1.1,0-2.1,0-3.2,0
		c-0.3,0-0.7-0.3-0.8-0.6c-0.7-1.8-1.7-2.7-3.5-2.7c-9.1,0-18.3,0-27.4,0c-1.8,0-3,0.9-3.5,2.7C8.7,5.6,8.4,5.7,7.9,5.7
		c-1.1,0-2.1,0-3.2,0c-1.5,0-2.5,1.1-2.5,2.6c0,1.5,1.1,2.5,2.6,2.6c1.2,0,2.5,0,3.7,0c0,0,0.1,0,0.2,0.2c0,0.3,0,0.7,0,1.1
		c0,9.5,0,18.9,0,28.4c0,2.4,0.8,3.3,3,3.3c0.8,0,1.5,0,2.4,0c0,0.6,0,1.1,0,1.6c0.1,1.4,1,2.4,2.3,2.4c8.2,0,16.4,0,24.6,0
		c1.5,0,2.3-1.1,2.4-2.8c0-2.7,0-5.4,0-8.1c0-8.3,0-16.7,0-25C43.3,11.7,43.4,11.3,43.4,10.9z M15.6,35.9c0-0.4,0-0.8,0-1.1
		c0-6.8,0-13.5,0-20.3c0-3.5-0.3-10.4-0.3-10.4S15.6,4,15.7,4c8,0,15.9,0,23.9,0c1.5,0,2.2,0.8,2.2,2.5c0,9.4,0,18.7,0,28.1
		c0,0.4,0,0.8,0,1.3C33,35.9,24.4,35.9,15.6,35.9z M15.6,38.3c8.8,0,17.5,0,26.2,0c0,1.1,0,5.3,0,6.4c0,1.4-0.1,1.5-1.4,1.5
		c-3.4,0-6.8,0-10.2,0c-4.5,0-8.9,0-13.4,0c-0.9,0-1.3-0.3-1.3-1.3C15.6,43.7,15.6,39.5,15.6,38.3z M14,42c-0.1,0.1-0.2,0.1-0.3,0.1
		c-0.7,0-1.4,0-2.1,0c-1.3,0-1.4-0.1-1.4-1.6c0-9.5,0-19,0-28.5c0-0.4,0-0.8,0-1.1c1.3,0,2.5,0,3.7,0C14,21.3,14,31.7,14,42z
		 M14,9.2c-3.1,0-6.1,0-9.1,0c-0.6,0-1.1-0.1-1.1-0.9c0-0.8,0.6-0.9,1.2-0.9c2.8,0,5.6,0,8.5,0c0.2,0,0.4,0.1,0.6,0.1
		C14,8.1,14,8.6,14,9.2z M43.4,9.2c0-0.7,0-1.2,0-1.8c1.4,0,2.7-0.1,3.9,0c0.3,0,0.9,0.5,0.9,0.9c0,0.4-0.6,0.8-0.9,0.8
		C46.1,9.2,44.8,9.2,43.4,9.2z M10.4,5.6C10.6,4.5,11.3,4,12.2,4c0.9,0.1,1.5,0.6,1.7,1.6C12.7,5.6,11.5,5.6,10.4,5.6z"/>
</g>
</svg>
