<?xml version="1.0" encoding="utf-8"?>
<!-- Generator: Adobe Illustrator 24.3.0, SVG Export Plug-In . SVG Version: 6.00 Build 0)  -->
<svg version="1.1" id="Layer_1" xmlns="http://www.w3.org/2000/svg" xmlns:xlink="http://www.w3.org/1999/xlink" x="0px" y="0px"
	 viewBox="0 0 52 49.1" style="enable-background:new 0 0 52 49.1;" xml:space="preserve">
<style type="text/css">
	.st0{fill:#DEAF69;}
</style>
<path class="st0" d="M49.9,29.3C49.9,29.3,49.8,29.3,49.9,29.3c-0.3-1.2-1.1-2.2-2.2-2.7c-0.7-0.3-1.4-0.4-2.1-0.4
	c-0.1-1.8-0.9-3.6-2.2-4.9c-1.4-1.4-3.3-2.2-5.4-2.2c0,0,0,0,0,0H13.5c-2,0-3.9,0.8-5.4,2.2c-1.3,1.3-2.1,3.1-2.2,4.9
	c-0.3,0-0.7,0-1,0c-1,0.2-1.9,0.7-2.5,1.5c-0.6,0.8-0.9,1.8-0.9,2.8c0.1,1,0.5,1.9,1.3,2.6c0.6,0.5,1.3,0.9,2,1l0.5,7.5c0,0,0,0,0,0
	c0.1,1,0.5,1.9,1.2,2.6c0.7,0.7,1.7,1.1,2.7,1.1h0.7V46c0,1,0.8,1.8,1.8,1.8h0.7c0.8,0,1.5-0.5,1.7-1.3l0.4-1.1H37l0.4,1.1
	c0.2,0.8,0.9,1.3,1.7,1.3h0.7c1,0,1.8-0.8,1.8-1.8v-0.7h0.7c1,0,1.9-0.4,2.7-1.1c0.7-0.7,1.2-1.6,1.2-2.6l0.5-7.6
	c1-0.2,1.8-0.7,2.4-1.5C49.9,31.7,50.1,30.5,49.9,29.3z M7.5,26.7c0-1.6,0.6-3.1,1.7-4.2c1.1-1.1,2.6-1.7,4.2-1.7H38
	c1.6,0,3.1,0.6,4.2,1.7c1.1,1.1,1.8,2.7,1.8,4.2v0.1c-1,0.5-1.6,1.5-1.9,2.5L41,33.4c-3.9-1.1-8.1-1.8-15.3-1.8
	c-7.2,0-11.2,0.7-15.3,1.8l-1.1-4.1c-0.2-1-0.8-1.8-1.7-2.4C7.7,26.9,7.6,26.8,7.5,26.7L7.5,26.7z M40.6,35l-0.3,1.2
	c-0.1,0.5-0.4,0.9-0.8,1.2c-0.4,0.3-0.9,0.4-1.4,0.4H13.4c-0.5,0-1-0.2-1.4-0.5c-0.4-0.3-0.7-0.7-0.8-1.2L10.9,35
	c3.9-1.1,7.8-1.8,14.8-1.8C32.7,33.2,36.8,33.9,40.6,35z M12.4,46C12.4,46,12.4,46,12.4,46c0,0.1-0.1,0.2-0.1,0.2h-0.7
	c-0.1,0-0.1-0.1-0.1-0.1v-0.7h1.2L12.4,46z M40,46c0,0.1-0.1,0.1-0.1,0.1h-0.7c-0.1,0-0.1,0-0.1-0.1c0,0,0-0.1,0-0.1l-0.2-0.6H40V46
	z M47.8,31.7c-0.4,0.6-1.1,0.9-1.8,0.9h-0.1c-0.4,0-0.8,0.3-0.8,0.8l-0.6,8.3c0,0.6-0.3,1.1-0.7,1.5c-0.4,0.4-1,0.6-1.5,0.6h-1.4
	c0,0-0.1,0-0.1,0c0,0-0.1,0-0.1,0H10.8c0,0-0.1,0-0.1,0c0,0-0.1,0-0.1,0H9.2c-0.6,0-1.1-0.2-1.5-0.6c-0.4-0.4-0.7-0.9-0.7-1.5
	c0,0,0,0,0,0l-0.6-8.3c0-0.4-0.4-0.8-0.8-0.8H5.5c0,0,0,0,0,0c-0.6,0-1.2-0.2-1.6-0.6c-0.4-0.4-0.7-1-0.8-1.6c0-0.6,0.1-1.2,0.5-1.6
	C4,28.3,4.5,28,5.1,27.9c0.6-0.1,1.2,0,1.7,0.4c0.5,0.3,0.8,0.8,1,1.4c0,0,0,0,0,0l1.8,6.8c0,0,0,0,0,0c0.2,0.8,0.7,1.5,1.4,2
	c0.7,0.5,1.5,0.8,2.4,0.8H38c0,0,0,0,0,0c0.8,0,1.7-0.3,2.3-0.8c0.7-0.5,1.2-1.2,1.4-2c0,0,0,0,0,0l1.8-6.9c0,0,0,0,0,0
	c0.2-0.7,0.6-1.3,1.3-1.6c0.6-0.3,1.4-0.3,2,0c0.6,0.3,1.1,0.9,1.3,1.6c0,0,0,0,0,0C48.4,30.4,48.3,31.1,47.8,31.7z"/>
</svg>
