<?xml version="1.0" encoding="utf-8"?>
<!-- Generator: Adobe Illustrator 24.3.0, SVG Export Plug-In . SVG Version: 6.00 Build 0)  -->
<svg version="1.1" id="Layer_1" xmlns="http://www.w3.org/2000/svg" xmlns:xlink="http://www.w3.org/1999/xlink" x="0px" y="0px"
	 viewBox="0 0 52 49.1" style="enable-background:new 0 0 52 49.1;" xml:space="preserve">
<style type="text/css">
	.st0{fill:#DEAF69;}
</style>
<path class="st0" d="M44.4,37c0.3-1,0.7-2,1-3c0.3-0.9,0.7-1.6,1.6-2.1c0.5-0.3,1.1-0.9,1.4-1.6c0.5-1,0.4-2.2-0.2-3.1
	c-0.7-1-1.9-1.7-3.3-1.7c-9.3,0-18.5,0-27.8,0l-9.5,0V7.1c0-1.4,0.3-2.3,0.9-2.7c0.6-0.4,1.5-0.3,2.9,0.3c0.3,0.1,0.6,0.3,0.9,0.5
	L13,5.6l-0.1,0.3c-0.9,1.8-0.6,4,0.7,5.5c0.3,0.4,0.6,0.6,0.9,0.6c0.2,0,0.5-0.1,0.8-0.4c1.6-1.6,3.2-3.2,4.8-4.8
	c0.3-0.3,0.4-0.6,0.4-0.8c0-0.3-0.2-0.5-0.5-0.8c-1.4-1.2-3.8-1.8-5.4-0.8l-0.2,0.1l-0.2-0.1C14,4.1,13.8,4,13.6,3.8
	c-0.5-0.3-0.9-0.6-1.4-0.8c-0.9-0.4-1.8-0.6-2.6-0.6c-0.8,0-1.5,0.2-2.1,0.6c-1.1,0.8-1.7,2.2-1.7,4c0.2,4.2,0.1,8.5,0.1,12.7
	c0,1.8,0,3.7,0,5.5v0.2l-0.2,0.1c-1.6,1-2.4,2.2-2.4,3.4c0,1.2,0.8,2.4,2.3,3.3c0.5,0.3,0.8,1,0.8,1.2l0.4,1.1c0.7,2,1.4,4.1,2,6.1
	c0.6,2.2,1.8,3.2,3.8,3.3l0.5,0L13,44.6c-0.1,0.4-0.2,0.8-0.4,1.1l-0.2,0.8c-0.3,1,0.3,1.2,0.5,1.3c0.6,0.2,1-0.1,1.2-0.7l0.1-0.2
	c0.2-0.4,0.3-0.9,0.4-1.3c0.2-1.4,1.1-1.6,2.1-1.6c4.8,0,9.7,0,14.4,0l2.6,0c2.9,0,3,0.1,4,2.8c0,0,0,0.1,0.1,0.2c0,0,0,0,0,0
	c0.1,0.1,0.3,0.2,0.4,0.3c0.3,0.2,0.7,0.5,0.9,0.5c0.2,0,0.4-0.1,0.5-0.3c0.1-0.2,0.2-0.6,0-1c-0.1-0.4-0.3-0.8-0.4-1.2
	c-0.1-0.2-0.2-0.5-0.2-0.7l-0.1-0.5l0.5,0c2-0.1,3.1-1.1,3.7-3.1C43.5,39.6,44,38.3,44.4,37z M15.2,6.4c0.7-0.6,1.5-0.8,2.2-0.6
	L18.1,6l-0.5,0.5c-0.7,0.6-1.3,1.2-1.9,1.9l-1.4,1.4l-0.1-0.8C14.1,8,14.5,7,15.2,6.4z M7.3,30.7c-0.4,0-0.8,0.1-1.1-0.2
	c-0.5-0.3-1-0.9-1-1.5c0-0.7,0.9-1.4,1.1-1.5c0.3-0.2,0.7-0.2,1-0.2c0.1,0,0.2,0,0.3,0h36.8c0.1,0,0.2,0,0.3,0
	c0.3,0,0.7-0.1,0.9,0.1c0.7,0.5,1.3,1,1.2,1.5c-0.1,0.6-0.6,1.1-1.2,1.6c-0.2,0.1-0.4,0.2-0.6,0.2c-0.1,0-0.3,0-0.4,0
	c-0.1,0-0.2,0-0.3,0H26c-6.1,0-12.3,0-18.5,0C7.5,30.6,7.4,30.7,7.3,30.7z M41,41.1c-0.2,0.6-1.4,1-2,1c-5.1,0-10.2,0-15.2,0l-3.2,0
	c-0.8,0-1.6,0-2.3,0c-1.7,0-3.4,0-5.1,0c0,0-0.1,0-0.1,0c-1.3,0-1.9-0.5-2.3-1.7c-0.5-1.7-1.1-3.3-1.6-5.1c-0.3-0.8-0.5-1.6-0.8-2.4
	l-0.2-0.5H44L43.8,33c-0.3,0.8-0.5,1.5-0.7,2.3C42.4,37.2,41.8,39.2,41,41.1z"/>
<path class="st0" d="M22.5,10.2c-0.1,0.1-0.2,0.2-0.3,0.3c-0.2,0.2-0.5,0.6-0.5,0.7c0,0.3,0.6,0.9,0.9,0.9c0.1,0,0.7-0.6,0.7-0.8
	c0-0.2-0.2-0.5-0.4-0.8c-0.1-0.1-0.2-0.2-0.2-0.3C22.7,10.2,22.6,10.2,22.5,10.2z"/>
<path class="st0" d="M18.6,13.7c-0.1,0.1-0.1,0.1-0.2,0.2c0.1,0.1,0.1,0.1,0.2,0.2c0.2,0.3,0.5,0.6,0.7,0.6c0.1,0,0.4-0.3,0.6-0.4
	c0.1-0.1,0.2-0.2,0.3-0.3c0-0.1,0-0.1,0-0.2c-0.1-0.1-0.2-0.2-0.3-0.2c-0.3-0.2-0.6-0.5-0.8-0.5C19,13.1,18.7,13.5,18.6,13.7z"/>
<path class="st0" d="M26.6,12.3c0-0.2-0.5-0.8-0.7-0.8c-0.3,0.1-0.9,0.6-0.9,0.8c0,0.2,0.3,0.5,0.5,0.8c0.1,0.1,0.2,0.2,0.3,0.3
	l0.2,0c0.1-0.1,0.2-0.2,0.2-0.3C26.3,12.8,26.6,12.5,26.6,12.3z"/>
<path class="st0" d="M23.5,15.5c-0.1-0.1-0.3-0.2-0.4-0.3c-0.3-0.3-0.6-0.5-0.8-0.5c0,0-0.1,0-0.1,0c-0.2,0-0.3,0.1-0.4,0.2
	c-0.2,0.2-0.3,0.4-0.2,0.7c0,0.3,0.1,0.6,0.3,0.7c0.2,0.1,0.4,0.1,0.6,0.1c0.2,0,0.5-0.3,0.8-0.6C23.2,15.7,23.4,15.6,23.5,15.5z"/>
</svg>
