<?xml version="1.0" encoding="utf-8"?>
<!-- Generator: Adobe Illustrator 24.3.0, SVG Export Plug-In . SVG Version: 6.00 Build 0)  -->
<svg version="1.1" id="Layer_1" xmlns="http://www.w3.org/2000/svg" xmlns:xlink="http://www.w3.org/1999/xlink" x="0px" y="0px"
	 viewBox="0 0 52 49.1" style="enable-background:new 0 0 52 49.1;" xml:space="preserve">
<style type="text/css">
	.st0{fill:#DEAF69;}
</style>
<g>
	<path class="st0" d="M28.6,36c0-1.6-1.9-3.4-2.1-3.6c-0.3-0.3-0.8-0.3-1.1,0c-0.2,0.2-2.1,1.9-2.1,3.6c0,1.8,1.4,2.6,2.6,2.6
		C27.3,38.6,28.6,37.7,28.6,36z M25,36c0-0.5,0.5-1.2,1-1.8c0.5,0.6,1,1.3,1,1.8c0,0.9-0.8,1-1,1C25.7,37,25,36.9,25,36z"/>
	<path class="st0" d="M49.7,4.7H2.3c-0.5,0-0.8,0.4-0.8,0.8v3.4c0,0.5,0.4,0.8,0.8,0.8h1.8v4.4c0,0.5,0.4,0.8,0.8,0.8h2.3v24.3H4.9
		c-0.5,0-0.8,0.4-0.8,0.8v5.2c0,0.5,0.4,0.8,0.8,0.8h42.2c0.5,0,0.8-0.4,0.8-0.8V40c0-0.5-0.4-0.8-0.8-0.8h-2.3V14.9h2.3
		c0.5,0,0.8-0.4,0.8-0.8V9.7h1.8c0.5,0,0.8-0.4,0.8-0.8V5.5C50.5,5.1,50.2,4.7,49.7,4.7L49.7,4.7z M46.3,44.4H5.7v-3.6h40.6V44.4
		L46.3,44.4z M35.8,39.2H30c0.5-0.5,1-1.1,1.3-1.7c1.1-2.1,0.5-4.2,0.1-6.1c-0.1-0.4-0.2-0.7-0.3-1.1l-0.7-3.1
		c-0.1-0.3-0.3-0.6-0.7-0.6c-0.3-0.1-0.7,0.1-0.8,0.4l-0.6,1l-1.6-4.6c-0.1-0.3-0.4-0.6-0.8-0.6c-0.4,0-0.7,0.2-0.8,0.6l-1.2,4
		l-0.5-0.9c-0.2-0.3-0.5-0.4-0.8-0.4c-0.3,0-0.6,0.3-0.7,0.6l-1.4,5c-0.5,1.7-1,3.6,0,5.6c0.3,0.7,0.8,1.3,1.4,1.9l-5.8,0v-7.7
		c0-5.4,4.4-9.8,9.8-9.8s9.8,4.4,9.8,9.8L35.8,39.2z M22.1,36.7c-0.7-1.4-0.4-2.7,0.1-4.5l0.9-3.2l0.5,0.9c0.2,0.3,0.5,0.4,0.8,0.4
		c0.3,0,0.6-0.3,0.7-0.6l1-3.3l1.3,3.8c0.1,0.3,0.4,0.5,0.7,0.6c0.3,0,0.6-0.1,0.8-0.4l0.5-0.8l0.2,1.1c0.1,0.4,0.2,0.8,0.3,1.1
		c0.4,1.8,0.8,3.4,0.1,4.9c-0.7,1.4-2.3,2.4-3.9,2.4C24.3,39.1,22.8,38.2,22.1,36.7L22.1,36.7z M43.2,39.2h-5.7v-7.7
		C37.5,25.2,32.3,20,26,20s-11.5,5.1-11.5,11.5v7.7H8.8V14.9h34.3L43.2,39.2z M46.3,13.3H5.7V9.7h40.6L46.3,13.3L46.3,13.3z
		 M48.9,8.1H3.1V6.4h45.8V8.1z"/>
</g>
</svg>
