<?xml version="1.0" encoding="utf-8"?>
<!-- Generator: Adobe Illustrator 24.3.0, SVG Export Plug-In . SVG Version: 6.00 Build 0)  -->
<svg version="1.1" id="Layer_1" xmlns="http://www.w3.org/2000/svg" xmlns:xlink="http://www.w3.org/1999/xlink" x="0px" y="0px"
	 viewBox="0 0 52 49.1" style="enable-background:new 0 0 52 49.1;" xml:space="preserve">
<style type="text/css">
	.st0{fill:#DEAF69;}
</style>
<g>
	<path class="st0" d="M32.7,2H5.8c-0.5,0-1,0.4-1,1v44.2c0,0.5,0.4,1,1,1h26.9c0.5,0,1-0.4,1-1v-6.7h9.6c1,0,2-0.4,2.7-1.1
		c0.7-0.7,1.1-1.7,1.1-2.7c0-2.1-1.7-3.8-3.8-3.8h-9.6V3C33.7,2.5,33.2,2,32.7,2L32.7,2z M31.8,46.2h-25V3.9h25v28.8h-7
		c-1.2-1.8-3.3-2.9-5.5-2.9c-3.7,0-6.7,3-6.7,6.7c0,3.7,3,6.7,6.7,6.7c2.2,0,4.2-1.1,5.5-2.9h7V46.2z M21.3,40.4h0.8
		c-0.8,0.6-1.8,1-2.9,1c-2.6,0-4.8-2.2-4.8-4.8s2.2-4.8,4.8-4.8c1,0,2.1,0.3,2.9,1h-0.8c-1.1,0-2.1,0.4-2.8,1.1
		c-0.8,0.7-1.2,1.7-1.2,2.7C17.3,38.7,19.1,40.4,21.3,40.4z M43.3,34.7c1.1,0,1.9,0.9,1.9,1.9c0,0.5-0.2,1-0.6,1.4
		c-0.4,0.4-0.8,0.6-1.4,0.6H21.3c-1.2,0-2.1-0.9-2.1-1.9c0-0.5,0.2-1,0.6-1.3c0.4-0.4,1-0.6,1.5-0.6l10.4,0L43.3,34.7z"/>
	<path class="st0" d="M9.7,12.6h3.8c0.5,0,1-0.4,1-1V7.8c0-0.5-0.4-1-1-1H9.7c-0.5,0-1,0.4-1,1v3.8C8.7,12.2,9.2,12.6,9.7,12.6z
		 M10.6,8.7h1.9v1.9h-1.9V8.7z"/>
	<path class="st0" d="M17.4,12.6h3.8c0.5,0,1-0.4,1-1V7.8c0-0.5-0.4-1-1-1h-3.8c-0.5,0-1,0.4-1,1v3.8C16.4,12.2,16.8,12.6,17.4,12.6
		z M18.3,8.7h1.9v1.9h-1.9V8.7z"/>
	<path class="st0" d="M25,12.6h3.8c0.5,0,1-0.4,1-1V7.8c0-0.5-0.4-1-1-1H25c-0.5,0-1,0.4-1,1v3.8C24.1,12.2,24.5,12.6,25,12.6z
		 M26,8.7h1.9v1.9H26V8.7z"/>
	<path class="st0" d="M9.7,20.3h3.8c0.5,0,1-0.4,1-1v-3.8c0-0.5-0.4-1-1-1H9.7c-0.5,0-1,0.4-1,1v3.8C8.7,19.8,9.2,20.3,9.7,20.3z
		 M10.6,16.4h1.9v1.9h-1.9V16.4z"/>
	<path class="st0" d="M17.4,20.3h3.8c0.5,0,1-0.4,1-1v-3.8c0-0.5-0.4-1-1-1h-3.8c-0.5,0-1,0.4-1,1v3.8
		C16.4,19.8,16.8,20.3,17.4,20.3z M18.3,16.4h1.9v1.9h-1.9V16.4z"/>
	<path class="st0" d="M25,20.3h3.8c0.5,0,1-0.4,1-1v-3.8c0-0.5-0.4-1-1-1H25c-0.5,0-1,0.4-1,1v3.8C24.1,19.8,24.5,20.3,25,20.3z
		 M26,16.4h1.9v1.9H26V16.4z"/>
	<path class="st0" d="M14.5,27v-3.8c0-0.5-0.4-1-1-1H9.7c-0.5,0-1,0.4-1,1V27c0,0.5,0.4,1,1,1h3.8C14,27.9,14.5,27.5,14.5,27z
		 M12.6,26h-1.9v-1.9h1.9V26z"/>
	<path class="st0" d="M17.4,27.9h3.8c0.5,0,1-0.4,1-1v-3.8c0-0.5-0.4-1-1-1h-3.8c-0.5,0-1,0.4-1,1V27C16.4,27.5,16.8,27.9,17.4,27.9
		z M18.3,24.1h1.9V26h-1.9V24.1z"/>
	<path class="st0" d="M25,27.9h3.8c0.5,0,1-0.4,1-1v-3.8c0-0.5-0.4-1-1-1H25c-0.5,0-1,0.4-1,1V27C24.1,27.5,24.5,27.9,25,27.9z
		 M26,24.1h1.9V26H26V24.1z"/>
</g>
</svg>
