<?xml version="1.0" encoding="utf-8"?>
<!-- Generator: Adobe Illustrator 16.0.0, SVG Export Plug-In . SVG Version: 6.00 Build 0)  -->
<!DOCTYPE svg PUBLIC "-//W3C//DTD SVG 1.1//EN" "http://www.w3.org/Graphics/SVG/1.1/DTD/svg11.dtd">
<svg version="1.1" id="Layer_1" xmlns="http://www.w3.org/2000/svg" xmlns:xlink="http://www.w3.org/1999/xlink" x="0px" y="0px"
	 width="25px" height="25px" viewBox="0 0 25 25" enable-background="new 0 0 25 25" xml:space="preserve">
<g>
	<path fill="#DEAF69" d="M22.578,12.214c0-1.603-1.305-2.908-2.909-2.908H4.58c-1.605,0-2.91,1.305-2.91,2.908v10.948h1.646v0.22
		c0,0.888,0.72,1.608,1.607,1.608c0.886,0,1.607-0.721,1.607-1.607v-0.221h11.189v0.22c0,0.888,0.721,1.608,1.608,1.608
		c0.886,0,1.606-0.721,1.606-1.607v-0.221h1.646L22.578,12.214L22.578,12.214z M5.503,23.384c0,0.32-0.26,0.58-0.58,0.58
		c-0.321,0-0.582-0.26-0.582-0.58v-0.192h1.162V23.384L5.503,23.384z M19.326,23.964c-0.32,0-0.582-0.26-0.582-0.58v-0.192h1.163
		v0.191C19.907,23.703,19.646,23.963,19.326,23.964L19.326,23.964z M21.551,22.135H2.696v-9.92c0-1.038,0.845-1.882,1.882-1.882
		H19.67c1.038,0,1.882,0.844,1.882,1.881L21.551,22.135L21.551,22.135z"/>
	<g transform="translate(5.425 5.161)">
		<path fill="#DEAF69" d="M1.941,2.963c0-0.941,1.929-2,4.704-2s4.703,1.059,4.703,2c0,0.364-0.281,0.682-0.528,0.883
			c-0.233,0.193-0.395,0.445-0.477,0.723c0.145-0.011,0.288-0.021,0.439-0.021c0.188,0,0.369,0.01,0.546,0.027
			c0.017-0.019,0.026-0.042,0.045-0.059c0.564-0.459,0.859-1,0.859-1.564c0-1.6-2.458-2.87-5.588-2.869
			c-3.128,0-5.585,1.27-5.585,2.882c0,0.564,0.294,1.105,0.858,1.564c0.037,0.028,0.057,0.068,0.084,0.103
			C2.3,4.58,2.611,4.548,2.943,4.547C2.859,4.275,2.7,4.024,2.471,3.833C2.223,3.645,1.941,3.327,1.941,2.963z"/>
	</g>
	<path fill="#DEAF69" d="M12.813,3.109c0.074,0.435,0.349,0.82,0.754,1.058c0.082,0.047,0.17,0.07,0.26,0.07
		c0.175,0,0.347-0.091,0.443-0.254c0.143-0.245,0.06-0.56-0.186-0.702c-0.141-0.082-0.236-0.21-0.26-0.343
		c-0.034-0.201,0.102-0.41,0.222-0.55c0.697-0.816,0.277-1.762-0.176-2.2c-0.204-0.197-0.528-0.191-0.726,0.012
		c-0.196,0.204-0.19,0.529,0.013,0.726c0.044,0.042,0.422,0.427,0.108,0.794C12.792,2.275,12.758,2.781,12.813,3.109z M9.836,3.109
		c0.073,0.435,0.348,0.82,0.753,1.058c0.081,0.047,0.17,0.07,0.259,0.07c0.176,0,0.348-0.091,0.443-0.254
		c0.143-0.245,0.06-0.56-0.184-0.702c-0.14-0.082-0.236-0.21-0.26-0.343c-0.033-0.201,0.103-0.41,0.222-0.55
		c0.698-0.816,0.277-1.762-0.176-2.2c-0.202-0.196-0.523-0.19-0.72,0.01c-0.197,0.201-0.195,0.525,0.004,0.725
		c0.1,0.1,0.405,0.455,0.113,0.797C9.814,2.275,9.78,2.781,9.836,3.109z"/>
	<path fill="#DEAF69" d="M17.992,11.743H4.56c-0.284,0-0.514,0.23-0.514,0.513c0,0.283,0.23,0.513,0.514,0.513h13.43
		c0.283,0,0.514-0.23,0.514-0.513C18.504,11.972,18.273,11.743,17.992,11.743L17.992,11.743z M17.992,13.488H4.56
		c-0.284,0-0.514,0.229-0.514,0.513s0.23,0.513,0.514,0.513h13.43c0.283,0,0.514-0.229,0.514-0.513S18.273,13.488,17.992,13.488
		L17.992,13.488z"/>
	<circle fill="#DEAF69" cx="4.99" cy="19.711" r="1"/>
	<circle fill="#DEAF69" cx="7.414" cy="19.711" r="1"/>
	<path fill="#DEAF69" d="M22.5,12h2c0.275,0,0.5,0.224,0.5,0.5l0,0c0,0.276-0.225,0.5-0.5,0.5h-2c-0.275,0-0.5-0.224-0.5-0.5l0,0
		C22,12.224,22.225,12,22.5,12z"/>
</g>
</svg>
