<?xml version="1.0" encoding="utf-8"?>
<!-- Generator: Adobe Illustrator 24.3.0, SVG Export Plug-In . SVG Version: 6.00 Build 0)  -->
<svg version="1.1" id="Layer_1" xmlns="http://www.w3.org/2000/svg" xmlns:xlink="http://www.w3.org/1999/xlink" x="0px" y="0px"
	 viewBox="0 0 52 49.1" style="enable-background:new 0 0 52 49.1;" xml:space="preserve">
<style type="text/css">
	.st0{fill:#DEAF69;}
</style>
<path class="st0" d="M49.6,10.4L23.9,13l-1.1-2.6c0-0.1-0.1-0.1-0.3-0.1c-0.2,0-0.6,0.1-1,0.2c-0.6,0.3-1.1,0.6-1,0.8l1.1,2.7
	l-20,15.8c0,0.4,0.3,1.6,0.7,1.8c0.4,0.2,2.4,1.3,3.2,1.3c0.1,0,0.1,0,0.1,0c0.6-0.2,0.9-1.2,0.9-1.2s0.5,1.7,1.5,2
	c0.6,0.2,2.6,0.3,4.4,0.3c1.4,0,2.7-0.1,3.1-0.4c1-0.7,0.9-1.5,1.4-2.1c0.5,0.4,1,1.6,2,1.8c0.1,0,0.1,0,0.2,0
	c1.5,0,6.8-1.5,8.3-2.8c0.2-0.1,0.3-0.3,0.4-0.5l7,17.4c0,0.1,0.2,0.1,0.3,0.1c0.2,0,0.6-0.1,1-0.2c0.6-0.3,1.1-0.6,1-0.8l-7.1-17.6
	c0.3,0.1,0.6,0.2,0.9,0.2c0,0,0,0,0,0c2.1-0.1,7.4-3,8.1-3.9c0.6-0.9,0.2-2,0.2-2.7c0.7,0.1,1.1,0.6,2,0.6c0.1,0,0.3,0,0.5,0
	c1.2-0.2,4.9-4.2,5.5-5.2c0.6-1-0.3-2.5-0.3-2.5s0.6,0.3,1.1,0.3c0.2,0,0.3,0,0.4-0.1c0.6-0.3,1.3-2.8,1.5-3.2
	C50.5,11.7,49.8,10.7,49.6,10.4L49.6,10.4z M49.2,12.5c-0.2,0.5-0.6,1.7-0.9,2.1c-0.2,0-0.5-0.1-0.6-0.2l-2.7-1.5l1.5,2.7
	c0.2,0.4,0.5,1.3,0.3,1.6c-0.7,1.1-4.1,4.6-4.9,4.8c-0.1,0-0.2,0-0.3,0c-0.3,0-0.5-0.1-0.8-0.2c-0.3-0.1-0.7-0.3-1.2-0.4l-0.9-0.1
	l-0.1,0.9c0,0.3,0,0.6,0,0.9c0.1,0.5,0.1,1-0.1,1.3C38,25.2,33,27.9,31.2,28c-0.2,0-0.4,0-0.6-0.1l-2-0.8l0.8,2l6.9,17.1
	c-0.1,0-0.2,0.1-0.3,0.1c-0.1,0-0.2,0.1-0.3,0.1l-6.8-16.8l-0.7-1.7l-0.9,1.6c-0.1,0.1-0.1,0.2-0.2,0.3c-1.2,1.1-6.4,2.6-7.7,2.6
	c0,0,0,0-0.1,0c-0.4-0.1-0.6-0.4-1-0.9c-0.2-0.3-0.4-0.5-0.6-0.7l-0.7-0.6l-0.6,0.7c-0.3,0.4-0.5,0.8-0.6,1.1
	c-0.2,0.4-0.2,0.6-0.6,0.9c0,0-0.5,0.3-2.6,0.3c-1.8,0-3.7-0.2-4.2-0.3c-0.4-0.1-0.8-0.9-0.9-1.4l-0.8-2.9l-1,2.9
	c-0.1,0.2-0.2,0.5-0.3,0.6C5,31.8,3.8,31.2,3.4,31c-0.3-0.1-0.4-0.2-0.6-0.3c-0.1-0.1-0.1-0.4-0.2-0.6l19.6-15.5l0.5-0.4l-0.3-0.6
	l-0.9-2.2c0.1,0,0.2-0.1,0.3-0.1c0.1,0,0.2-0.1,0.3-0.1l0.9,2.1l0.3,0.6l0.7-0.1l25.1-2.5c0.1,0.2,0.2,0.4,0.3,0.5
	C49.4,12,49.3,12.2,49.2,12.5L49.2,12.5z"/>
</svg>
