<?xml version="1.0" encoding="utf-8"?>
<!-- Generator: Adobe Illustrator 16.0.0, SVG Export Plug-In . SVG Version: 6.00 Build 0)  -->
<!DOCTYPE svg PUBLIC "-//W3C//DTD SVG 1.1//EN" "http://www.w3.org/Graphics/SVG/1.1/DTD/svg11.dtd">
<svg version="1.1" id="Layer_1" xmlns="http://www.w3.org/2000/svg" xmlns:xlink="http://www.w3.org/1999/xlink" x="0px" y="0px"
	 width="28px" height="22px" viewBox="0 0 28 22" enable-background="new 0 0 28 22" xml:space="preserve">
<g>
	<path fill="#DEAF69" d="M10.85,12.503h-0.696c-0.249-1.274-1.484-2.105-2.758-1.857c-0.734,0.144-1.357,0.628-1.676,1.305
		c-0.554-1.174-1.954-1.677-3.129-1.124c-0.677,0.32-1.161,0.942-1.305,1.676H0.475c-0.26,0-0.472,0.211-0.472,0.472v7.781
		c0,0.26,0.211,0.473,0.472,0.473H10.85c0.26,0,0.471-0.211,0.471-0.473v-7.781C11.321,12.715,11.111,12.503,10.85,12.503z
		 M7.842,11.546c0.603,0.002,1.138,0.386,1.332,0.957H6.51C6.704,11.934,7.24,11.548,7.842,11.546z M3.598,11.546
		c0.603,0.002,1.138,0.386,1.332,0.957H2.266C2.46,11.934,2.995,11.548,3.598,11.546z M3.304,20.284H0.946v-6.839h2.358V20.284z
		 M7.077,20.284h-2.83v-6.839h2.83V20.284z M10.378,20.284H8.02v-6.839h2.358V20.284z M2.72,5.594
		C2.281,5.207,2.24,4.539,2.626,4.101c0.029-0.034,0.06-0.065,0.093-0.094C3.096,3.636,3.307,3.129,3.304,2.6H2.361
		c0,0.303-0.131,0.592-0.358,0.793c-0.777,0.773-0.78,2.03-0.008,2.806l0.008,0.008c0.439,0.387,0.48,1.057,0.093,1.495
		c-0.03,0.033-0.06,0.064-0.093,0.093C1.627,8.166,1.416,8.673,1.418,9.202h0.943C2.362,8.899,2.492,8.61,2.719,8.408
		c0.777-0.773,0.78-2.03,0.007-2.807L2.719,5.594H2.72z M6.02,5.594C5.582,5.207,5.54,4.539,5.927,4.101
		c0.029-0.034,0.06-0.065,0.093-0.094C6.397,3.636,6.608,3.129,6.605,2.6H5.662c0,0.303-0.131,0.592-0.358,0.793
		c-0.777,0.773-0.78,2.03-0.007,2.806l0.007,0.008c0.439,0.387,0.48,1.057,0.093,1.495c-0.03,0.033-0.06,0.064-0.093,0.093
		C4.928,8.166,4.717,8.673,4.719,9.202h0.943C5.663,8.899,5.794,8.61,6.02,8.408c0.778-0.773,0.78-2.03,0.008-2.807L6.02,5.594z
		 M9.321,5.594c-0.438-0.387-0.48-1.055-0.093-1.493c0.029-0.034,0.06-0.065,0.093-0.094C9.698,3.636,9.909,3.129,9.906,2.6H8.963
		c0,0.303-0.131,0.592-0.358,0.793c-0.777,0.773-0.78,2.03-0.007,2.806l0.007,0.008c0.439,0.387,0.48,1.057,0.093,1.495
		c-0.029,0.033-0.06,0.064-0.093,0.093C8.229,8.166,8.018,8.673,8.02,9.202h0.943C8.964,8.899,9.095,8.61,9.321,8.408
		c0.778-0.773,0.78-2.03,0.008-2.807L9.321,5.594z M23.582,13.21V8.967l2.311,1.733c0.578,0.434,1.397,0.317,1.83-0.26
		c0.232-0.309,0.316-0.703,0.229-1.079c-0.078-0.328-0.277-0.615-0.558-0.802L22.199,4.91c1.15-1.06,1.222-2.85,0.162-3.998
		c-1.06-1.15-2.85-1.222-3.998-0.163c-1.149,1.06-1.221,2.85-0.162,3.999l0.014,0.015c-0.027,0.01-0.056,0.023-0.082,0.038
		l-5.456,3.641c-0.2,0.127-0.365,0.303-0.477,0.511c-0.247,0.473-0.205,1.045,0.11,1.475c0.438,0.599,1.27,0.746,1.886,0.333
		l2.785-1.857v10.454c0.006,1.041,0.854,1.877,1.894,1.871c0.54-0.004,1.053-0.24,1.407-0.647c0.683,0.784,1.871,0.866,2.654,0.185
		c0.408-0.355,0.644-0.867,0.646-1.408V13.21z M18.462,2.324c0.173-0.636,0.67-1.133,1.306-1.306
		c1.008-0.28,2.051,0.308,2.332,1.315c0.092,0.332,0.092,0.683,0,1.014c-0.173,0.637-0.67,1.134-1.306,1.307
		c-1.007,0.28-2.05-0.308-2.331-1.315C18.37,3.007,18.37,2.656,18.462,2.324L18.462,2.324z M19.811,19.357
		c-0.006,0.517-0.429,0.931-0.944,0.927c-0.517,0.004-0.938-0.41-0.943-0.927v-5.692c0.011-0.521,0.44-0.935,0.96-0.926
		c0.508,0.01,0.917,0.419,0.928,0.926V19.357z M22.639,19.357c-0.01,0.521-0.438,0.936-0.959,0.927
		c-0.509-0.009-0.918-0.418-0.927-0.927v-5.692c0.011-0.521,0.44-0.935,0.96-0.926c0.508,0.01,0.917,0.419,0.926,0.926V19.357z
		 M23.395,7.646c-0.209-0.156-0.504-0.114-0.66,0.094c-0.063,0.082-0.096,0.181-0.096,0.283v4.034
		c-0.775-0.461-1.77-0.298-2.357,0.385c-0.588-0.683-1.582-0.846-2.358-0.385V8.023c0-0.26-0.21-0.471-0.471-0.471
		c-0.093,0-0.185,0.027-0.263,0.079l-3.517,2.345c-0.204,0.135-0.479,0.08-0.614-0.123c-0.063-0.095-0.087-0.21-0.068-0.322
		c0.021-0.12,0.09-0.225,0.19-0.291l5.357-3.575h3.096l5.253,3.69c0.161,0.114,0.203,0.336,0.094,0.5
		c-0.111,0.168-0.338,0.213-0.506,0.101l-0.016-0.011L23.395,7.646z"/>
</g>
</svg>
