<?xml version="1.0" encoding="utf-8"?>
<!-- Generator: Adobe Illustrator 16.0.0, SVG Export Plug-In . SVG Version: 6.00 Build 0)  -->
<!DOCTYPE svg PUBLIC "-//W3C//DTD SVG 1.1//EN" "http://www.w3.org/Graphics/SVG/1.1/DTD/svg11.dtd">
<svg version="1.1" id="Layer_1" xmlns="http://www.w3.org/2000/svg" xmlns:xlink="http://www.w3.org/1999/xlink" x="0px" y="0px"
	 width="22px" height="22px" viewBox="0 0 22 22" enable-background="new 0 0 22 22" xml:space="preserve">
<g>
	<path fill="none" stroke="#DEAF69" stroke-width="1.375" d="M4.355,0.688h13.292c2.025,0,3.666,1.642,3.666,3.667v13.292
		c0,2.025-1.641,3.666-3.666,3.666H4.355c-2.025,0-3.667-1.641-3.667-3.666V4.355C0.688,2.33,2.33,0.688,4.355,0.688z"/>
	<g>
		<path fill="#DEAF69" d="M9.36,4.378l0.178-0.174c0.113-0.112,0.157-0.277,0.115-0.43C9.612,3.619,9.492,3.499,9.338,3.458
			C9.184,3.417,9.019,3.461,8.907,3.573L8.733,3.751c-1.279-1.001-3.076-1.001-4.355,0L4.204,3.573C4.03,3.4,3.748,3.4,3.574,3.573
			c-0.175,0.175-0.175,0.457,0,0.631l0.177,0.174c-1.001,1.279-1.001,3.076,0,4.355L3.573,8.907C3.489,8.99,3.442,9.104,3.442,9.222
			c0,0.119,0.047,0.232,0.131,0.316C3.657,9.622,3.77,9.669,3.889,9.669c0.118,0,0.232-0.047,0.315-0.131L4.378,9.36
			c1.279,1.001,3.076,1.001,4.355,0l0.174,0.178C8.99,9.622,9.104,9.669,9.222,9.669c0.119,0,0.232-0.047,0.316-0.131
			s0.131-0.197,0.131-0.316c0-0.118-0.047-0.232-0.131-0.315L9.36,8.733C10.361,7.454,10.361,5.657,9.36,4.378z M6.556,9.222
			c-0.553,0-1.092-0.173-1.543-0.493l0.303-0.302C5.428,8.314,5.472,8.15,5.431,7.996C5.39,7.842,5.27,7.721,5.116,7.68
			C4.961,7.639,4.797,7.683,4.684,7.796L4.382,8.098c-0.655-0.924-0.655-2.16,0-3.085l0.302,0.303C4.768,5.4,4.881,5.447,5,5.447
			S5.232,5.4,5.316,5.316S5.447,5.119,5.447,5S5.4,4.768,5.316,4.684L5.013,4.382c0.924-0.655,2.16-0.655,3.085,0L7.796,4.684
			C7.711,4.768,7.664,4.881,7.664,5s0.047,0.232,0.132,0.316C7.879,5.4,7.993,5.447,8.111,5.447c0.119,0,0.232-0.047,0.316-0.131
			l0.302-0.303c0.655,0.924,0.655,2.16,0,3.085L8.427,7.796c-0.175-0.175-0.457-0.175-0.631,0c-0.175,0.174-0.175,0.456,0,0.63
			l0.302,0.303C7.648,9.049,7.108,9.222,6.556,9.222L6.556,9.222z M6.556,5.222c-0.737,0-1.334,0.597-1.334,1.334
			c0,0.736,0.597,1.333,1.334,1.333c0.736,0,1.333-0.597,1.333-1.333C7.889,5.819,7.292,5.222,6.556,5.222z M6.556,7
			C6.31,7,6.111,6.801,6.111,6.556c0-0.246,0.2-0.445,0.445-0.445C6.801,6.111,7,6.311,7,6.556C7,6.801,6.801,7,6.556,7z
			 M18.249,4.378l0.178-0.174c0.175-0.174,0.175-0.456,0-0.63c-0.175-0.175-0.456-0.175-0.631,0l-0.174,0.177
			c-1.279-1.001-3.076-1.001-4.354,0l-0.175-0.178c-0.112-0.112-0.276-0.156-0.43-0.115c-0.155,0.041-0.274,0.161-0.315,0.315
			c-0.043,0.154,0.002,0.319,0.114,0.431l0.179,0.174c-1.002,1.279-1.002,3.076,0,4.355l-0.179,0.174
			c-0.084,0.083-0.131,0.197-0.131,0.315c0,0.119,0.047,0.232,0.131,0.316s0.197,0.131,0.315,0.131c0.119,0,0.232-0.047,0.315-0.131
			l0.175-0.178c1.278,1.001,3.075,1.001,4.354,0l0.174,0.178c0.083,0.084,0.197,0.131,0.315,0.131c0.119,0,0.231-0.047,0.315-0.131
			c0.085-0.084,0.132-0.197,0.132-0.316c0-0.118-0.047-0.232-0.132-0.315l-0.178-0.174C19.25,7.454,19.25,5.657,18.249,4.378z
			 M15.443,9.222c-0.551,0-1.09-0.173-1.541-0.493l0.302-0.302c0.175-0.175,0.175-0.457,0-0.631c-0.175-0.175-0.456-0.175-0.63,0
			l-0.303,0.302c-0.655-0.924-0.655-2.16,0-3.085l0.302,0.303c0.084,0.084,0.196,0.131,0.315,0.131c0.118,0,0.232-0.047,0.315-0.131
			C14.289,5.232,14.336,5.119,14.336,5s-0.047-0.232-0.132-0.316l-0.302-0.302c0.924-0.655,2.16-0.655,3.084,0l-0.303,0.302
			C16.6,4.768,16.553,4.881,16.553,5s0.047,0.232,0.131,0.316S16.881,5.447,17,5.447s0.232-0.047,0.316-0.131l0.302-0.303
			c0.655,0.924,0.655,2.16,0,3.085l-0.302-0.302c-0.176-0.175-0.457-0.175-0.633,0c-0.174,0.174-0.174,0.456,0,0.63l0.303,0.303
			C16.537,9.049,15.997,9.222,15.443,9.222z M15.443,5.222c-0.735,0-1.332,0.597-1.332,1.334c0,0.736,0.597,1.333,1.332,1.333
			c0.738,0,1.334-0.597,1.334-1.333C16.777,5.819,16.182,5.222,15.443,5.222z M15.443,7C15.2,7,15,6.801,15,6.556
			c0-0.246,0.199-0.445,0.443-0.445c0.246,0,0.445,0.2,0.445,0.445C15.889,6.801,15.689,7,15.443,7z M9.36,13.378l0.178-0.174
			c0.113-0.112,0.157-0.277,0.115-0.431c-0.041-0.154-0.161-0.274-0.315-0.315c-0.154-0.041-0.319,0.003-0.431,0.115l-0.174,0.178
			c-1.279-1.001-3.076-1.001-4.355,0l-0.174-0.178c-0.174-0.175-0.456-0.175-0.63,0c-0.175,0.175-0.175,0.456,0,0.631l0.177,0.174
			c-1.001,1.279-1.001,3.076,0,4.354l-0.178,0.175c-0.084,0.083-0.131,0.196-0.131,0.315c0,0.118,0.047,0.231,0.131,0.315
			c0.084,0.084,0.197,0.131,0.316,0.131c0.118,0,0.232-0.047,0.315-0.131l0.174-0.179c1.279,1.002,3.076,1.002,4.355,0l0.174,0.179
			c0.083,0.084,0.197,0.131,0.315,0.131c0.119,0,0.232-0.047,0.316-0.131s0.131-0.197,0.131-0.315c0-0.119-0.047-0.232-0.131-0.315
			L9.36,17.732C10.361,16.454,10.361,14.657,9.36,13.378z M6.556,18.223c-0.553,0-1.092-0.174-1.543-0.494l0.303-0.302
			c0.112-0.112,0.156-0.276,0.115-0.431S5.27,16.721,5.116,16.68c-0.155-0.041-0.319,0.004-0.432,0.116l-0.302,0.302
			c-0.655-0.924-0.655-2.16,0-3.084l0.302,0.303C4.768,14.4,4.881,14.447,5,14.447s0.232-0.047,0.316-0.131S5.447,14.119,5.447,14
			S5.4,13.768,5.316,13.684l-0.303-0.302c0.924-0.655,2.16-0.655,3.085,0l-0.302,0.302C7.711,13.768,7.664,13.881,7.664,14
			s0.047,0.232,0.132,0.316c0.083,0.084,0.197,0.131,0.315,0.131c0.119,0,0.232-0.047,0.316-0.131l0.302-0.303
			c0.655,0.924,0.655,2.159,0,3.084l-0.302-0.302c-0.175-0.175-0.457-0.175-0.631,0c-0.175,0.175-0.175,0.456,0,0.63l0.302,0.303
			C7.648,18.049,7.108,18.223,6.556,18.223L6.556,18.223z M6.556,14.223c-0.737,0-1.334,0.596-1.334,1.334
			c0,0.735,0.597,1.332,1.334,1.332c0.736,0,1.333-0.597,1.333-1.332C7.889,14.818,7.292,14.223,6.556,14.223z M6.556,16
			c-0.246,0-0.445-0.199-0.445-0.443c0-0.246,0.2-0.445,0.445-0.445C6.801,15.111,7,15.311,7,15.557C7,15.801,6.801,16,6.556,16z
			 M18.249,13.378l0.178-0.174c0.175-0.175,0.175-0.456,0-0.63c-0.175-0.176-0.456-0.176-0.631,0l-0.174,0.177
			c-1.279-1.001-3.076-1.001-4.354,0l-0.175-0.178c-0.112-0.112-0.276-0.156-0.43-0.115c-0.155,0.041-0.274,0.161-0.315,0.315
			c-0.043,0.153,0.002,0.318,0.114,0.431l0.179,0.174c-1.002,1.279-1.002,3.076,0,4.354l-0.179,0.175
			c-0.084,0.083-0.131,0.196-0.131,0.315c0,0.118,0.047,0.231,0.131,0.315s0.197,0.131,0.315,0.131c0.119,0,0.232-0.047,0.315-0.131
			l0.175-0.179c1.278,1.002,3.075,1.002,4.354,0l0.174,0.179c0.083,0.084,0.197,0.131,0.315,0.131c0.119,0,0.231-0.047,0.315-0.131
			c0.085-0.084,0.132-0.197,0.132-0.315c0-0.119-0.047-0.232-0.132-0.315l-0.178-0.175C19.25,16.454,19.25,14.657,18.249,13.378z
			 M15.443,18.223c-0.551,0-1.09-0.174-1.541-0.494l0.302-0.302c0.175-0.175,0.175-0.456,0-0.631s-0.456-0.175-0.63,0l-0.303,0.302
			c-0.655-0.924-0.655-2.16,0-3.084l0.302,0.303c0.084,0.084,0.196,0.131,0.315,0.131c0.118,0,0.232-0.047,0.315-0.131
			c0.085-0.084,0.132-0.197,0.132-0.316s-0.047-0.232-0.132-0.316l-0.302-0.302c0.924-0.655,2.16-0.655,3.084,0l-0.303,0.302
			C16.6,13.768,16.553,13.881,16.553,14s0.047,0.232,0.131,0.316s0.197,0.131,0.316,0.131s0.232-0.047,0.316-0.131l0.302-0.303
			c0.655,0.924,0.655,2.159,0,3.084l-0.302-0.302c-0.176-0.175-0.457-0.175-0.633,0c-0.174,0.175-0.174,0.456,0,0.63l0.303,0.303
			C16.537,18.049,15.997,18.223,15.443,18.223L15.443,18.223z M15.443,14.223c-0.735,0-1.332,0.596-1.332,1.334
			c0,0.735,0.597,1.332,1.332,1.332c0.738,0,1.334-0.597,1.334-1.332C16.777,14.818,16.182,14.223,15.443,14.223z M15.443,16
			C15.199,16,15,15.801,15,15.557c0-0.246,0.199-0.445,0.443-0.445c0.246,0,0.445,0.199,0.445,0.445
			C15.889,15.801,15.689,16,15.443,16z"/>
	</g>
</g>
</svg>
