<?xml version="1.0" encoding="utf-8"?>
<!-- Generator: Adobe Illustrator 24.3.0, SVG Export Plug-In . SVG Version: 6.00 Build 0)  -->
<svg version="1.1" id="Layer_1" xmlns="http://www.w3.org/2000/svg" xmlns:xlink="http://www.w3.org/1999/xlink" x="0px" y="0px"
	 viewBox="0 0 52 49.1" style="enable-background:new 0 0 52 49.1;" xml:space="preserve">
<style type="text/css">
	.st0{fill:none;stroke:#DEAF69;stroke-width:1.196;}
	.st1{fill:#DEAF69;}
</style>
<g transform="translate(2 2)">
	<path class="st0" d="M4.1,11.9h39.6c0.8,0,1.4,0.6,1.4,1.4v18.8c0,0.8-0.6,1.4-1.4,1.4H4.1c-0.8,0-1.4-0.6-1.4-1.4V13.3
		C2.8,12.6,3.4,11.9,4.1,11.9z"/>
	<g transform="translate(2.498 2.392)">
		<path class="st1" d="M36.1,24.5H6.8c-0.6,0-1.1,0.5-1.1,1c0,0.6,0.5,1,1.1,1h29.4c0.6,0,1.1-0.5,1.1-1
			C37.3,25,36.8,24.5,36.1,24.5z M9.2,34.3c-0.6-0.1-1.1,0.2-1.3,0.8l-0.8,3.3C7,39,7.3,39.6,7.9,39.8c0.6,0.2,1.2-0.3,1.3-0.8
			l0.8-3.3C10.1,35,9.7,34.4,9.2,34.3L9.2,34.3z M17.4,35.6c-0.7-0.1-1.3,0.4-1.4,1L15.7,40c-0.1,0.6,0.5,1.2,1.2,1.2
			c0.7,0,1.3-0.4,1.4-1l0.3-3.4C18.6,36.2,18.1,35.7,17.4,35.6L17.4,35.6z M35.8,38.4L35,35.1c-0.1-0.6-0.7-1-1.3-0.8
			c-0.6,0.2-0.9,0.8-0.8,1.4l0.8,3.3c0.1,0.5,0.6,1,1.3,0.8C35.6,39.6,35.9,39,35.8,38.4z M27.2,40l-0.3-3.4c-0.1-0.6-0.7-1.1-1.4-1
			c-0.7,0-1.2,0.6-1.2,1.2l0.3,3.4c0.1,0.6,0.7,1,1.4,1C26.7,41.1,27.3,40.6,27.2,40C27.2,40,27.2,40,27.2,40z"/>
		<ellipse class="st1" cx="36.5" cy="16.9" rx="2.2" ry="2.1"/>
	</g>
</g>
</svg>
