<?xml version="1.0" encoding="utf-8"?>
<!-- Generator: Adobe Illustrator 24.3.0, SVG Export Plug-In . SVG Version: 6.00 Build 0)  -->
<svg version="1.1" id="Layer_1" xmlns="http://www.w3.org/2000/svg" xmlns:xlink="http://www.w3.org/1999/xlink" x="0px" y="0px"
	 viewBox="0 0 52 49.1" style="enable-background:new 0 0 52 49.1;" xml:space="preserve">
<style type="text/css">
	.st0{fill:#DEAF69;}
</style>
<g>
	<path class="st0" d="M43.3,4.2c0-0.8-0.3-1.5-0.9-2.1c-0.5-0.5-1.3-0.8-2.1-0.8H11.6c-0.8,0-1.5,0.3-2.1,0.8C9,2.7,8.7,3.4,8.7,4.2
		v40.6c0,0.8,0.3,1.5,0.8,2.1c0.5,0.5,1.3,0.9,2.1,0.9h28.9c0.8,0,1.5-0.3,2.1-0.9c0.5-0.5,0.9-1.3,0.9-2.1V4.2L43.3,4.2z M11.6,3.2
		h28.9c0.3,0,0.5,0.1,0.7,0.3c0.2,0.2,0.3,0.4,0.3,0.7v7.6H10.6V4.2c0-0.3,0.1-0.5,0.3-0.7C11.1,3.3,11.3,3.2,11.6,3.2z M21.9,13.7
		h8v1.5c0,0.5-0.4,1-0.9,1h-6.1c-0.5,0-1-0.4-1-1V13.7z M22.9,18h6.1c0.8,0,1.5-0.3,2-0.9c0.5-0.5,0.8-1.3,0.8-2v-1.5h9.5v27.1H10.6
		V13.7H20v1.5C20,16.7,21.4,18,22.9,18z M40.4,45.6H11.6c-0.3,0-0.5-0.1-0.7-0.3c-0.2-0.2-0.3-0.4-0.3-0.7v-2h30.8v2
		c0,0.3-0.1,0.5-0.3,0.7C40.9,45.6,40.7,45.7,40.4,45.6L40.4,45.6z"/>
	<circle class="st0" cx="14.6" cy="7.4" r="1.9"/>
	<circle class="st0" cx="18.6" cy="7.4" r="1.9"/>
	<circle class="st0" cx="22.6" cy="7.4" r="1.9"/>
</g>
</svg>
