<?xml version="1.0" encoding="utf-8"?>
<!-- Generator: Adobe Illustrator 16.0.0, SVG Export Plug-In . SVG Version: 6.00 Build 0)  -->
<!DOCTYPE svg PUBLIC "-//W3C//DTD SVG 1.1//EN" "http://www.w3.org/Graphics/SVG/1.1/DTD/svg11.dtd">
<svg version="1.1" id="Capa_1" xmlns="http://www.w3.org/2000/svg" xmlns:xlink="http://www.w3.org/1999/xlink" x="0px" y="0px"
	 width="400px" height="400px" viewBox="0 0 400 400" enable-background="new 0 0 400 400" xml:space="preserve">
<g>
	<path stroke="#000000" stroke-width="3" stroke-miterlimit="10" d="M372.633,220.458H322.52v-10.169
		c0-0.887-0.156-1.739-0.442-2.528c0.286-0.845,0.442-1.75,0.442-2.69c0-15.861-11.899-29-27.244-30.946v-7.282h2.933
		c2.914,0,5.272-2.36,5.272-5.272c0-2.914-2.358-5.273-5.272-5.273H281.8c-2.911,0-5.272,2.359-5.272,5.273
		c0,2.912,2.361,5.272,5.272,5.272h2.933v7.28c-15.344,1.947-27.244,15.085-27.244,30.948c0,0.939,0.156,1.848,0.443,2.69
		c-0.287,0.789-0.443,1.642-0.443,2.528v10.169h-20.98v-45.877c0-12.615-8.789-23.215-20.566-25.999V79.424
		c0-32.766-26.656-59.424-59.422-59.424c-15,0-29.324,5.605-40.332,15.782c-2.138,1.977-2.269,5.313-0.292,7.453
		c1.978,2.138,5.314,2.27,7.453,0.292c9.053-8.37,20.833-12.979,33.17-12.979c26.951,0,48.876,21.926,48.876,48.877v68.444h-25.409
		v-7.467c7.796-5.956,14.229-14.484,14.994-24.881c3.197-43.427,2.279-30.593,2.433-33.037c0.317-4.583-2.349-8.756-6.646-10.396
		c-8.438-3.22-14.105-11.453-14.105-20.487v-3.098c0-2.913-2.361-5.273-5.273-5.273s-5.272,2.36-5.272,5.273
		c0,11.406-7.695,21.435-18.714,24.387l-11.709,3.139c-11.675,3.127-19.505,14.135-18.618,26.175l0.981,13.318
		c0.766,10.396,7.199,18.925,14.994,24.881v7.466h-25.407V79.424c0-6.06,1.094-11.972,3.252-17.57
		c1.047-2.717-0.308-5.77-3.025-6.817c-2.716-1.046-5.77,0.308-6.817,3.024c-2.625,6.814-3.957,14.002-3.957,21.364v69.403
		c-11.292,3.119-19.609,13.482-19.609,25.754v45.877h-50.12c-4.063-0.001-7.367,3.305-7.367,7.366v40.093
		c0,3.352,2.251,6.188,5.32,7.077v117.638c0,4.063,3.305,7.367,7.367,7.367h334.625c4.063,0,7.367-3.305,7.367-7.367V274.995
		c3.068-0.892,5.32-3.728,5.32-7.078v-40.093C380,223.764,376.695,220.458,372.633,220.458L372.633,220.458z M288.682,184.418h2.644
		c10.646,0,19.438,8.1,20.532,18.461h-43.711C269.244,192.518,278.035,184.418,288.682,184.418z M268.031,213.427h43.941v7.031
		h-43.941V213.427z M127.587,101.427c-0.515-6.996,4.039-13.394,10.83-15.213l11.71-3.138c8.671-2.324,15.891-7.737,20.598-14.862
		c3.653,6.114,9.276,11.021,16.153,13.678l-2.419,32.854c-0.543,7.365-5.878,13.802-12.076,18.237
		c-0.46,0.226-0.882,0.518-1.254,0.862c-5.201,3.438-10.811,5.46-14.615,5.46c-3.804,0-9.414-2.022-14.615-5.46
		c-0.372-0.344-0.794-0.636-1.254-0.862c-6.198-4.435-11.534-10.872-12.076-18.237L127.587,101.427z M156.514,149.852
		c3.567,0,8.159-1.119,12.922-3.215v3.437c0,4.438,3.484,8.077,7.862,8.327c-4.507,6.561-12.088,10.748-20.306,10.748
		c-8.26,0-15.875-4.229-20.374-10.847c3.95-0.655,6.972-4.096,6.972-8.229v-3.437C148.354,148.732,152.946,149.852,156.514,149.852
		L156.514,149.852z M88.027,174.582c0-8.915,7.252-16.167,16.167-16.167h0.969c4.681,0,7.087,0,11.023,0h8.521
		c5.477,12.704,18.229,21.28,32.286,21.28c14.056,0,26.81-8.576,32.286-21.28h8.535c4.609,0,6.407,0,11.013,0h0.963
		c8.916,0,16.168,7.252,16.168,16.167v45.877h-15.377v-28.658c0-2.912-2.36-5.273-5.272-5.273c-2.914,0-5.273,2.361-5.273,5.273
		v10.1h-27.917c-4.147,0-7.521,3.373-7.521,7.521v11.037h-50.646v-28.657c0-2.912-2.361-5.273-5.273-5.273
		c-2.912,0-5.273,2.361-5.273,5.273v28.657H88.028L88.027,174.582L88.027,174.582z M175.141,220.458v-8.011h24.892v8.011H175.141z
		 M35.868,389.453V275.284h284.011c2.912,0,5.273-2.36,5.273-5.273s-2.361-5.272-5.273-5.272H30.547v-33.732h338.906v33.732h-63.965
		c-2.914,0-5.273,2.359-5.273,5.272s2.359,5.273,5.273,5.273h58.645v114.169H35.868z"/>
	<g>
		<path stroke="#000000" stroke-width="3" stroke-miterlimit="10" d="M107.654,79.424l-0.045,1.873
			c-3.517-0.219-6.99-0.429-10.502-0.703v-1.17c0-27.937,19.385-51.419,45.406-57.738c1.123,3.341,2.08,6.723,2.715,10.195
			C123.712,36.996,107.654,56.364,107.654,79.424z"/>
	</g>
	<circle fill="none" stroke="#000000" stroke-width="13" stroke-miterlimit="10" cx="200" cy="332.25" r="41"/>
	<path stroke="#000000" stroke-width="9" stroke-miterlimit="10" d="M202.16,315.037c0.039,1.2-0.842,2.16-2.241,2.16
		c-1.239,0-2.12-0.96-2.12-2.16c0-1.239,0.92-2.199,2.2-2.199C201.318,312.838,202.16,313.798,202.16,315.037z"/>
	<rect x="198.241" y="330.477" stroke="#000000" stroke-width="9" stroke-miterlimit="10" width="3.519" height="19.356"/>
</g>
</svg>
