<?xml version="1.0" encoding="utf-8"?>
<!-- Generator: Adobe Illustrator 24.3.0, SVG Export Plug-In . SVG Version: 6.00 Build 0)  -->
<svg version="1.1" id="Layer_1" xmlns="http://www.w3.org/2000/svg" xmlns:xlink="http://www.w3.org/1999/xlink" x="0px" y="0px"
	 viewBox="0 0 52 49.1" style="enable-background:new 0 0 52 49.1;" xml:space="preserve">
<style type="text/css">
	.st0{fill:#DEAF69;}
</style>
<g>
	<path class="st0" d="M20.4,31.5h-0.9c-0.5-2-2.3-3.4-4.4-3.4c-0.3,0-0.6,0-0.9,0.1c-1.2,0.2-2.2,0.9-2.9,1.9c-0.8-1.2-2.3-2-3.8-2
		c-0.7,0-1.3,0.1-1.9,0.4c-1.2,0.6-2.1,1.7-2.5,2.9H1.9c-0.7,0-1.2,0.5-1.2,1.2v13.9c0,0.7,0.5,1.2,1.2,1.2h18.5
		c0.7,0,1.2-0.5,1.2-1.2V32.8C21.6,32.1,21.1,31.5,20.4,31.5z M6.6,34v11.4H3.1V34H6.6z M9.3,31.5H5.7c0.4-0.6,1-0.9,1.8-0.9
		C8.2,30.6,8.9,31,9.3,31.5z M13.3,34v11.4H9V34H13.3z M16.8,31.5h-3.5c0.4-0.6,1-0.9,1.8-0.9C15.8,30.6,16.4,31,16.8,31.5z
		 M19.2,34v11.4h-3.4V34H19.2z"/>
	<path class="st0" d="M16.2,23.3L16.2,23.3C15.4,24,15,25,15,26l0,0.4h2.4l0-0.4c0-0.4,0.2-0.8,0.5-1.1l0,0c0.7-0.7,1.2-1.7,1.2-2.8
		c0-1-0.4-2-1.1-2.8l0,0c-0.3-0.3-0.5-0.6-0.5-1c0-0.4,0.1-0.8,0.4-1.1l0,0c0,0,0.1-0.1,0.1-0.1c0.7-0.7,1.2-1.7,1.2-2.8l0-0.4h-2.4
		v0.4c0,0.4-0.2,0.8-0.5,1.1l0,0c-0.7,0.7-1.2,1.7-1.2,2.8c0,1,0.4,2,1.1,2.8l0,0c0.6,0.5,0.7,1.5,0.1,2.1
		C16.2,23.2,16.2,23.2,16.2,23.3z"/>
	<path class="st0" d="M10.3,23.3C9.5,24,9.1,25,9.1,26l0,0.4h2.4l0-0.4c0-0.4,0.2-0.8,0.5-1.1l0,0c0.7-0.7,1.2-1.7,1.2-2.8
		c0-1-0.4-2-1.1-2.8l0,0c-0.6-0.6-0.7-1.5-0.1-2.1c0,0,0.1-0.1,0.1-0.1l0,0c0.7-0.7,1.2-1.7,1.2-2.8l0-0.4h-2.4v0.4
		c0,0.4-0.2,0.8-0.5,1.1l0,0c-0.7,0.7-1.2,1.7-1.2,2.8c0,1,0.4,2,1.1,2.8l0,0c0.3,0.3,0.5,0.6,0.5,1c0,0.4-0.1,0.8-0.4,1.1
		C10.4,23.2,10.3,23.2,10.3,23.3z"/>
	<path class="st0" d="M51.2,26.2c-0.2-0.7-0.6-1.3-1.1-1.7l-8.9-6.2c0.9-0.9,1.4-2.1,1.4-3.4c0.1-1.4-0.5-2.8-1.4-3.9
		c-1-1.1-2.5-1.7-4-1.7c-1.4,0-2.7,0.5-3.7,1.4c-2.1,1.9-2.3,5.1-0.6,7.3l-9.5,6.3c-0.4,0.3-0.7,0.6-1,1.1c-0.5,1-0.4,2.2,0.2,3
		c0.5,0.7,1.4,1.2,2.3,1.2c0.6,0,1.1-0.2,1.6-0.5l4.4-2.9v17.9c0,2,1.7,3.7,3.7,3.7h0c0.9,0,1.8-0.4,2.5-1c0.7,0.6,1.6,1,2.5,1
		c0,0,0,0,0,0c0.9,0,1.8-0.3,2.4-0.9c0.8-0.7,1.3-1.7,1.3-2.8V26.4L47,29c0.5,0.4,1,0.5,1.6,0.5c0.9,0,1.6-0.4,2.2-1.1
		C51.2,27.8,51.4,27,51.2,26.2z M41.3,23.2c-0.2,0.2-0.2,0.5-0.2,0.7v6.6c-0.4-0.2-0.9-0.2-1.3-0.2c-0.9,0-1.8,0.4-2.5,1
		c-0.7-0.6-1.6-1-2.5-1c-0.4,0-0.9,0.1-1.3,0.2v-6.6c0-0.7-0.5-1.2-1.2-1.2c-0.2,0-0.5,0.1-0.7,0.2l-6.3,4.2
		c-0.2,0.1-0.5,0.1-0.6-0.1c-0.1-0.1-0.1-0.2-0.1-0.3c0-0.1,0.1-0.2,0.2-0.3l9.4-6.3h5.3l9.3,6.5c0.1,0.1,0.2,0.3,0.1,0.4
		c0,0.1-0.1,0.1-0.2,0.1c-0.1,0-0.1,0-0.1,0L43,23c-0.2-0.2-0.5-0.2-0.7-0.2C41.8,22.7,41.5,22.9,41.3,23.2z M38,17.6
		c-0.3,0.1-0.5,0.1-0.8,0.1c-1.3,0-2.5-0.9-2.9-2.2c-0.1-0.5-0.1-1.1,0-1.6l0-0.1c0.3-0.9,1.1-1.7,2-2c0.3-0.1,0.5-0.1,0.8-0.1
		c1.3,0,2.5,0.9,2.9,2.2c0.1,0.5,0.1,1.1,0,1.6C39.8,16.5,39,17.3,38,17.6z M34.7,45.8l0-0.4l0,0c-0.7,0-1.3-0.6-1.3-1.3l0-10.1
		c0-0.7,0.6-1.3,1.3-1.3h0c0.7,0,1.3,0.6,1.3,1.3v10.1c0,0.7-0.6,1.3-1.3,1.3L34.7,45.8L34.7,45.8z M38.4,44.1l0-10.1
		c0-0.7,0.6-1.3,1.3-1.3v0h0c0.7,0,1.3,0.6,1.3,1.3v10.1c0,0.7-0.6,1.3-1.3,1.3l0,0C39,45.4,38.4,44.8,38.4,44.1z"/>
	<path class="st0" d="M4.4,23.3C3.6,24,3.2,25,3.2,26l0,0.4h2.4l0-0.4c0-0.4,0.2-0.8,0.5-1.1l0,0c0.7-0.7,1.2-1.7,1.2-2.8
		c0-1-0.4-2-1.1-2.8l0,0c-0.6-0.6-0.7-1.5-0.1-2.1c0,0,0.1-0.1,0.1-0.1l0,0c0.7-0.7,1.2-1.7,1.2-2.8l0-0.4H4.9v0.4
		c0,0.4-0.2,0.8-0.5,1.1l0,0c-0.7,0.7-1.2,1.7-1.2,2.8c0,1,0.4,2,1.1,2.8l0,0c0.3,0.3,0.5,0.6,0.5,1c0,0.4-0.1,0.8-0.4,1.1
		C4.5,23.2,4.4,23.2,4.4,23.3z"/>
</g>
</svg>
