<?xml version="1.0" encoding="utf-8"?>
<!-- Generator: Adobe Illustrator 24.3.0, SVG Export Plug-In . SVG Version: 6.00 Build 0)  -->
<svg version="1.1" id="Layer_1" xmlns="http://www.w3.org/2000/svg" xmlns:xlink="http://www.w3.org/1999/xlink" x="0px" y="0px"
	 viewBox="0 0 52 49.1" style="enable-background:new 0 0 52 49.1;" xml:space="preserve">
<style type="text/css">
	.st0{fill:#DEAF69;}
</style>
<g>
	<path class="st0" d="M28.9,23.4l4.1-4.1c0.3,0.1,0.7,0.2,1.1,0.2c0.8,0,1.6-0.3,2.1-0.9c0.6-0.6,0.9-1.3,0.9-2.1
		c0-0.8-0.3-1.6-0.9-2.1c-0.6-0.6-1.3-0.9-2.1-0.9c-0.8,0-1.6,0.3-2.1,0.9c-0.6,0.6-0.9,1.3-0.9,2.1c0,0.4,0.1,0.8,0.2,1.2l-4.1,4.1
		L13.1,7.6c-0.5-0.5-1.2-0.5-1.7,0c-4.2,4.2-6.6,9.8-6.6,15.8S7.2,35,11.4,39.2c4.2,4.2,9.9,6.6,15.8,6.6c6,0,11.6-2.3,15.8-6.6
		c0.5-0.5,0.5-1.2,0-1.7L28.9,23.4z M33.7,16c0.1-0.1,0.3-0.2,0.4-0.2c0.2,0,0.3,0.1,0.4,0.2c0.1,0.1,0.2,0.3,0.2,0.4
		c0,0.2-0.1,0.3-0.2,0.4c-0.2,0.2-0.7,0.2-0.9,0c-0.1-0.1-0.2-0.3-0.2-0.4S33.6,16.1,33.7,16L33.7,16z M27.2,43.3
		c-5.3,0-10.4-2.1-14.1-5.8c-3.8-3.8-5.8-8.8-5.8-14.1c0-4.9,1.8-9.6,5-13.2l28.2,28.2C36.8,41.6,32.2,43.3,27.2,43.3L27.2,43.3z
		 M47.2,15.8c0.1,0.7-0.4,1.3-1.1,1.3H46c-0.6,0-1.1-0.5-1.2-1.1c-0.4-3.6-2.5-6.8-5.6-8.5c-1.5-0.8-3.2-1.3-4.9-1.3
		c-0.7,0-1.2-0.6-1.2-1.2c0-0.7,0.6-1.2,1.2-1.2c2.1,0,4.1,0.6,6,1.6C44.1,7.4,46.7,11.3,47.2,15.8L47.2,15.8z M32.4,9.1
		c0-0.7,0.6-1.2,1.2-1.2c1.5,0,2.9,0.4,4.2,1.1c2.8,1.5,4.6,4.3,4.9,7.4c0.1,0.7-0.4,1.3-1.1,1.3h-0.1c-0.6,0-1.1-0.5-1.2-1.1
		c-0.2-2.3-1.6-4.4-3.7-5.5c-1-0.5-2.1-0.8-3.2-0.8C32.9,10.3,32.4,9.8,32.4,9.1L32.4,9.1z"/>
</g>
</svg>
