<?xml version="1.0" encoding="utf-8"?>
<!-- Generator: Adobe Illustrator 16.0.0, SVG Export Plug-In . SVG Version: 6.00 Build 0)  -->
<!DOCTYPE svg PUBLIC "-//W3C//DTD SVG 1.1//EN" "http://www.w3.org/Graphics/SVG/1.1/DTD/svg11.dtd">
<svg version="1.1" id="Layer_1" xmlns="http://www.w3.org/2000/svg" xmlns:xlink="http://www.w3.org/1999/xlink" x="0px" y="0px"
	 width="400px" height="400px" viewBox="0 0 400 400" enable-background="new 0 0 400 400" xml:space="preserve">
<g>
	<path fill="#DEAF69" d="M29.72,291.384c-4.142,0-7.5-3.357-7.5-7.5V30.341c0-4.142,3.358-7.5,7.5-7.5h340.562
		c4.143,0,7.5,3.358,7.5,7.5V283.87c0,4.143-3.357,7.5-7.5,7.5h-125.28c-4.143,0-7.5-3.357-7.5-7.5s3.357-7.5,7.5-7.5h117.78V37.841
		H37.22v246.043C37.22,288.026,33.862,291.384,29.72,291.384z"/>
	<path fill="#DEAF69" d="M240.099,377.155H29.72c-4.142,0-7.5-3.357-7.5-7.5v-28.244c0-4.143,3.358-7.5,7.5-7.5s7.5,3.357,7.5,7.5
		v20.744h202.879c4.143,0,7.5,3.357,7.5,7.5S244.241,377.155,240.099,377.155z"/>
	<path fill="#DEAF69" d="M370.279,131.638H188.94c-4.142,0-7.5-3.358-7.5-7.5s3.358-7.5,7.5-7.5h181.339c4.143,0,7.5,3.358,7.5,7.5
		S374.422,131.638,370.279,131.638z"/>
	<path fill="#DEAF69" d="M188.939,196.815c-4.142,0-7.5-3.358-7.5-7.5v-65.178c0-4.142,3.358-7.5,7.5-7.5s7.5,3.358,7.5,7.5v65.178
		C196.439,193.458,193.082,196.815,188.939,196.815z"/>
	<path fill="#DEAF69" d="M188.939,291.368c-4.142,0-7.5-3.357-7.5-7.5V244.06c0-4.143,3.358-7.5,7.5-7.5s7.5,3.357,7.5,7.5v39.809
		C196.439,288.011,193.082,291.368,188.939,291.368z"/>
	<path fill="#DEAF69" d="M178.076,165.687h-46.419c-4.142,0-7.5-3.358-7.5-7.5s3.358-7.5,7.5-7.5h46.419c4.142,0,7.5,3.358,7.5,7.5
		S182.218,165.687,178.076,165.687z"/>
	<path fill="#DEAF69" d="M186.523,291.458H29.719c-4.142,0-7.5-3.357-7.5-7.5s3.358-7.5,7.5-7.5h156.805c4.142,0,7.5,3.357,7.5,7.5
		S190.666,291.458,186.523,291.458z"/>
	<path fill="#DEAF69" d="M241.582,377.159c-4.143,0-7.5-3.357-7.5-7.5v-86.107c0-4.143,3.357-7.5,7.5-7.5s7.5,3.357,7.5,7.5v86.107
		C249.082,373.802,245.725,377.159,241.582,377.159z"/>
	<path fill="#DEAF69" d="M76.141,165.687H29.722c-4.142,0-7.5-3.358-7.5-7.5s3.358-7.5,7.5-7.5h46.419c4.142,0,7.5,3.358,7.5,7.5
		S80.283,165.687,76.141,165.687z"/>
	<path fill="#DEAF69" d="M188.939,81.491c-4.142,0-7.5-3.358-7.5-7.5V34.183c0-4.142,3.358-7.5,7.5-7.5s7.5,3.358,7.5,7.5v39.809
		C196.439,78.133,193.082,81.491,188.939,81.491z"/>
</g>
</svg>
