<?xml version="1.0" encoding="utf-8"?>
<!-- Generator: Adobe Illustrator 16.0.0, SVG Export Plug-In . SVG Version: 6.00 Build 0)  -->
<!DOCTYPE svg PUBLIC "-//W3C//DTD SVG 1.1//EN" "http://www.w3.org/Graphics/SVG/1.1/DTD/svg11.dtd">
<svg version="1.1" id="Layer_1" xmlns="http://www.w3.org/2000/svg" xmlns:xlink="http://www.w3.org/1999/xlink" x="0px" y="0px"
	 width="40px" height="40px" viewBox="236 236 40 40" enable-background="new 236 236 40 40" xml:space="preserve">
<g id="_x30_06---Hiking" transform="translate(-1)">
	<path id="Shape" fill="#DEAF69" d="M262.333,244c2.209,0,4-1.791,4-4s-1.791-4-4-4s-4,1.791-4,4
		C258.335,242.208,260.125,243.998,262.333,244z M262.333,237.333c1.473,0,2.667,1.194,2.667,2.667s-1.194,2.667-2.667,2.667
		s-2.667-1.194-2.667-2.667S260.86,237.333,262.333,237.333z"/>
	<path id="Shape_1_" fill="#DEAF69" d="M238.333,276h37.334c0.463,0.001,0.894-0.239,1.137-0.633
		c0.243-0.395,0.264-0.887,0.056-1.301l-0.667-1.333c-0.226-0.451-0.688-0.735-1.192-0.733h-6v-17.456
		c0.797-0.28,1.33-1.033,1.33-1.877c0-0.844-0.533-1.597-1.33-1.877v-3.456c0-0.368-0.299-0.667-0.667-0.667
		s-0.667,0.299-0.667,0.667v3.333h-1.953c-0.223,0-0.431-0.111-0.555-0.296l-3.151-4.728c-1.014-1.522-2.98-2.087-4.646-1.333
		c-0.108-0.73-0.612-1.34-1.309-1.584l-3.781-1.313c-1.045-0.359-2.184,0.195-2.548,1.239l-0.657,1.887
		c-0.342-0.102-0.703,0.083-0.82,0.421c-0.117,0.337,0.053,0.707,0.384,0.838l-0.873,2.521c-0.341-0.098-0.698,0.088-0.814,0.422
		c-0.116,0.335,0.05,0.702,0.378,0.836c-0.646,1.863-0.859,2.221-0.733,2.905c-0.877,0.21-1.505,0.981-1.533,1.883
		c-0.028,0.901,0.551,1.71,1.414,1.974c4.515,1.571,4.754,1.777,5.586,1.518l-0.6,4.226c-0.067,0.459,0.214,0.107-4.863,6.95
		c-0.658,0.861-0.729,2.035-0.18,2.97H239c-0.505-0.002-0.967,0.282-1.193,0.733l-0.667,1.333c-0.208,0.414-0.188,0.906,0.056,1.301
		C237.439,275.761,237.87,276.001,238.333,276L238.333,276z M263.938,272c0.259-0.438,0.395-0.938,0.396-1.446v-6.62
		c0.001-0.979-0.357-1.925-1.008-2.656l-3.984-4.484c-0.158-0.177-0.207-0.425-0.129-0.649l1.22-3.658l0.562,0.786
		c0.626,0.875,1.636,1.394,2.712,1.395h3.961V272H263.938z M257.938,245.506c1.069-0.46,2.313-0.091,2.958,0.877l3.151,4.726
		c0.371,0.557,0.997,0.892,1.666,0.891h2.62c0.368,0,0.667,0.298,0.667,0.667s-0.299,0.667-0.667,0.667h-4.628
		c-0.646-0.001-1.251-0.313-1.627-0.837l-2.533-3.55c-0.135-0.204-0.37-0.318-0.613-0.297s-0.456,0.172-0.555,0.396
		c-0.098,0.224-0.066,0.483,0.084,0.676l1.016,1.423l-1.525,4.575c-0.231,0.679-0.078,1.429,0.4,1.963l3.98,4.48
		c0.433,0.488,0.67,1.118,0.668,1.771v6.62c0.02,0.728-0.514,1.352-1.234,1.446c-0.371,0.027-0.736-0.101-1.008-0.354
		c-0.271-0.254-0.426-0.608-0.425-0.979v-4.2c-0.003-0.899-0.307-1.771-0.862-2.478l-5.115-5.728
		c-0.654-0.844-0.861-1.952-0.556-2.975c2.505-7.907,2.533-7.463,2.544-7.53c0.306-0.903,0.498-1.775,1.597-2.251H257.938z
		 M254.013,250.482l-4.996-1.733l0.873-2.519l4.977,1.729L254.013,250.482z M250.981,243.083c0.123-0.347,0.502-0.531,0.851-0.414
		l3.78,1.313c0.345,0.122,0.527,0.5,0.408,0.845l-0.333,0.969c-0.153,0.259-0.276,0.536-0.367,0.823
		c-0.034,0.111,0.523,0.267-4.992-1.647L250.981,243.083z M251.242,256.575l-4.333-1.499c-0.349-0.104-0.567-0.451-0.509-0.81
		c0.047-0.182,0.167-0.337,0.332-0.427s0.36-0.108,0.539-0.05c0.681,0.237,0.721,0.271,0.925,0.248
		c2.053,0.845,1.993,0.841,2.175,0.841c0.318,0,0.593-0.225,0.655-0.537c0.062-0.313-0.106-0.625-0.401-0.747
		c-3.017-1.24-2.371-0.983-2.549-1.03c-0.174-0.175-0.232-0.434-0.15-0.667l0.653-1.887l5.004,1.733
		c-0.249,0.737-1.238,3.688-1.491,4.423c-0.121,0.347-0.5,0.53-0.847,0.41L251.242,256.575z M247.667,269.825l4.622-6.358
		c0.527-0.709,0.473-1.066,0.958-4.476c0.156,0.217-0.353-0.366,2.561,2.897l-0.341,1.955c-0.076,0.453,0.196,0.021-5.629,7.54
		c-0.311,0.461-0.873,0.685-1.416,0.562c-0.542-0.122-0.954-0.565-1.037-1.115C247.343,270.471,247.444,270.11,247.667,269.825
		L247.667,269.825z M256.267,265.239c0.411-0.619,0.644-1.34,0.673-2.083l1.505,1.685c0.361,0.465,0.557,1.037,0.556,1.626v4.2
		c0.002,0.469,0.13,0.93,0.369,1.333h-8.32L256.267,265.239z M238.333,274.667l0.667-1.334h36l0.667,1.334H238.333z"/>
</g>
</svg>
