<?xml version="1.0" encoding="utf-8"?>
<!-- Generator: Adobe Illustrator 16.0.0, SVG Export Plug-In . SVG Version: 6.00 Build 0)  -->
<!DOCTYPE svg PUBLIC "-//W3C//DTD SVG 1.1//EN" "http://www.w3.org/Graphics/SVG/1.1/DTD/svg11.dtd">
<svg version="1.1" id="Layer_1" xmlns="http://www.w3.org/2000/svg" xmlns:xlink="http://www.w3.org/1999/xlink" x="0px" y="0px"
	 width="400px" height="400px" viewBox="0 0 400 400" enable-background="new 0 0 400 400" xml:space="preserve">
<path fill="#DEAF69" d="M257.959,379.127c-6.13,0.001-12.178-1.458-17.164-4.383c-1.405-0.825-2.695-1.745-3.865-2.753
	c-1.175,1.1-2.507,2.096-3.985,2.968c-8.942,5.276-21.854,5.435-30.702,0.383c-1.198-0.685-2.3-1.446-3.3-2.279
	c-1.032,0.875-2.169,1.671-3.406,2.377c-8.63,4.928-21.074,4.858-29.586-0.166c-1.431-0.845-2.723-1.813-3.866-2.886
	c-1.086,0.913-2.269,1.749-3.544,2.499c-9.108,5.356-21.259,5.504-30.238,0.368c-1.867-1.068-3.54-2.339-5.001-3.781
	c-1.502,1.497-3.229,2.813-5.16,3.919c-8.744,5.002-20.436,4.938-29.093-0.153c-7.535-4.433-11.794-12.106-11.685-21.055
	l1.457-55.872l-13.899-2.839c-1.861-0.38-3.487-1.5-4.506-3.103s-1.343-3.551-0.897-5.397l18.499-76.707l-16.269,22.147
	c-7.669,10.449-17.464,14.395-26.872,10.815c-5.355-2.033-9.607-6.05-11.97-11.309c-2.365-5.261-2.544-11.109-0.505-16.469
	c0.153-0.403,0.344-0.792,0.569-1.16l44.176-72.304c6.557-15.421,33.217-20.938,56.225-20.938c0.002,0,0.001,0,0.004,0
	c23.555,0,50.846,5.624,57.37,21.355l9.05,16.317c2.762-0.833,5.663-1.353,8.653-1.517c0.005-0.03,0.011-0.061,0.016-0.09
	l4.95-27.183c3.663-20.12,50.048-23.548,69.82-24.088c13.054-0.356,78.521-0.878,84.463,23.976l20.198,84.459
	c2.411,6.878,0.82,14.909-4.21,21.081c-4.811,5.904-11.745,8.774-18.543,7.673c-6.015-0.972-14.422-5.386-20.318-20.896
	c-0.033-0.088-0.065-0.177-0.096-0.266l-3.553-10.619l0.662,71.367l0.851,70.726c0.094,8.739-4.13,16.055-11.893,20.609
	c-9.967,5.846-23.906,5.93-33.896,0.203c-1.955-1.12-3.688-2.419-5.188-3.872c-1.618,1.574-3.489,2.98-5.592,4.185
	C270.702,377.572,264.287,379.127,257.959,379.127z M170.029,358.894c0.101,1.28,0.661,2.92,3.039,4.323
	c4.24,2.504,11.206,2.533,15.528,0.064c3.003-1.714,3.35-3.852,3.35-5.311v-33.452c0-3.866,3.134-7,7-7s7,3.134,7,7v33.452
	c0,1.565,0.368,3.573,3.24,5.214c4.451,2.541,12.074,2.411,16.645-0.283c3.138-1.852,3.208-3.899,3.199-4.752l-0.078-2.045
	c-0.063-0.762-0.092-1.535-0.089-2.322l-1.107-28.996c-0.135-3.544,2.401-6.629,5.904-7.182l11.02-1.739l-23.049-54.178
	c-1.514-3.558,0.144-7.668,3.701-9.182c3.555-1.511,7.669,0.143,9.182,3.701l12.138,28.53c0.394,0.343,0.754,0.735,1.073,1.176
	c3.46,4.775,3.791,4.673,5.955,3.974c1.685-0.541,2.968-1.565,3.521-2.81c0.348-0.783,0.351-1.534,0.008-2.297
	c-0.037-0.082-0.072-0.165-0.106-0.249l-17.395-43.054c-1.949-3.946-17.04-9.349-40.673-9.351c-0.004,0-0.011,0-0.015,0
	c-22.973,0-37.677,5.247-39.666,9.105l-15.379,40.184c-0.034,0.09-0.069,0.179-0.106,0.268c-0.026,0.062-0.053,0.122-0.08,0.183
	c-0.332,0.756-0.325,1.5,0.021,2.276c0.553,1.242,1.835,2.265,3.517,2.807c0.002,0.001,0.004,0.002,0.007,0.002
	c1.966,0.634,2.926,0.768,3.331,0.79c0.215-0.233,0.631-0.754,1.273-1.845c0.424-0.722,0.958-1.339,1.568-1.844l10.951-27.872
	c1.413-3.599,5.478-5.369,9.075-3.956c3.598,1.414,5.369,5.478,3.956,9.075l-21.47,54.647l9.673,1.674
	c3.471,0.601,5.955,3.687,5.8,7.206l-1.215,27.563c0.116,0.492,0.18,1.004,0.187,1.531
	C170.481,355.627,170.334,357.289,170.029,358.894z M74.827,283.208l12.544,2.563c3.326,0.68,5.685,3.647,5.597,7.041l-1.608,61.641
	c-0.046,3.857,1.563,6.824,4.786,8.72c4.331,2.549,10.658,2.576,15.044,0.067c3.383-1.935,5.099-5.042,5.099-9.234v-55.913
	c0-3.866,3.134-7,7-7s7,3.134,7,7v55.913c0,4.211,1.624,7.188,4.964,9.098c4.614,2.64,11.422,2.519,16.189-0.283
	c2.375-1.397,3.915-3.265,4.603-5.575l1.186-26.879l-12.064-2.087c-2.073-0.358-3.875-1.631-4.907-3.465
	c-1.032-1.833-1.184-4.034-0.415-5.992l6.9-17.563c-1.165-0.233-2.386-0.558-3.675-0.972c-0.009-0.003-0.019-0.006-0.028-0.009
	c-5.47-1.759-9.853-5.565-12.024-10.442c-1.946-4.372-1.972-9.167-0.08-13.527l15.434-40.327c0.047-0.124,0.099-0.247,0.153-0.368
	c3.919-8.717,15.754-13.114,27.494-15.318c-6.585-6.704-10.652-15.891-10.652-26.008c0-11.75,5.486-22.243,14.029-29.053
	l-9.11-16.425c-0.162-0.292-0.303-0.595-0.421-0.907c-2.402-6.317-19.701-12.851-44.491-12.852
	c-24.178-0.001-41.06,6.399-43.414,12.587c-0.153,0.404-0.344,0.792-0.569,1.161l-44.08,72.147c-0.515,1.719-0.39,3.559,0.364,5.236
	c0.83,1.848,2.312,3.254,4.173,3.961c4.006,1.523,7.984-2.431,10.615-6.015l36.877-50.203c1.975-2.687,5.569-3.607,8.592-2.204
	c3.023,1.405,4.636,4.748,3.854,7.989L74.827,283.208z M242.926,355.188c0.333,3.27,1.963,5.727,4.953,7.48
	c5.728,3.36,15.076,3.208,21.286-0.348c3.585-2.052,5.506-4.824,5.72-8.248c-0.001-0.098-0.001-0.194-0.001-0.292l0.076-100.568
	c0.003-3.864,3.137-6.995,7-6.995c0.002,0,0.004,0,0.005,0c3.866,0.003,6.998,3.14,6.995,7.005l-0.075,99.664
	c0.014,0.181,0.021,0.363,0.021,0.547c0,0.268-0.005,0.534-0.014,0.8c0.127,3.39,1.756,5.938,4.97,7.779
	c5.564,3.188,14.284,3.133,19.851-0.133c3.389-1.987,5.017-4.727,4.978-8.374l-0.852-70.736l-1.072-115.654
	c-0.031-3.444,2.446-6.399,5.843-6.969c3.4-0.565,6.703,1.417,7.796,4.683l17.555,52.461c2.663,6.946,6.179,11.4,9.417,11.924
	c2.668,0.427,4.852-1.955,5.457-2.696c1.936-2.375,2.661-5.482,1.805-7.732c-0.106-0.28-0.195-0.568-0.265-0.86l-20.291-84.848
	c-1.271-5.313-25.557-14.289-69.419-13.264c-15.979,0.374-30.766,2.138-41.635,4.968c-12.565,3.271-15.691,6.874-15.841,7.66
	l-4.852,26.642c14.692,4.952,25.304,18.862,25.304,35.204c0,10.335-4.243,19.698-11.08,26.437
	c11.275,2.348,22.218,6.778,25.956,15.099c0.037,0.082,0.072,0.164,0.105,0.247l17.417,43.109c1.923,4.376,1.907,9.195-0.046,13.588
	c-2.171,4.88-6.554,8.688-12.026,10.448c-1.091,0.351-2.133,0.604-3.126,0.772l6.234,14.653c0.844,1.984,0.727,4.247-0.318,6.133
	c-1.046,1.887-2.901,3.186-5.032,3.521l-13.741,2.169l0.873,22.868c0.002,0.043,0.004,0.087,0.005,0.131L242.926,355.188z
	 M200.503,171.15c-12.757,0-23.136,10.379-23.136,23.137c0,12.758,10.379,23.137,23.136,23.137
	c12.758,0,23.137-10.379,23.137-23.137C223.64,181.529,213.261,171.15,200.503,171.15z M122.23,115.389
	c-22.129,0-40.132-18.004-40.132-40.133c0-14.397,7.776-27.762,20.295-34.89c6.135-3.604,13.153-5.508,20.299-5.508
	c22.128,0,40.131,18.003,40.131,40.133c0,14.398-7.779,27.765-20.304,34.898C136.381,113.487,129.367,115.389,122.23,115.389z
	 M122.692,48.857c-4.667,0-9.246,1.245-13.242,3.6c-0.033,0.019-0.066,0.038-0.099,0.057c-8.175,4.64-13.253,13.354-13.253,22.742
	c0,14.41,11.723,26.133,26.132,26.133c4.661,0,9.237-1.243,13.236-3.595c0.031-0.018,0.062-0.036,0.093-0.054
	c8.181-4.644,13.263-13.361,13.263-22.75C148.823,60.58,137.101,48.857,122.692,48.857z M279.002,101.425
	c-22.128,0-40.131-18.003-40.131-40.132c0-14.396,7.773-27.761,20.293-34.892c6.133-3.603,13.15-5.506,20.297-5.506
	c22.129,0,40.133,18.004,40.133,40.133c0,14.4-7.779,27.766-20.305,34.896C293.155,99.523,286.142,101.425,279.002,101.425z
	 M279.461,34.894c-4.668,0-9.246,1.244-13.239,3.598c-0.033,0.019-0.065,0.038-0.098,0.056
	c-8.175,4.642-13.253,13.357-13.253,22.745c0,14.41,11.723,26.132,26.131,26.132c4.662,0,9.239-1.243,13.234-3.595
	c0.032-0.019,0.064-0.038,0.097-0.056c8.18-4.641,13.261-13.357,13.261-22.747C305.594,46.617,293.871,34.894,279.461,34.894z"/>
</svg>
