<?xml version="1.0" encoding="utf-8"?>
<!-- Generator: Adobe Illustrator 16.0.0, SVG Export Plug-In . SVG Version: 6.00 Build 0)  -->
<!DOCTYPE svg PUBLIC "-//W3C//DTD SVG 1.1//EN" "http://www.w3.org/Graphics/SVG/1.1/DTD/svg11.dtd">
<svg version="1.1" id="Layer_1" xmlns="http://www.w3.org/2000/svg" xmlns:xlink="http://www.w3.org/1999/xlink" x="0px" y="0px"
	 width="40px" height="40px" viewBox="236 236 40 40" enable-background="new 236 236 40 40" xml:space="preserve">
<g>
	<path fill="#DEAF69" d="M253.564,264.142c0,0.323,0.263,0.586,0.586,0.586c0.323,0,0.586-0.263,0.586-0.586
		s-0.263-0.586-0.586-0.586C253.827,263.556,253.564,263.818,253.564,264.142z"/>
	<path fill="#DEAF69" d="M248.853,256.229c1.599-0.996,3.431-1.521,5.297-1.521c1.866,0,3.698,0.526,5.297,1.521
		c0.097,0.06,0.204,0.088,0.31,0.088c0.195,0,0.387-0.098,0.498-0.277c0.171-0.274,0.087-0.636-0.188-0.807
		c-1.785-1.111-3.831-1.698-5.917-1.698c-2.085,0-4.131,0.587-5.917,1.698c-0.274,0.171-0.359,0.532-0.188,0.807
		S248.578,256.399,248.853,256.229z"/>
	<path fill="#DEAF69" d="M258.02,258.922c0.199,0,0.393-0.101,0.502-0.283c0.168-0.277,0.079-0.637-0.198-0.805
		c-1.266-0.764-2.708-1.168-4.173-1.168c-1.464,0-2.907,0.404-4.173,1.168c-0.277,0.168-0.366,0.527-0.199,0.805
		c0.167,0.277,0.527,0.366,0.805,0.199c1.083-0.654,2.316-1,3.567-1c1.251,0,2.485,0.346,3.568,1
		C257.813,258.895,257.917,258.922,258.02,258.922z"/>
	<path fill="#DEAF69" d="M256.277,261.535c0.206,0,0.404-0.107,0.512-0.299c0.158-0.283,0.058-0.64-0.225-0.798
		c-0.759-0.425-1.571-0.641-2.414-0.641s-1.655,0.216-2.414,0.641c-0.283,0.158-0.383,0.515-0.225,0.798
		c0.158,0.282,0.515,0.383,0.797,0.225c0.583-0.326,1.202-0.491,1.842-0.491c0.64,0,1.259,0.165,1.841,0.491
		C256.083,261.512,256.181,261.535,256.277,261.535z"/>
	<path fill="#DEAF69" d="M273.204,267.896c-0.28-0.162-0.639-0.067-0.801,0.213s-0.067,0.639,0.213,0.801
		c0.979,0.566,1.586,1.619,1.586,2.747c0,1.749-1.423,3.172-3.172,3.172s-3.172-1.423-3.172-3.172c0-1.364,0.854-2.543,2.099-2.986
		l0.218,1.359c-0.584,0.309-0.983,0.922-0.983,1.627c0,1.014,0.825,1.839,1.839,1.839s1.838-0.825,1.838-1.839
		c0-0.911-0.666-1.669-1.536-1.813l-0.619-3.854c0.104-0.006,0.211-0.01,0.317-0.01c0.582,0,1.155,0.088,1.705,0.261
		c0.309,0.097,0.637-0.074,0.734-0.384c0.097-0.308-0.074-0.637-0.383-0.734c-0.664-0.208-1.355-0.314-2.057-0.314
		c-0.17,0-0.338,0.007-0.505,0.019l-4.384-27.279c-0.145-0.896-0.907-1.547-1.815-1.547h-2.69c-1.014,0-1.838,0.825-1.838,1.838
		s0.825,1.838,1.838,1.838h3.661l1.321,8.222h-0.348c-0.539,0-1.049,0.235-1.399,0.646c-0.35,0.411-0.501,0.952-0.416,1.484
		l2.583,16.066c-1.248,0.897-2.183,2.204-2.606,3.723h-0.916c-0.324,0-0.586,0.262-0.586,0.586c0,0.323,0.262,0.586,0.586,0.586
		h0.666v0.666c0,0.368-0.299,0.667-0.667,0.667h-20.832c0.081-0.207,0.125-0.432,0.125-0.667c0-0.234-0.045-0.459-0.125-0.666
		h18.327c0.324,0,0.586-0.263,0.586-0.586c0-0.324-0.262-0.586-0.586-0.586h-13.443c-0.815-2.931-3.516-5.011-6.597-5.011
		c-1.204,0-2.389,0.317-3.425,0.917c-0.28,0.162-0.375,0.521-0.213,0.801c0.162,0.28,0.52,0.376,0.8,0.214
		c0.858-0.497,1.84-0.76,2.838-0.76c2.443,0,4.598,1.577,5.372,3.839h-1.437c-0.708-1.514-2.239-2.505-3.935-2.505
		c-2.395,0-4.344,1.948-4.344,4.343c0,2.396,1.949,4.344,4.344,4.344c1.696,0,3.228-0.991,3.935-2.505h18.61
		c1.014,0,1.839-0.825,1.839-1.839c0-2.62,1.784-4.83,4.202-5.481l0.213,1.324c-1.815,0.546-3.082,2.214-3.082,4.157
		c0,2.396,1.948,4.344,4.344,4.344c2.395,0,4.344-1.948,4.344-4.344C275.374,270.111,274.542,268.67,273.204,267.896z
		 M261.636,237.172c0.368,0,0.667,0.299,0.667,0.667s-0.299,0.667-0.667,0.667c-0.367,0-0.666-0.299-0.666-0.667
		S261.269,237.172,261.636,237.172z M263.35,238.505c0.08-0.207,0.125-0.432,0.125-0.667s-0.045-0.459-0.125-0.667h0.977
		c0.329,0,0.606,0.236,0.658,0.561l0.124,0.772H263.35z M241.636,271.656c0,0.368-0.299,0.667-0.667,0.667
		c-0.368,0-0.667-0.3-0.667-0.667s0.299-0.666,0.667-0.666C241.337,270.99,241.636,271.289,241.636,271.656z M240.97,274.828
		c-1.749,0-3.172-1.423-3.172-3.172s1.423-3.172,3.172-3.172c1.042,0,1.999,0.513,2.584,1.334h-2.584
		c-1.014,0-1.838,0.824-1.838,1.838s0.824,1.839,1.838,1.839h2.584C242.969,274.315,242.011,274.828,240.97,274.828z
		 M268.122,265.457l-2.51-15.614c-0.031-0.196,0.022-0.387,0.151-0.538c0.128-0.151,0.309-0.234,0.507-0.234h0.536l2.562,15.941
		C268.936,265.12,268.519,265.271,268.122,265.457z M271.696,271.656c0,0.368-0.299,0.667-0.666,0.667
		c-0.368,0-0.667-0.3-0.667-0.667s0.299-0.666,0.667-0.666C271.397,270.99,271.696,271.289,271.696,271.656z"/>
</g>
</svg>
