<?xml version="1.0" encoding="utf-8"?>
<!-- Generator: Adobe Illustrator 16.0.0, SVG Export Plug-In . SVG Version: 6.00 Build 0)  -->
<!DOCTYPE svg PUBLIC "-//W3C//DTD SVG 1.1//EN" "http://www.w3.org/Graphics/SVG/1.1/DTD/svg11.dtd">
<svg version="1.1" id="Capa_1" xmlns="http://www.w3.org/2000/svg" xmlns:xlink="http://www.w3.org/1999/xlink" x="0px" y="0px"
	 width="40px" height="40px" viewBox="180 42 40 40" enable-background="new 180 42 40 40" xml:space="preserve">
<g>
	<g>
		<g>
			<path fill="#DEAF69" d="M206.861,57.92l-2.666-2.667c-0.374-0.376-0.884-0.587-1.415-0.586h-8.228
				c-0.531-0.001-1.041,0.209-1.415,0.586l-2.667,2.667c-0.781,0.781-0.781,2.047,0,2.829c0.375,0.375,0.884,0.585,1.415,0.585
				h13.561c1.104,0,2-0.895,2-2C207.447,58.804,207.237,58.295,206.861,57.92z M192.667,60.001h-0.78
				c-0.272,0.004-0.519-0.159-0.62-0.412c-0.107-0.249-0.049-0.538,0.145-0.727l1.255-1.253V60.001z M199.333,60.001H194v-3.724
				l0.081-0.081c0.125-0.126,0.295-0.196,0.472-0.196h4.78V60.001z M206.066,59.589c-0.101,0.251-0.345,0.415-0.616,0.412h-4.783v-4
				h2.113c0.178,0,0.348,0.07,0.473,0.196l2.666,2.667C206.114,59.051,206.173,59.34,206.066,59.589z"/>
		</g>
	</g>
	<g>
		<g>
			<path fill="#DEAF69" d="M216.666,60.001h-2.895c-0.53-0.002-1.038-0.212-1.414-0.586l-6.438-6.438
				c-0.623-0.627-1.472-0.979-2.357-0.977H202v-2c0-0.369-0.299-0.667-0.667-0.667h-2.667c-0.368,0-0.667,0.298-0.667,0.667v2
				h-4.229c-0.884-0.002-1.733,0.349-2.357,0.976l-6.438,6.438c-0.376,0.374-0.884,0.584-1.414,0.586h-0.229
				c-1.84,0.002-3.332,1.493-3.333,3.333v4c0.002,1.84,1.493,3.331,3.333,3.334h0.72c0.366,2.548,2.728,4.316,5.276,3.95
				c2.048-0.294,3.657-1.903,3.951-3.95h13.44c0.366,2.548,2.729,4.316,5.276,3.95c2.048-0.294,3.656-1.903,3.95-3.95h0.72
				c1.841-0.003,3.332-1.494,3.334-3.334v-4C219.998,61.494,218.507,60.003,216.666,60.001z M217.333,61.457
				c0.017,0.006,0.033,0.009,0.049,0.016c0.089,0.036,0.174,0.077,0.257,0.125c0.039,0.021,0.08,0.039,0.117,0.066
				c0.233,0.152,0.433,0.351,0.584,0.584c0.024,0.038,0.042,0.079,0.066,0.117c0.048,0.083,0.09,0.168,0.126,0.257
				c0.006,0.017,0.009,0.032,0.015,0.049h-1.214V61.457z M199.333,50.667h1.334V52h-1.334V50.667z M181.471,62.619
				c0.036-0.089,0.077-0.175,0.125-0.257c0.022-0.039,0.039-0.08,0.066-0.117c0.152-0.233,0.351-0.432,0.584-0.584
				c0.038-0.024,0.079-0.042,0.118-0.067c0.082-0.047,0.168-0.089,0.256-0.125c0.016-0.006,0.033-0.009,0.049-0.015v1.213h-1.213
				C181.462,62.651,181.465,62.634,181.471,62.619z M188.667,73.334c-1.841,0-3.333-1.492-3.333-3.333s1.492-3.334,3.333-3.334
				c1.841,0,3.333,1.493,3.333,3.334C191.998,71.841,190.507,73.332,188.667,73.334z M211.333,73.334
				c-1.841,0-3.333-1.492-3.333-3.333s1.492-3.334,3.333-3.334s3.334,1.493,3.334,3.334
				C214.664,71.841,213.174,73.332,211.333,73.334z M218.667,66.667h-1.334v1.334h1.211c-0.281,0.796-1.032,1.329-1.878,1.333
				h-0.714c-0.007-0.052-0.02-0.101-0.028-0.151c-0.011-0.066-0.022-0.127-0.036-0.189c-0.019-0.084-0.041-0.167-0.066-0.25
				c-0.017-0.059-0.032-0.118-0.051-0.177c-0.027-0.086-0.06-0.169-0.093-0.252c-0.021-0.053-0.038-0.106-0.061-0.157
				c-0.04-0.094-0.086-0.184-0.134-0.273c-0.02-0.039-0.037-0.079-0.058-0.117c-0.068-0.126-0.143-0.249-0.223-0.367
				c-0.02-0.029-0.042-0.057-0.063-0.086c-0.063-0.088-0.126-0.176-0.193-0.259c-0.035-0.043-0.072-0.082-0.107-0.123
				c-0.059-0.066-0.117-0.133-0.181-0.199c-0.041-0.043-0.085-0.082-0.128-0.123c-0.062-0.058-0.122-0.115-0.187-0.17
				c-0.047-0.039-0.096-0.077-0.145-0.115c-0.066-0.05-0.13-0.1-0.2-0.147c-0.051-0.035-0.104-0.069-0.156-0.104
				c-0.068-0.044-0.138-0.086-0.209-0.127c-0.055-0.031-0.11-0.062-0.167-0.091c-0.072-0.038-0.146-0.073-0.222-0.107
				c-0.057-0.026-0.114-0.052-0.173-0.075c-0.078-0.032-0.157-0.061-0.238-0.087c-0.058-0.021-0.116-0.041-0.175-0.059
				c-0.086-0.025-0.173-0.046-0.26-0.066c-0.057-0.014-0.112-0.029-0.171-0.04c-0.097-0.02-0.2-0.033-0.297-0.046
				c-0.049-0.006-0.098-0.016-0.147-0.021c-0.145-0.012-0.297-0.021-0.451-0.021c-0.153,0-0.307,0.009-0.456,0.023
				c-0.051,0.005-0.099,0.014-0.148,0.021c-0.099,0.013-0.2,0.026-0.296,0.046c-0.059,0.011-0.114,0.026-0.172,0.039
				c-0.088,0.021-0.174,0.042-0.259,0.067c-0.06,0.017-0.116,0.038-0.175,0.058c-0.081,0.027-0.16,0.057-0.239,0.088
				c-0.059,0.022-0.115,0.049-0.173,0.075c-0.075,0.034-0.149,0.066-0.222,0.107c-0.057,0.029-0.112,0.059-0.167,0.091
				c-0.07,0.041-0.14,0.083-0.208,0.127c-0.054,0.034-0.105,0.066-0.157,0.104c-0.066,0.048-0.133,0.097-0.199,0.147
				c-0.049,0.038-0.098,0.075-0.145,0.115c-0.066,0.055-0.126,0.112-0.187,0.17c-0.044,0.041-0.088,0.08-0.129,0.122
				c-0.063,0.067-0.121,0.134-0.18,0.2c-0.036,0.041-0.073,0.08-0.107,0.122c-0.066,0.083-0.134,0.171-0.194,0.26
				c-0.021,0.029-0.043,0.056-0.063,0.086c-0.079,0.118-0.153,0.24-0.223,0.366c-0.021,0.038-0.038,0.079-0.058,0.117
				c-0.046,0.09-0.092,0.181-0.134,0.273c-0.021,0.052-0.04,0.104-0.061,0.157c-0.032,0.084-0.066,0.167-0.093,0.252
				c-0.019,0.059-0.033,0.118-0.05,0.178c-0.024,0.083-0.046,0.164-0.067,0.249c-0.014,0.063-0.024,0.126-0.036,0.19
				c-0.008,0.051-0.021,0.1-0.028,0.151h-13.422c-0.007-0.052-0.02-0.101-0.029-0.151c-0.011-0.066-0.023-0.128-0.036-0.19
				c-0.019-0.084-0.041-0.166-0.066-0.249c-0.017-0.06-0.032-0.119-0.051-0.178c-0.028-0.085-0.06-0.168-0.093-0.252
				c-0.021-0.053-0.039-0.105-0.061-0.157c-0.04-0.093-0.086-0.184-0.133-0.273c-0.02-0.038-0.037-0.078-0.058-0.117
				c-0.069-0.126-0.143-0.248-0.223-0.366c-0.02-0.029-0.042-0.057-0.063-0.086c-0.063-0.088-0.126-0.176-0.194-0.26
				c-0.035-0.042-0.072-0.081-0.107-0.122c-0.059-0.066-0.117-0.133-0.18-0.2c-0.042-0.042-0.085-0.081-0.129-0.122
				c-0.061-0.059-0.122-0.115-0.187-0.17c-0.047-0.04-0.095-0.077-0.144-0.115c-0.067-0.051-0.13-0.1-0.2-0.147
				c-0.051-0.036-0.104-0.069-0.157-0.104c-0.068-0.045-0.138-0.087-0.208-0.127c-0.055-0.031-0.111-0.062-0.167-0.091
				c-0.073-0.038-0.147-0.073-0.222-0.107c-0.057-0.026-0.114-0.052-0.172-0.075c-0.079-0.032-0.158-0.061-0.239-0.088
				c-0.058-0.02-0.116-0.041-0.175-0.058c-0.085-0.025-0.172-0.046-0.259-0.067c-0.058-0.013-0.113-0.028-0.171-0.039
				c-0.097-0.02-0.2-0.033-0.297-0.046c-0.049-0.007-0.098-0.016-0.148-0.021c-0.144-0.015-0.296-0.023-0.451-0.023
				c-0.154,0-0.307,0.009-0.457,0.023c-0.05,0.005-0.099,0.014-0.148,0.021c-0.1,0.013-0.2,0.026-0.296,0.046
				c-0.059,0.011-0.114,0.026-0.171,0.039c-0.087,0.021-0.174,0.042-0.259,0.067c-0.06,0.017-0.117,0.038-0.175,0.058
				c-0.081,0.027-0.16,0.057-0.239,0.088c-0.059,0.022-0.115,0.049-0.173,0.075c-0.075,0.034-0.149,0.066-0.222,0.107
				c-0.056,0.029-0.112,0.059-0.167,0.091c-0.07,0.041-0.14,0.083-0.208,0.127c-0.053,0.034-0.105,0.066-0.157,0.104
				c-0.066,0.048-0.133,0.097-0.2,0.147c-0.048,0.038-0.097,0.075-0.144,0.115c-0.067,0.055-0.125,0.112-0.187,0.17
				c-0.043,0.041-0.087,0.08-0.128,0.122c-0.063,0.067-0.121,0.134-0.18,0.2c-0.036,0.041-0.073,0.08-0.107,0.122
				c-0.066,0.083-0.133,0.171-0.194,0.26c-0.021,0.029-0.043,0.056-0.063,0.086c-0.08,0.118-0.154,0.24-0.223,0.366
				c-0.021,0.038-0.038,0.079-0.058,0.117c-0.046,0.09-0.091,0.181-0.133,0.273c-0.022,0.052-0.041,0.104-0.061,0.157
				c-0.033,0.084-0.066,0.167-0.093,0.252c-0.019,0.059-0.034,0.118-0.051,0.178c-0.023,0.083-0.045,0.164-0.066,0.249
				c-0.014,0.063-0.024,0.126-0.036,0.19c-0.008,0.051-0.021,0.1-0.028,0.151h-0.708c-1.105,0-2-0.896-2-2v-3.336h2
				c0.368,0,0.667-0.299,0.667-0.667v-2.042c0.725-0.09,1.4-0.418,1.918-0.934l6.438-6.438c0.376-0.374,0.884-0.584,1.415-0.586
				h9.79c0.53,0.001,1.038,0.212,1.414,0.585l6.438,6.438c0.623,0.627,1.473,0.979,2.357,0.977H216v2
				c0,0.368,0.299,0.667,0.666,0.667h2.001V66.667z"/>
		</g>
	</g>
	<g>
		<g>
			<path fill="#DEAF69" d="M188.667,68.001c-1.104,0-2,0.896-2,2s0.896,2,2,2c1.105,0,2-0.896,2-2S189.771,68.001,188.667,68.001z
				 M188.667,70.668c-0.368,0-0.667-0.299-0.667-0.667s0.298-0.667,0.667-0.667s0.667,0.299,0.667,0.667
				S189.035,70.668,188.667,70.668z"/>
		</g>
	</g>
	<g>
		<g>
			<path fill="#DEAF69" d="M211.333,68.001c-1.104,0-2,0.896-2,2s0.896,2,2,2s2.001-0.896,2.001-2S212.438,68.001,211.333,68.001z
				 M211.333,70.668c-0.368,0-0.666-0.299-0.666-0.667s0.298-0.667,0.666-0.667S212,69.633,212,70.001
				S211.701,70.668,211.333,70.668z"/>
		</g>
	</g>
	<g>
		<g>
			<rect x="194.667" y="66.667" fill="#DEAF69" width="1.333" height="1.334"/>
		</g>
	</g>
	<g>
		<g>
			<rect x="196" y="65.334" fill="#DEAF69" width="1.333" height="1.333"/>
		</g>
	</g>
	<g>
		<g>
			<rect x="197.333" y="66.667" fill="#DEAF69" width="1.333" height="1.334"/>
		</g>
	</g>
	<g>
		<g>
			<rect x="198.667" y="65.334" fill="#DEAF69" width="1.333" height="1.333"/>
		</g>
	</g>
	<g>
		<g>
			<rect x="200" y="66.667" fill="#DEAF69" width="1.333" height="1.334"/>
		</g>
	</g>
	<g>
		<g>
			<rect x="201.333" y="65.334" fill="#DEAF69" width="1.334" height="1.333"/>
		</g>
	</g>
	<g>
		<g>
			<rect x="202.667" y="66.667" fill="#DEAF69" width="1.333" height="1.334"/>
		</g>
	</g>
	<g>
		<g>
			<rect x="204" y="65.334" fill="#DEAF69" width="1.333" height="1.333"/>
		</g>
	</g>
	<g>
		<g>
			<rect x="194.667" y="64.001" fill="#DEAF69" width="1.333" height="1.333"/>
		</g>
	</g>
	<g>
		<g>
			<rect x="197.333" y="64.001" fill="#DEAF69" width="1.333" height="1.333"/>
		</g>
	</g>
	<g>
		<g>
			<rect x="200" y="64.001" fill="#DEAF69" width="1.333" height="1.333"/>
		</g>
	</g>
	<g>
		<g>
			<rect x="202.667" y="64.001" fill="#DEAF69" width="1.333" height="1.333"/>
		</g>
	</g>
</g>
</svg>
