<?xml version="1.0" encoding="utf-8"?>
<!-- Generator: Adobe Illustrator 16.0.0, SVG Export Plug-In . SVG Version: 6.00 Build 0)  -->
<!DOCTYPE svg PUBLIC "-//W3C//DTD SVG 1.1//EN" "http://www.w3.org/Graphics/SVG/1.1/DTD/svg11.dtd">
<svg version="1.1" id="Layer_1" xmlns="http://www.w3.org/2000/svg" xmlns:xlink="http://www.w3.org/1999/xlink" x="0px" y="0px"
	 width="400px" height="400px" viewBox="0 0 400 400" enable-background="new 0 0 400 400" xml:space="preserve">
<g>
	<path fill="#DEAF69" d="M369.52,371.884h-47.897c-4.143,0-7.5-3.357-7.5-7.5v-30.482H85.891v30.482c0,4.143-3.358,7.5-7.5,7.5
		h-47.9c-4.142,0-7.5-3.357-7.5-7.5v-74.963c0-4.143,3.358-7.5,7.5-7.5s7.5,3.357,7.5,7.5v67.463h32.9v-30.482
		c0-4.143,3.358-7.5,7.5-7.5h243.231c4.143,0,7.5,3.357,7.5,7.5v30.482h32.897v-67.463c0-4.143,3.357-7.5,7.5-7.5s7.5,3.357,7.5,7.5
		v74.963C377.02,368.526,373.662,371.884,369.52,371.884z"/>
	<path fill="#DEAF69" d="M311.405,43.116H88.604c-4.142,0-7.5-3.358-7.5-7.5s3.358-7.5,7.5-7.5h222.802c4.143,0,7.5,3.358,7.5,7.5
		S315.548,43.116,311.405,43.116z"/>
	<path fill="#DEAF69" d="M333.165,65.817c-4.143,0-7.5-3.358-7.5-7.5c0-8.382-6.396-15.201-14.26-15.201c-4.143,0-7.5-3.358-7.5-7.5
		s3.357-7.5,7.5-7.5c16.134,0,29.26,13.548,29.26,30.201C340.665,62.459,337.308,65.817,333.165,65.817z"/>
	<path fill="#DEAF69" d="M333.165,168.065c-4.143,0-7.5-3.358-7.5-7.5V58.317c0-4.142,3.357-7.5,7.5-7.5s7.5,3.358,7.5,7.5v102.248
		C340.665,164.708,337.308,168.065,333.165,168.065z"/>
	<path fill="#DEAF69" d="M304.106,164.249c-4.143,0-7.5-3.358-7.5-7.5v-20.268c0-9.682-7.41-17.559-16.519-17.559h-54.443
		c-8.955,0-16.521,8.041-16.521,17.559v15.182c0,4.142-3.357,7.5-7.5,7.5c-4.142,0-7.5-3.358-7.5-7.5v-15.182
		c0-17.953,14.141-32.559,31.521-32.559h54.443c17.38,0,31.519,14.605,31.519,32.559v20.268
		C311.606,160.891,308.249,164.249,304.106,164.249z"/>
	<path fill="#DEAF69" d="M95.895,164.249c-4.142,0-7.5-3.358-7.5-7.5v-20.268c0-17.953,14.139-32.559,31.519-32.559h54.444
		c17.379,0,31.519,14.605,31.519,32.559v15.182c0,4.142-3.357,7.5-7.5,7.5c-4.142,0-7.5-3.358-7.5-7.5v-15.182
		c0-9.682-7.41-17.559-16.519-17.559h-54.444c-9.108,0-16.519,7.877-16.519,17.559v20.268
		C103.395,160.891,100.037,164.249,95.895,164.249z"/>
	<path fill="#DEAF69" d="M66.844,168.065c-4.142,0-7.5-3.358-7.5-7.5V58.317c0-4.142,3.358-7.5,7.5-7.5s7.5,3.358,7.5,7.5v102.248
		C74.344,164.708,70.986,168.065,66.844,168.065z"/>
	<path fill="#DEAF69" d="M66.844,65.817c-4.142,0-7.5-3.358-7.5-7.5c0-16.653,13.126-30.201,29.26-30.201c4.142,0,7.5,3.358,7.5,7.5
		s-3.358,7.5-7.5,7.5c-7.863,0-14.26,6.819-14.26,15.201C74.344,62.459,70.986,65.817,66.844,65.817z"/>
	<path fill="#DEAF69" d="M370.02,291.663c-0.007-0.001-0.015-0.001-0.02,0H30c-2.395,0-4.646-1.144-6.058-3.078
		c-1.412-1.934-1.815-4.426-1.086-6.707l36.502-114.104c0.853-2.666,3.119-4.635,5.877-5.107
		c38.944-6.671,89.454-10.345,142.226-10.345c53.124,0,101.125,3.904,128.404,10.444c2.563,0.615,4.615,2.529,5.405,5.043
		l35.717,113.573c0.344,0.859,0.533,1.798,0.533,2.78C377.521,288.306,374.162,291.663,370.02,291.663z M40.274,276.663h319.505
		l-31.523-100.24c-26.804-5.72-71.4-9.102-120.795-9.102c-49.936,0-97.714,3.325-135.211,9.384L40.274,276.663z"/>
</g>
</svg>
