<?xml version="1.0" encoding="utf-8"?>
<!-- Generator: Adobe Illustrator 16.0.0, SVG Export Plug-In . SVG Version: 6.00 Build 0)  -->
<!DOCTYPE svg PUBLIC "-//W3C//DTD SVG 1.1//EN" "http://www.w3.org/Graphics/SVG/1.1/DTD/svg11.dtd">
<svg version="1.1" id="Layer_1" xmlns="http://www.w3.org/2000/svg" xmlns:xlink="http://www.w3.org/1999/xlink" x="0px" y="0px"
	 width="400px" height="400px" viewBox="0 0 400 400" enable-background="new 0 0 400 400" xml:space="preserve">
<g>
	<path fill="#DEAF69" d="M264.115,357.25H135.884c-28.813,0-52.362-12.579-68.1-36.378c-13.765-20.813-21.04-49.257-21.04-82.255
		c0-4.142,3.357-7.5,7.5-7.5s7.5,3.358,7.5,7.5c0,30.047,6.416,55.629,18.552,73.981c13.012,19.676,31.714,29.651,55.589,29.651
		h128.231c23.876,0,42.579-9.976,55.591-29.65c12.137-18.353,18.552-43.936,18.552-73.982c0-4.142,3.358-7.5,7.5-7.5
		s7.5,3.358,7.5,7.5c0,32.999-7.276,61.442-21.041,82.256C316.479,344.671,292.93,357.25,264.115,357.25z"/>
	<path fill="#DEAF69" d="M366.727,244.197H33.273c-4.142,0-7.5-3.357-7.5-7.5s3.358-7.5,7.5-7.5h333.454c4.143,0,7.5,3.357,7.5,7.5
		S370.869,244.197,366.727,244.197z"/>
	<path fill="#DEAF69" d="M318.522,377.501c-2.583,0-5.097-1.336-6.489-3.729l-11.547-19.848c-2.083-3.58-0.869-8.171,2.711-10.254
		c3.579-2.084,8.171-0.869,10.254,2.711l11.547,19.848c2.083,3.58,0.869,8.171-2.711,10.254
		C321.101,377.173,319.803,377.501,318.522,377.501z"/>
	<path fill="#DEAF69" d="M81.481,377.501c-1.281,0-2.578-0.328-3.765-1.019c-3.581-2.083-4.794-6.674-2.711-10.254l11.547-19.848
		c2.083-3.58,6.675-4.795,10.254-2.711c3.581,2.083,4.794,6.674,2.711,10.254l-11.547,19.848
		C86.578,376.165,84.064,377.501,81.481,377.501z"/>
	<path fill="#DEAF69" d="M55.756,231.381c-4.143,0-7.5-3.357-7.5-7.5V72.418c0-27.525,22.394-49.918,49.918-49.918
		c27.525,0,49.919,22.394,49.919,49.918c0,4.142-3.358,7.5-7.5,7.5c-4.142,0-7.5-3.358-7.5-7.5
		c0-19.253-15.664-34.917-34.918-34.917c-19.253,0-34.917,15.664-34.917,34.917v151.463
		C63.257,228.023,59.898,231.381,55.756,231.381z"/>
	<path fill="#DEAF69" d="M117.199,132.99c-3.063,0-5.939-1.891-7.048-4.937c-3.862-10.611-4.349-21.877-1.371-31.722
		c3.243-10.719,10.163-18.49,19.485-21.883l24.049-8.754c9.322-3.393,19.619-1.887,28.992,4.241
		c8.609,5.627,15.478,14.57,19.34,25.182c1.417,3.892-0.59,8.196-4.483,9.613c-3.891,1.417-8.196-0.591-9.613-4.483
		c-2.721-7.475-7.623-13.947-13.451-17.756c-5.322-3.479-10.882-4.438-15.655-2.701l-24.049,8.754
		c-4.774,1.737-8.417,6.046-10.258,12.132c-2.016,6.664-1.612,14.772,1.108,22.247c1.417,3.892-0.59,8.196-4.482,9.613
		C118.917,132.844,118.051,132.99,117.199,132.99z"/>
	<path fill="#DEAF69" d="M106.393,139.299c-3.063,0-5.939-1.891-7.048-4.937c-1.417-3.892,0.59-8.196,4.483-9.613l98.77-35.947
		c3.895-1.42,8.196,0.592,9.613,4.483c1.416,3.892-0.591,8.196-4.482,9.613l-98.771,35.947
		C108.111,139.153,107.244,139.299,106.393,139.299z"/>
</g>
</svg>
