<?xml version="1.0" encoding="utf-8"?>
<!-- Generator: Adobe Illustrator 16.0.0, SVG Export Plug-In . SVG Version: 6.00 Build 0)  -->
<!DOCTYPE svg PUBLIC "-//W3C//DTD SVG 1.1//EN" "http://www.w3.org/Graphics/SVG/1.1/DTD/svg11.dtd">
<svg version="1.1" id="Layer_1" xmlns="http://www.w3.org/2000/svg" xmlns:xlink="http://www.w3.org/1999/xlink" x="0px" y="0px"
	 width="400px" height="400px" viewBox="0 0 400 400" enable-background="new 0 0 400 400" xml:space="preserve">
<g>
	<path fill="#DEAF69" d="M215.465,372.5H51.939l41.829-58.886V27.5h43.698v284.82L215.465,372.5z M80.994,357.5h90.474
		l-49.001-37.807V42.5h-13.698v275.899L80.994,357.5z"/>
	<polygon fill="#DEAF69" points="103.456,127.534 23.729,127.534 98.063,50.624 108.849,61.048 59.087,112.534 103.456,112.534 	"/>
	<polygon fill="#DEAF69" points="390.698,127.534 129.967,127.534 129.967,112.534 291.808,112.534 127.799,63.016 132.135,48.656 
		310.908,102.633 	"/>
	
		<rect x="147.204" y="60.562" transform="matrix(0.705 0.7092 -0.7092 0.705 113.3213 -81.5603)" fill="#DEAF69" width="15" height="69.761"/>
	
		<rect x="168.565" y="87.943" transform="matrix(0.6728 0.7398 -0.7398 0.6728 136.6454 -118.0715)" fill="#DEAF69" width="66.478" height="15"/>
	
		<rect x="230.849" y="86.954" transform="matrix(0.6894 0.7243 -0.7243 0.6894 151.1879 -139.5603)" fill="#DEAF69" width="15" height="39.16"/>
	<path fill="#DEAF69" d="M307.596,245.019v-20.935h-15.008v27.021c0,4.129,3.361,7.485,7.504,7.485c3.031,0,5.506,2.481,5.506,5.511
		c0,3.031-2.477,5.502-5.506,5.502c-2.061,0-5.504-0.48-5.504-3.751c0-4.139-3.363-7.502-7.49-7.502
		c-4.152,0-7.506,3.363-7.506,7.502c0,10.868,8.629,18.748,20.502,18.748c11.311,0,20.498-9.193,20.498-20.5
		C320.592,255.437,315.199,248.02,307.596,245.019z"/>
	<rect x="292.58" y="120.034" fill="#DEAF69" width="15" height="67.577"/>
	<path fill="#DEAF69" d="M300.83,228.094c-3.222,0-14.219-0.392-20.45-5.426c-5.152-4.163-6.596-11.881-6.898-17.622
		c-0.418-7.902,1.021-18.229,6.31-23.516c5.914-5.915,17.545-6.375,20.969-6.375c5.43,0,15.27,0.905,20.167,6.965
		c6.808,8.426,7.722,31.765-0.529,40.017C315.213,227.32,305.913,228.094,300.83,228.094z M289.93,211.089
		c1.12,0.746,5.194,2.005,10.9,2.005c5.126,0,8.178-1.029,8.958-1.572c2.3-3.104,1.999-16.451-0.427-19.839
		c-0.789-0.536-3.729-1.527-8.602-1.527c-5.514,0-9.406,1.273-10.361,1.989C288.005,195.201,287.698,208.021,289.93,211.089z"/>
</g>
</svg>
