<?xml version="1.0" encoding="utf-8"?>
<!-- Generator: Adobe Illustrator 16.0.0, SVG Export Plug-In . SVG Version: 6.00 Build 0)  -->
<!DOCTYPE svg PUBLIC "-//W3C//DTD SVG 1.1//EN" "http://www.w3.org/Graphics/SVG/1.1/DTD/svg11.dtd">
<svg version="1.1" id="Layer_2" xmlns="http://www.w3.org/2000/svg" xmlns:xlink="http://www.w3.org/1999/xlink" x="0px" y="0px"
	 width="400px" height="400px" viewBox="0 0 400 400" enable-background="new 0 0 400 400" xml:space="preserve">
<g>
	<rect x="11.716" y="365.824" fill="#DEAF69" width="378" height="14"/>
	<rect x="301.674" y="287.112" fill="#DEAF69" width="14" height="81.582"/>
	<path fill="#DEAF69" d="M308.674,294.112c-45.001,0-81.611-31.855-81.611-71.011c0-36.917,37.495-130.966,84.555-130.966
		c26.678,0,46.045,28.663,57.595,52.708c12.406,25.828,21.071,58.009,21.071,78.258
		C390.283,262.257,353.674,294.112,308.674,294.112z M311.617,106.136c-34.398,0-70.555,81.161-70.555,116.966
		c0,31.436,30.33,57.011,67.611,57.011c37.28,0,67.609-25.575,67.609-57.011c0-15.506-6.764-45.284-19.691-72.197
		C342.926,122.454,326.533,106.136,311.617,106.136z"/>
	<rect x="216.822" y="312.884" fill="#DEAF69" width="14" height="59.94"/>
	<path fill="#DEAF69" d="M274.17,281.38c-12.389,11.646-30.366,18.99-50.348,18.99c-37.296,0-67.639-25.547-67.639-56.949
		c0-31.419,30.343-56.98,67.639-56.98c5.475,0,10.794,0.565,15.895,1.605c1.717-4.422,3.858-8.673,5.568-13.097
		c-6.844-1.625-14.035-2.509-21.463-2.509c-45.016,0-81.639,31.842-81.639,70.98c0,39.121,36.623,70.949,81.639,70.949
		c26.206,0,49.55-10.806,64.491-27.547C283.538,285.176,278.858,283.271,274.17,281.38z"/>
	<path fill="#DEAF69" d="M95.592,162.108c-27.379,0-49.654-22.274-49.654-49.653c0-27.379,22.274-49.654,49.654-49.654
		s49.654,22.275,49.654,49.654C145.246,139.834,122.971,162.108,95.592,162.108z M95.592,76.801
		c-19.66,0-35.654,15.995-35.654,35.654c0,19.659,15.994,35.653,35.654,35.653s35.654-15.994,35.654-35.653
		C131.246,92.795,115.251,76.801,95.592,76.801z"/>
	<rect x="88.592" y="155.108" fill="#DEAF69" width="14" height="42.654"/>
	<rect x="88.592" y="27.176" fill="#DEAF69" width="14" height="42.625"/>
	<rect x="138.246" y="105.455" fill="#DEAF69" width="42.624" height="14"/>
	<rect x="10.284" y="105.455" fill="#DEAF69" width="42.654" height="14"/>
	
		<rect x="133.737" y="44.611" transform="matrix(0.7075 0.7068 -0.7068 0.7075 87.7722 -80.1776)" fill="#DEAF69" width="14" height="42.648"/>
	
		<rect x="43.246" y="136.469" transform="matrix(0.7071 0.7071 -0.7071 0.7071 126.3033 10.6919)" fill="#DEAF69" width="14" height="42.667"/>
	
		<rect x="28.922" y="60.124" transform="matrix(0.7075 0.7068 -0.7068 0.7075 62.1386 -15.8753)" fill="#DEAF69" width="42.648" height="14"/>
	
		<rect x="120.59" y="149.297" transform="matrix(0.7071 0.7071 -0.7071 0.7071 152.0876 -54.5772)" fill="#DEAF69" width="42.668" height="14"/>
</g>
</svg>
