<?xml version="1.0" encoding="utf-8"?>
<!-- Generator: Adobe Illustrator 16.0.0, SVG Export Plug-In . SVG Version: 6.00 Build 0)  -->
<!DOCTYPE svg PUBLIC "-//W3C//DTD SVG 1.1//EN" "http://www.w3.org/Graphics/SVG/1.1/DTD/svg11.dtd">
<svg version="1.1" id="Layer_1" xmlns="http://www.w3.org/2000/svg" xmlns:xlink="http://www.w3.org/1999/xlink" x="0px" y="0px"
	 width="400px" height="124px" viewBox="0 0 400 124" enable-background="new 0 0 400 124" xml:space="preserve">
<g>
	<path fill="#FFFFFF" d="M57.129,0.037h-5.131c-0.981,0-1.244,0.358-1.775,1.803l-20.95,70.446c0,0-0.02,0.038-0.038,0.073
		c-0.002,0.002-0.003,0.005-0.005,0.008c0,0-0.022-0.029-0.043-0.057c-0.003-0.023-0.008-0.047-0.015-0.068L8.244,1.814
		c-0.414-1.512-0.9-1.778-1.768-1.778H1.472c-0.657,0-0.972,0.11-1.122,0.203C0.302,0.271,0.258,0.311,0.223,0.356
		C0.14,0.47,0,0.769,0,1.502v89.465c0,0.732,0.14,1.031,0.267,1.193c0.174,0.176,0.602,0.271,1.205,0.271h6.21
		c0.711,0,1.021-0.125,1.08-0.182c0.096-0.048,0.388-0.191,0.388-1.283L9.097,31.459l17.62,59.348
		c0.361,1.442,0.601,1.625,2.139,1.625h0.762c1.537,0,1.779-0.188,2.153-1.678L49.45,31.542l-0.003,59.424
		c0,0.734,0.141,1.034,0.226,1.146c0.026,0.035,0.056,0.064,0.09,0.092c0.115,0.085,0.415,0.227,1.152,0.227h6.214
		c0.6,0,1.025-0.093,1.244-0.316c0.083-0.113,0.224-0.412,0.224-1.146V1.502c0-0.736-0.141-1.035-0.184-1.08
		C58.366,0.327,58.219,0.037,57.129,0.037z"/>
	<path fill="#FFFFFF" d="M96.62,0C83.036,0,75.246,9.192,75.246,25.221v42.028c0,16.028,7.79,25.222,21.374,25.222
		c13.585,0,21.374-9.193,21.374-25.222V25.221C117.994,9.192,110.205,0,96.62,0z M84.396,25.221
		c0-10.241,4.797-16.858,12.224-16.858c7.423,0,12.221,6.617,12.221,16.858v42.028c0,12.429-6.313,16.858-12.221,16.858
		c-5.909,0-12.224-4.431-12.224-16.858V25.221z"/>
	<path fill="#FFFFFF" d="M166.565,115.932c-0.175-0.082-0.484-0.16-1.044-0.16h-21.839c-0.084,0-0.149-0.064-0.149-0.147V1.713
		c0-0.71-0.124-1.019-0.228-1.154c-0.03-0.038-0.065-0.072-0.106-0.099c-0.206-0.139-0.598-0.212-1.135-0.212h-6.214
		c-0.711,0-1.021,0.124-1.082,0.182c-0.095,0.047-0.386,0.193-0.386,1.283v120.544c0,0.944,0.212,1.228,0.423,1.304
		c0.175,0.084,0.485,0.162,1.045,0.162h29.671c0.711,0,1.021-0.125,1.081-0.184c0.096-0.048,0.387-0.193,0.387-1.282v-5.021
		C166.989,116.291,166.777,116.009,166.565,115.932z"/>
	<path fill="#FFFFFF" d="M282.796,31.636c-0.136-0.104-0.446-0.229-1.157-0.229h-6.084c-0.718,0-1.027,0.126-1.082,0.183
		c-0.097,0.048-0.39,0.192-0.39,1.28l0.013,66.774c-0.015-0.029-0.033-0.054-0.055-0.076l-27.877-66.281
		c-0.641-1.707-1.031-1.88-2.434-1.88h-4.688c-0.713,0-1.022,0.123-1.159,0.227c-0.031,0.023-0.059,0.051-0.083,0.083
		c-0.104,0.135-0.229,0.446-0.229,1.153v89.466c0,0.711,0.125,1.02,0.229,1.154c0.028,0.037,0.063,0.068,0.103,0.096
		c0.207,0.141,0.601,0.215,1.141,0.215h6.21c0.769,0,1.075-0.144,1.237-0.309c0.105-0.135,0.23-0.445,0.23-1.156l-0.013-66.794
		c0.015,0.027,0.033,0.053,0.056,0.075l27.728,66.242c0.771,1.75,1.181,1.941,2.458,1.941h4.689c0.769,0,1.074-0.144,1.236-0.309
		c0.105-0.135,0.23-0.445,0.23-1.156V32.87c0-0.708-0.123-1.017-0.228-1.152C282.855,31.688,282.828,31.659,282.796,31.636z"/>
	<path fill="#FFFFFF" d="M341.605,72.742c-0.037-0.133-0.135-0.241-0.263-0.293c-0.142-0.059-0.431-0.127-1.006-0.127h-17.369
		c-0.411,0-0.653,0.033-0.78,0.054c-0.035,0-0.067,0.001-0.104,0.008c-0.148,0.028-0.271,0.128-0.332,0.267
		c-0.059,0.14-0.129,0.427-0.129,1.012v5.175c0,0.399,0.031,0.64,0.055,0.793c0,0.041,0.006,0.083,0.016,0.123
		c0.037,0.134,0.134,0.24,0.261,0.294c0.14,0.061,0.429,0.13,1.057,0.13h9.876c0.084,0,0.149,0.064,0.149,0.146v20.1
		c0,10.511-6.14,15.214-12.224,15.214c-7.502,0-12.349-6.615-12.349-16.857v-42.03c0-10.398,4.729-16.858,12.349-16.858
		c6.021,0,10.502,4.343,11.695,11.338c0.041,0.227,0.081,0.371,0.111,0.457c0.053,0.164,0.193,0.282,0.363,0.307
		c0.097,0.014,0.256,0.029,0.51,0.029l7.252-0.016c0.236-0.001,0.434-0.184,0.447-0.419c0.01-0.12,0.014-0.31-0.018-0.574
		c-0.77-12.017-8.621-19.482-20.49-19.482c-13.584,0-21.375,9.191-21.375,25.219v42.027c0,16.029,7.791,25.224,21.375,25.224
		c13.146,0,20.994-8.625,20.994-23.073V73.661c0-0.397-0.033-0.638-0.056-0.794C341.624,72.826,341.618,72.783,341.605,72.742z"/>
	<path fill="#FFFFFF" d="M378.626,31.53c-13.585,0-21.375,9.191-21.375,25.219v42.028c0,16.029,7.79,25.223,21.375,25.223
		C392.21,124,400,114.807,400,98.777V56.749C400,40.722,392.21,31.53,378.626,31.53z M366.4,98.777V56.749
		c0-10.242,4.799-16.858,12.226-16.858c7.423,0,12.22,6.617,12.22,16.858v42.028c0,10.875-4.832,15.625-9.998,16.645
		c-0.738,0.145-1.483,0.214-2.222,0.214c-0.739,0-1.483-0.069-2.222-0.214C371.236,114.402,366.4,109.652,366.4,98.777z"/>
	<path fill="#FFFFFF" d="M200.009,0c-13.584,0-21.374,9.192-21.374,25.221v42.028c0,11.177,3.765,19.071,10.887,22.829
		c3.006,1.587,6.533,2.393,10.487,2.393c2.325,0,4.554-0.295,6.615-0.875c0.194-0.054,0.329-0.23,0.329-0.433v-7.79
		c0-0.502-0.407-0.91-0.91-0.91c-0.088,0-0.193,0.032-0.339,0.098c-0.009,0.004-0.021-0.002-0.028,0.002
		c-0.021,0.013-0.047,0.029-0.07,0.041c-0.002,0.002-0.002,0.002-0.004,0.004l-0.127,0.072c-0.019,0.012-0.037,0.021-0.055,0.031
		c0,0,0,0.002-0.001,0.002c-0.056,0.035-0.108,0.072-0.149,0.102c-0.028,0.011-0.06,0.021-0.086,0.035
		c-1.57,0.836-3.312,1.258-5.175,1.258c-5.909,0-12.224-4.43-12.224-16.857V25.221c0-10.241,4.797-16.858,12.224-16.858
		c7.423,0,12.222,6.617,12.222,16.858v1.475c0,0.171,0.097,0.328,0.252,0.403c0.449,0.221,0.89,0.429,1.317,0.632
		c2.371,1.125,4.42,2.096,6.14,4.162c0.035,0.041,0.074,0.074,0.121,0.102c0.098,0.056,0.23,0.121,0.408,0.121
		c0.504,0,0.911-0.409,0.911-0.911v-5.984C221.38,9.192,213.59,0,200.009,0z"/>
	<path fill="#FFFFFF" d="M221.32,54.675c-0.313-10.443-4.063-17.855-10.842-21.434c-0.875-0.461-1.822-0.864-2.815-1.196
		c-1.452-0.489-3.011-0.83-4.634-1.012c-2.244-0.249-3.904-0.236-5.838-0.031c-0.87,0.095-1.701,0.225-2.467,0.387
		c-0.417,0.086-0.826,0.185-1.235,0.299c-0.194,0.054-0.33,0.231-0.33,0.433v7.771c0,0.501,0.407,0.909,0.91,0.909
		c0.109,0,0.216-0.033,0.408-0.107l0.228-0.138c0.146-0.088,0.289-0.179,0.427-0.245l0.197-0.088
		c0.389-0.181,0.798-0.341,1.193-0.467c0.134-0.044,0.27-0.083,0.416-0.124c0.36-0.098,0.728-0.18,1.209-0.264l0.313-0.05
		c0.568-0.073,1.056-0.107,1.534-0.107c1.217,0,2.41,0.191,3.544,0.568c2.2,0.727,4.043,2.123,5.479,4.149
		c2.09,2.953,3.196,7.15,3.196,12.14v42.999l-0.024,1.586c0,0,0.008-0.09,0,0c-0.726,8.945-5.338,14.523-12.194,14.523
		c-5.909,0-12.225-4.43-12.225-16.857v-1.457c0-0.172-0.097-0.327-0.252-0.403c-2.744-1.344-5.174-3.235-7.226-5.621
		c-0.024-0.03-0.067-0.063-0.109-0.091c-0.169-0.204-0.402-0.319-0.656-0.319c-0.503,0-0.91,0.408-0.91,0.91v6.981
		c0,16.027,7.791,25.222,21.378,25.222c13.323,0,21.103-8.924,21.346-24.476l0.039-42.787c0-0.037-0.006-0.073-0.015-0.108
		L221.32,54.675z"/>
</g>
</svg>
