<?xml version="1.0" encoding="utf-8"?>
<!-- Generator: Adobe Illustrator 16.0.0, SVG Export Plug-In . SVG Version: 6.00 Build 0)  -->
<!DOCTYPE svg PUBLIC "-//W3C//DTD SVG 1.1//EN" "http://www.w3.org/Graphics/SVG/1.1/DTD/svg11.dtd">
<svg version="1.1" id="Capa_1" xmlns="http://www.w3.org/2000/svg" xmlns:xlink="http://www.w3.org/1999/xlink" x="0px" y="0px"
	 width="40px" height="40px" viewBox="236 236 40 40" enable-background="new 236 236 40 40" xml:space="preserve">
<g>
	<g>
		<path fill="#DEAF69" d="M274.625,251.152h-0.382l-3.579-9.638c-0.313-0.844-1.129-1.411-2.029-1.411h-25.269
			c-0.9,0-1.716,0.567-2.029,1.411l-3.58,9.638h-0.382c-0.758,0-1.375,0.617-1.375,1.375v1.104c0,0.759,0.617,1.376,1.375,1.376
			h0.204v16.442c0,0.324,0.262,0.586,0.586,0.586c0.323,0,0.586-0.262,0.586-0.586v-16.442h9.199c0.516,0,0.999-0.201,1.363-0.565
			l6.687-6.687l6.688,6.687c0.364,0.364,0.848,0.565,1.362,0.565h9.2v6.247c0,0.324,0.263,0.586,0.586,0.586
			c0.324,0,0.586-0.262,0.586-0.586v-6.247h0.203c0.759,0,1.375-0.617,1.375-1.376v-1.104
			C276,251.77,275.384,251.152,274.625,251.152L274.625,251.152z M242.436,241.923c0.144-0.388,0.518-0.647,0.931-0.647h25.269
			c0.413,0,0.787,0.26,0.931,0.647l3.428,9.229h-8.145l-7.485-7.485c-0.364-0.364-0.848-0.564-1.363-0.564
			c-0.515,0-0.999,0.2-1.362,0.564l-7.485,7.485h-8.146L242.436,241.923z M274.828,253.632c0,0.112-0.091,0.204-0.203,0.204H264.05
			c-0.201,0-0.392-0.079-0.534-0.222l-7.102-7.102c-0.109-0.109-0.259-0.171-0.414-0.171s-0.305,0.062-0.414,0.171l-7.102,7.102
			c-0.143,0.143-0.332,0.222-0.534,0.222h-10.575c-0.111,0-0.203-0.092-0.203-0.204v-1.104c0-0.112,0.092-0.203,0.203-0.203h10.02
			c0.155,0,0.305-0.062,0.415-0.172l7.656-7.656c0.143-0.144,0.333-0.222,0.534-0.222c0.202,0,0.392,0.078,0.535,0.222l7.656,7.656
			c0.11,0.11,0.259,0.172,0.415,0.172h10.019c0.112,0,0.204,0.091,0.204,0.203L274.828,253.632L274.828,253.632z"/>
		<path fill="#DEAF69" d="M271.231,271.265c0.324,0,0.586-0.262,0.586-0.586v-10.417c0-0.323-0.262-0.586-0.586-0.586h-7.892
			c-0.323,0-0.586,0.263-0.586,0.586v10.417c0,0.324,0.263,0.586,0.586,0.586H271.231z M270.646,267.567h-2.773v-2.773h2.773
			V267.567z M266.7,267.567h-2.774v-2.773h2.774V267.567z M270.646,270.093h-6.72v-1.354h6.72V270.093z M270.646,263.622h-2.773
			v-2.774h2.773V263.622z M266.7,260.848v2.774h-2.774v-2.774H266.7z"/>
		<path fill="#DEAF69" d="M248.661,271.265c0.323,0,0.586-0.262,0.586-0.586v-10.417c0-0.323-0.263-0.586-0.586-0.586h-7.893
			c-0.323,0-0.586,0.263-0.586,0.586v10.417c0,0.324,0.263,0.586,0.586,0.586H248.661z M248.075,267.567h-2.774v-2.773h2.774
			V267.567z M244.129,267.567h-2.774v-2.773h2.774V267.567z M248.075,270.093h-6.721v-1.354h6.721V270.093z M248.075,263.622h-2.774
			v-2.774h2.774V263.622z M244.129,260.848v2.774h-2.774v-2.774H244.129z"/>
		<path fill="#DEAF69" d="M257.895,262.201h-3.788c-0.324,0-0.586,0.263-0.586,0.586v2.525c0,0.323,0.262,0.586,0.586,0.586h3.788
			c0.323,0,0.586-0.263,0.586-0.586v-2.525C258.48,262.464,258.218,262.201,257.895,262.201z M257.309,264.727h-2.616v-1.354h2.616
			V264.727z"/>
		<path fill="#DEAF69" d="M259.111,254.816c0-1.716-1.396-3.111-3.111-3.111s-3.111,1.396-3.111,3.111
			c0,1.715,1.396,3.111,3.111,3.111S259.111,256.531,259.111,254.816z M254.061,254.816c0-1.069,0.87-1.939,1.939-1.939
			s1.939,0.87,1.939,1.939s-0.87,1.939-1.939,1.939S254.061,255.886,254.061,254.816L254.061,254.816z"/>
		<path fill="#DEAF69" d="M275.414,272.145h-0.992v-12.843c0-0.323-0.262-0.586-0.586-0.586c-0.323,0-0.586,0.263-0.586,0.586
			v12.843h-12.244v-11.883c0-0.323-0.263-0.586-0.586-0.586h-8.839c-0.324,0-0.586,0.263-0.586,0.586v11.883h-12.244v-1.553
			c0-0.324-0.263-0.586-0.586-0.586c-0.324,0-0.586,0.262-0.586,0.586v1.553h-0.993c-0.323,0-0.586,0.263-0.586,0.586v2.684
			c0,0.323,0.263,0.586,0.586,0.586h38.828c0.324,0,0.586-0.263,0.586-0.586v-2.684C276,272.407,275.738,272.145,275.414,272.145z
			 M252.167,267.871v-1.172v-5.852h7.667v11.297h-7.667V267.871z M274.828,274.828h-37.656v-1.512h37.656V274.828z"/>
	</g>
</g>
</svg>
