<?xml version="1.0" encoding="utf-8"?>
<!-- Generator: Adobe Illustrator 24.3.0, SVG Export Plug-In . SVG Version: 6.00 Build 0)  -->
<svg version="1.1" id="Layer_1" xmlns="http://www.w3.org/2000/svg" xmlns:xlink="http://www.w3.org/1999/xlink" x="0px" y="0px"
	 viewBox="0 0 52 49.1" style="enable-background:new 0 0 52 49.1;" xml:space="preserve">
<style type="text/css">
	.st0{fill:#DEAF69;}
</style>
<g>
	<path class="st0" d="M42.8,20.1c0.6,0,1-0.4,1-1v-1.2c0-0.6-0.4-1-1-1H32.4c-0.4,0-0.6,0.2-0.8,0.5v-5c0-3.6-1.9-6.7-4.7-8.5
		c0.1,0,0.2,0.1,0.3,0.1c0.1,0,0.1,0,0.2,0c0.2-0.1,0.3-0.2,0.4-0.3c0.1-0.2,0.1-0.4,0.1-0.5c-0.1-0.2-0.2-0.3-0.3-0.4
		c-3.9-2.1-8.3-2.1-12.2,0C15,2.8,14.9,3.2,15,3.6c0.1,0.2,0.2,0.3,0.4,0.3c0.2,0.1,0.4,0,0.5,0c-2.8,1.8-4.7,4.9-4.7,8.5v30.1H9.9
		c-0.9,0-1.6,0.7-1.6,1.6v2.4c0,0.9,0.7,1.6,1.6,1.6h23.8c0,0,0,0,0,0h9.1c0.6,0,1-0.4,1-1V25.2c0-0.6-0.4-1-1-1h-0.2v-4.1H42.8z
		 M41.1,24.2H34v-4.1h7.1V24.2z M9.6,44c0-0.1,0.1-0.2,0.2-0.2h21.5h1.4h0.8c0.1,0,0.2,0.1,0.2,0.2v2.4c0,0.1-0.1,0.2-0.2,0.2H32v0
		H9.9c-0.1,0-0.2-0.1-0.2-0.2V44z M33.6,42.4h-0.8V25.6h0.8h7.9h0.8v21.1h-7.2c0-0.1,0-0.1,0-0.2V44C35.2,43.2,34.5,42.4,33.6,42.4z
		 M41.5,18.7C41.5,18.7,41.5,18.7,41.5,18.7l-7.9,0c0,0,0,0,0,0h-0.8v-0.4h9.6v0.4H41.5z M21.4,3.6c4.8,0,8.7,3.9,8.7,8.7v23
		c-0.3-0.5-0.8-0.9-1.4-0.9h-3.6l1.9-6.6c0-0.1,0-0.2,0-0.3c0-0.6-0.4-1-1-1h-8.4c-0.1,0-0.2,0-0.2,0c-0.3,0.1-0.5,0.2-0.6,0.5
		c-0.1,0.2-0.2,0.5-0.1,0.8l0.1,0.6h-0.6c-1.1,0-1.9,0.9-1.9,1.9s0.9,1.9,1.9,1.9h1.6l0.6,2.2h-4.3c-0.6,0-1.2,0.4-1.4,0.9l0-23
		C12.7,7.5,16.6,3.6,21.4,3.6z M17.4,30.9h-1.1c-0.3,0-0.5-0.2-0.5-0.5s0.2-0.5,0.5-0.5H17L17.4,30.9z M19.5,35.9H24h4.7
		c0.1,0,0.2,0.1,0.2,0.2c0,0.1-0.1,0.2-0.2,0.2H14.1c-0.1,0-0.2-0.1-0.2-0.2c0-0.1,0.1-0.2,0.2-0.2H19.5z M18.2,28h7.4l-1.9,6.5
		h-3.9L18.2,28z M12.7,36.8c0.3,0.5,0.8,0.9,1.4,0.9h14.6c0.6,0,1.2-0.4,1.4-0.9v5.6H12.7L12.7,36.8z M32.4,20.1h0.2v4.1h-0.2
		c-0.4,0-0.6,0.2-0.8,0.5v-5C31.7,19.9,32,20.1,32.4,20.1z"/>
	<path class="st0" d="M19,19.7c0.1,0.1,0.5,0.7,0.7,0.9c0.6,1,1,1.6,1.8,1.6c0.7,0,1.1-0.6,1.7-1.6c0.3-0.5,0.5-0.9,0.6-0.9
		c3.3-1,5.4-4,5.4-7.4c0-4.2-3.5-7.7-7.7-7.7c-4.2,0-7.7,3.5-7.7,7.7C13.7,15.7,15.9,18.6,19,19.7z M27.7,12.4c0,2.8-1.8,5.2-4.5,6
		c-0.5,0.2-0.8,0.6-1.4,1.5c-0.3,0.5-0.4,0.7-0.5,0.8c-0.1-0.1-0.3-0.4-0.6-0.8c-0.6-1-0.9-1.4-1.4-1.5c-2.6-0.9-4.3-3.3-4.3-6
		c0-3.5,2.8-6.3,6.3-6.3C24.9,6.1,27.7,8.9,27.7,12.4z"/>
	<path class="st0" d="M17.6,15.6c0.1,0.1,0.3,0.2,0.5,0.2s0.4-0.1,0.5-0.2l4.7-4.7c0.3-0.3,0.3-0.7,0-1c-0.2-0.2-0.4-0.2-0.7-0.2
		L23.3,9c0.3-0.3,0.3-0.7,0-1c-0.3-0.3-0.7-0.3-1,0l-4.7,4.7c-0.3,0.3-0.3,0.7,0,1c0.1,0.1,0.3,0.2,0.5,0.2c0.1,0,0.1,0,0.2,0
		l-0.7,0.7C17.3,14.9,17.3,15.3,17.6,15.6z"/>
</g>
</svg>
