<svg xmlns="http://www.w3.org/2000/svg" width="76" height="76" viewBox="0 0 76 76">
    <defs>
        <linearGradient id="prefix__a" x1="-59.203%" x2="97.38%" y1="-60.018%" y2="95.003%">
            <stop offset="0%" stop-color="#CBAF84"/>
            <stop offset="100%" stop-color="#AD874E"/>
        </linearGradient>
    </defs>
    <g fill="none" fill-rule="evenodd" transform="translate(1 1)">
        <circle cx="37" cy="37" r="37" fill="#292929" fill-opacity=".22" stroke="#292929"/>
        <path fill="url(#prefix__a)" fill-rule="nonzero" d="M30.375 33.087v20.099c-.68.508-1.523.814-2.438.814h-4.875C20.823 54 19 52.195 19 49.978v-12.87c0-2.216 1.823-4.021 4.062-4.021h7.313zM40.125 17C42.005 17 45 19.946 45 23.435c0 2.2-.796 4.94-1.294 6.435h10.038c2.187 0 4.048 1.602 4.238 3.646.106 1.147-.281 2.25-1.04 3.071.671.665 1.058 1.566 1.058 2.533 0 1.394-.806 2.619-2.007 3.217.25.494.382 1.04.382 1.609 0 1.396-.808 2.62-2.008 3.219.372.733.48 1.578.294 2.416-.364 1.63-1.913 2.81-3.683 2.81H36.062c-1.066 0-2.74-.333-4.062-.95V34.199l.195-.099 4.68-10.036v-5.455c0-.245.112-.476.304-.63.052-.038 1.258-.979 2.946-.979z"/>
    </g>
</svg>
