<svg xmlns="http://www.w3.org/2000/svg" width="76" height="76" viewBox="0 0 76 76">
    <defs>
        <linearGradient id="prefix__a" x1="-18.068%" x2="79.533%" y1="-72.233%" y2="100%">
            <stop offset="0%" stop-color="#CBAF84"/>
            <stop offset="100%" stop-color="#AD874E"/>
        </linearGradient>
    </defs>
    <g fill="none" fill-rule="evenodd" transform="translate(1 1)">
        <circle cx="37" cy="37" r="37" fill="#292929" fill-opacity=".22" stroke="#292929"/>
        <path fill="url(#prefix__a)" fill-rule="nonzero" d="M18.926 58.758l-.026.023.892.752c.058.049.121.089.179.137.474.393.965.766 1.465 1.127.162.117.324.234.489.348.534.368 1.082.717 1.642 1.048.122.072.245.142.368.212.613.349 1.239.678 1.88.98l.142.064c2.089.971 4.319 1.684 6.651 2.105l.184.033c.724.125 1.456.225 2.197.292.09.008.18.013.271.021.738.061 1.484.1 2.24.1.749 0 1.488-.039 2.222-.098l.279-.021c.735-.067 1.461-.164 2.178-.287l.187-.034c2.297-.412 4.495-1.109 6.557-2.055.076-.035.153-.068.229-.104.617-.29 1.22-.603 1.811-.936.147-.083.293-.167.439-.253.538-.317 1.067-.648 1.581-1 .185-.126.366-.259.549-.391.439-.316.87-.642 1.289-.983.093-.075.193-.14.284-.217l.915-.764-.027-.023c2.824-2.57-10.14-5.52-21.004-5.485-3.93.013-7.072.369-9.764 1.175-2.29.686-4.317 1.786-5.572 2.34-1.179.52-1.536 1.152-.727 1.894zm34.592-2.732l-8.467-4.233c-.76-.38-1.232-1.144-1.232-1.993v-2.957c.196-.242.403-.516.617-.817 1.096-1.548 1.975-3.27 2.616-5.123 1.267-.602 2.085-1.864 2.085-3.289v-3.545c0-.867-.318-1.708-.887-2.369v-4.667c.052-.52.236-3.448-1.883-5.864C44.524 19.065 41.541 18 37.5 18c-4.041 0-7.024 1.065-8.867 3.168-2.119 2.416-1.935 5.346-1.883 5.864v4.667c-.568.661-.887 1.502-.887 2.369v3.545c0 1.101.494 2.128 1.34 2.821.81 3.173 2.477 5.575 3.093 6.389v2.894c0 .816-.445 1.566-1.162 1.958l-7.907 4.313c-.252.137 32.594.19 32.291.038z"/>
    </g>
</svg>
