<?xml version="1.0" encoding="utf-8"?>
<!-- Generator: Adobe Illustrator 16.0.0, SVG Export Plug-In . SVG Version: 6.00 Build 0)  -->
<!DOCTYPE svg PUBLIC "-//W3C//DTD SVG 1.1//EN" "http://www.w3.org/Graphics/SVG/1.1/DTD/svg11.dtd">
<svg version="1.1" id="Layer_1" xmlns="http://www.w3.org/2000/svg" xmlns:xlink="http://www.w3.org/1999/xlink" x="0px" y="0px"
	 width="20px" height="20px" viewBox="0 0 20 20" enable-background="new 0 0 20 20" xml:space="preserve">
<path fill="#FFFFFF" d="M13.568,16.5c0.906,0,1.701-0.316,2.334-1.021c0.369-0.412,0.598-0.89,0.598-1.358
	c0-0.36-0.133-0.705-0.471-0.938l-2.146-1.517c-0.323-0.233-0.604-0.347-0.854-0.347c-0.316,0-0.604,0.186-0.92,0.5l-0.502,0.492
	c-0.08,0.082-0.176,0.104-0.266,0.104c-0.109,0-0.213-0.037-0.287-0.073c-0.427-0.228-1.17-0.867-1.864-1.551
	C8.508,10.1,7.868,9.364,7.639,8.93C7.603,8.857,7.566,8.754,7.566,8.651c0-0.088,0.022-0.183,0.103-0.264L8.162,7.88
	c0.317-0.316,0.501-0.603,0.501-0.926c0-0.25-0.118-0.522-0.346-0.853L6.814,3.992C6.564,3.654,6.21,3.5,5.827,3.5
	c-0.464,0-0.935,0.213-1.347,0.603C3.795,4.757,3.5,5.558,3.5,6.447c0,2.013,1.54,4.446,3.565,6.46
	C9.09,14.934,11.559,16.5,13.568,16.5z"/>
</svg>
