<svg xmlns="http://www.w3.org/2000/svg" xmlns:xlink="http://www.w3.org/1999/xlink" width="63" height="77" viewBox="0 0 63 77">
  <defs>
    <filter id="Union_1" x="0" y="0" width="63" height="77" filterUnits="userSpaceOnUse">
      <feOffset dy="3" input="SourceAlpha"/>
      <feGaussianBlur stdDeviation="3" result="blur"/>
      <feFlood flood-opacity="0.306"/>
      <feComposite operator="in" in2="blur"/>
      <feComposite in="SourceGraphic"/>
    </filter>
  </defs>
  <g id="Group_87" data-name="Group 87" transform="translate(-1311 -587)">
    <g transform="matrix(1, 0, 0, 1, 1311, 587)" filter="url(#Union_1)">
      <path id="Union_1-2" data-name="Union 1" d="M5.719,37.586a22.654,22.654,0,0,1-1.771-2.26l-.487-.621h.076a22.5,22.5,0,1,1,37.926,0h.076l-.487.621a22.648,22.648,0,0,1-1.771,2.259L22.5,59Z" transform="translate(9 6)" fill="#deaf69"/>
    </g>
    <path id="Path_32" data-name="Path 32" d="M-36.2-73.711c-.782,0-1.523,0-2.264,0A.805.805,0,0,1-39.3-74.2a.8.8,0,0,1,.239-.937q5.071-5.065,10.137-10.135a.8.8,0,0,1,1.269.007L-17.534-75.15a.8.8,0,0,1,.247.956.82.82,0,0,1-.84.485c-.725-.007-1.45,0-2.175,0a.473.473,0,0,0-.079.021v.277q0,3.72,0,7.44a2.383,2.383,0,0,1-2.552,2.543q-1.446,0-2.891,0a.8.8,0,0,1-.884-.89q0-2.262,0-4.523a.809.809,0,0,0-.908-.915c-.469,0-.939,0-1.409,0a.789.789,0,0,0-.846.852q0,2.274,0,4.548a.812.812,0,0,1-.92.929q-1.458,0-2.916,0a2.376,2.376,0,0,1-2.491-2.5q0-3.732,0-7.465Z" transform="translate(1371.009 689.316)" fill="#fff"/>
  </g>
</svg>
