<?xml version="1.0" encoding="utf-8"?>
<!-- Generator: Adobe Illustrator 24.3.0, SVG Export Plug-In . SVG Version: 6.00 Build 0)  -->
<svg version="1.1" id="Layer_1" xmlns="http://www.w3.org/2000/svg" xmlns:xlink="http://www.w3.org/1999/xlink" x="0px" y="0px"
	 viewBox="0 0 20 20" style="enable-background:new 0 0 20 20;" xml:space="preserve">
<style type="text/css">
	.st0{fill:#D4A968;}
</style>
<path class="st0" d="M10,2.5c-3,0-5.5,2.4-5.5,5.4c0,3.7,4.9,9.2,5.1,9.4c0.2,0.2,0.5,0.2,0.7,0c0.2-0.2,5.1-5.7,5.1-9.4
	C15.5,4.9,13,2.5,10,2.5z M10,10.7c-1.5,0-2.8-1.2-2.8-2.7S8.5,5.2,10,5.2c1.5,0,2.8,1.2,2.8,2.7C12.8,9.4,11.5,10.7,10,10.7
	L10,10.7z"/>
</svg>
