<?xml version="1.0" encoding="utf-8"?>
<!-- Generator: Adobe Illustrator 16.0.0, SVG Export Plug-In . SVG Version: 6.00 Build 0)  -->
<!DOCTYPE svg PUBLIC "-//W3C//DTD SVG 1.1//EN" "http://www.w3.org/Graphics/SVG/1.1/DTD/svg11.dtd">
<svg version="1.1" id="Layer_1" xmlns="http://www.w3.org/2000/svg" xmlns:xlink="http://www.w3.org/1999/xlink" x="0px" y="0px"
	 width="20px" height="20px" viewBox="0 0 20 20" enable-background="new 0 0 20 20" xml:space="preserve">
<path fill="#DEAF69" d="M10,2.5c-3.033,0-5.5,2.437-5.5,5.432c0,3.719,4.922,9.176,5.132,9.406c0.196,0.217,0.54,0.217,0.736,0
	c0.21-0.23,5.132-5.688,5.132-9.406C15.5,4.937,13.033,2.5,10,2.5z M10,10.666c-1.526,0-2.767-1.227-2.767-2.734
	C7.233,6.425,8.474,5.2,10,5.2c1.525,0,2.768,1.226,2.768,2.732C12.768,9.44,11.525,10.667,10,10.666L10,10.666z"/>
</svg>
