<?xml version="1.0" encoding="utf-8"?>
<!-- Generator: Adobe Illustrator 16.0.0, SVG Export Plug-In . SVG Version: 6.00 Build 0)  -->
<!DOCTYPE svg PUBLIC "-//W3C//DTD SVG 1.1//EN" "http://www.w3.org/Graphics/SVG/1.1/DTD/svg11.dtd">
<svg version="1.1" id="Layer_1" xmlns="http://www.w3.org/2000/svg" xmlns:xlink="http://www.w3.org/1999/xlink" x="0px" y="0px"
	 width="400px" height="400px" viewBox="0 0 400 400" enable-background="new 0 0 400 400" xml:space="preserve">
<g>
	<path fill="#DEAF69" d="M166.855,272.254c-4.142,0-7.5-3.357-7.5-7.5V61.678c0-17.585,14.307-31.893,31.893-31.893
		c17.59,0,31.899,14.307,31.899,31.893c0,4.142-3.357,7.5-7.5,7.5s-7.5-3.358-7.5-7.5c0-9.314-7.581-16.893-16.899-16.893
		c-9.314,0-16.893,7.578-16.893,16.893v203.076C174.355,268.896,170.998,272.254,166.855,272.254z"/>
	<path fill="#DEAF69" d="M311.695,272.254c-4.143,0-7.5-3.357-7.5-7.5V61.678c0-17.585,14.309-31.893,31.896-31.893
		c17.589,0,31.898,14.307,31.898,31.893c0,4.142-3.357,7.5-7.5,7.5s-7.5-3.358-7.5-7.5c0-9.314-7.581-16.893-16.898-16.893
		c-9.316,0-16.896,7.578-16.896,16.893v203.076C319.195,268.896,315.838,272.254,311.695,272.254z"/>
	<path fill="#DEAF69" d="M305.861,160.32H166.855c-4.142,0-7.5-3.358-7.5-7.5s3.358-7.5,7.5-7.5h139.006c4.143,0,7.5,3.358,7.5,7.5
		S310.004,160.32,305.861,160.32z"/>
	<path fill="#DEAF69" d="M305.861,230.548H166.855c-4.142,0-7.5-3.357-7.5-7.5s3.358-7.5,7.5-7.5h139.006c4.143,0,7.5,3.357,7.5,7.5
		S310.004,230.548,305.861,230.548z"/>
	<path fill="#DEAF69" d="M323.508,310.577c-16.258,0-31.181-7.193-41.183-19.353c-10.003,12.159-24.926,19.353-41.183,19.353
		c-16.258,0-31.181-7.193-41.182-19.351c-10.001,12.157-24.924,19.351-41.183,19.351c-16.256,0-31.18-7.194-41.182-19.352
		c-10.001,12.158-24.925,19.352-41.183,19.352c-21.708,0-41.092-12.965-49.382-33.03c-1.582-3.829,0.239-8.214,4.068-9.796
		c3.829-1.58,8.214,0.239,9.795,4.067c5.963,14.433,19.905,23.759,35.519,23.759c14.726,0,27.93-8.206,34.459-21.415
		c1.265-2.558,3.87-4.177,6.723-4.177s5.459,1.618,6.724,4.176c6.531,13.21,19.735,21.416,34.459,21.416
		c14.726,0,27.929-8.206,34.458-21.415c1.265-2.558,3.87-4.177,6.724-4.177c2.853,0,5.459,1.619,6.724,4.176
		c6.53,13.21,19.734,21.416,34.459,21.416c14.724,0,27.928-8.206,34.46-21.416c1.264-2.558,3.87-4.176,6.723-4.176l0,0
		c2.853,0,5.459,1.618,6.723,4.176c6.532,13.21,19.736,21.416,34.46,21.416c15.612,0,29.557-9.327,35.522-23.764
		c1.583-3.828,5.969-5.645,9.797-4.066c3.828,1.583,5.648,5.969,4.066,9.797C364.599,297.61,345.214,310.577,323.508,310.577z"/>
	<path fill="#DEAF69" d="M323.508,370.531c-16.259-0.004-31.181-7.196-41.182-19.351c-10.002,12.158-24.926,19.351-41.184,19.351
		c-16.258-0.004-31.181-7.197-41.182-19.35c-10,12.157-24.923,19.35-41.183,19.35c-16.258-0.004-31.18-7.195-41.181-19.35
		c-10,12.156-24.924,19.35-41.184,19.35c-21.71-0.005-41.094-12.97-49.382-33.029c-1.582-3.828,0.239-8.214,4.068-9.796
		c3.829-1.579,8.214,0.239,9.795,4.067c5.962,14.43,19.904,23.755,35.521,23.758c14.726,0,27.93-8.205,34.458-21.413
		c1.264-2.558,3.87-4.177,6.723-4.177s5.459,1.618,6.724,4.176c6.53,13.205,19.735,21.411,34.461,21.414
		c14.726,0,27.929-8.205,34.457-21.413c1.264-2.558,3.87-4.177,6.723-4.177s5.459,1.618,6.723,4.176
		c6.529,13.205,19.734,21.411,34.462,21.414c14.723,0,27.927-8.205,34.458-21.414c1.264-2.558,3.87-4.176,6.723-4.176
		s5.458,1.618,6.723,4.176c6.53,13.205,19.735,21.411,34.462,21.414c15.608,0,29.553-9.326,35.521-23.76
		c1.583-3.827,5.969-5.648,9.797-4.064c3.828,1.583,5.647,5.969,4.064,9.797C364.596,357.567,345.211,370.531,323.508,370.531z"/>
</g>
</svg>
