<svg xmlns="http://www.w3.org/2000/svg" width="22" height="18" viewBox="0 0 22 18">
    <path fill="#000000" d="M19.111 16.171c1.923 0 2.889-.933 2.889-2.761V2.752C22 .932 21.034 0 19.111 0H6.724C4.811 0 3.836.924 3.836 2.752v4.96c.258-.028.516-.056.784-.056.258 0 .526.028.784.055V5.283c0-.795.44-1.201 1.225-1.201h12.568c.785 0 1.234.406 1.234 1.2v8.165c0 .803-.45 1.2-1.234 1.2h-8.895c-.115.536-.325 1.053-.612 1.524h9.421zm-6.533-8.986c.325 0 .43-.092.43-.406V6.27c0-.305-.105-.407-.43-.407h-.526c-.325 0-.43.102-.43.407v.508c0 .314.105.406.43.406h.526zm2.545 0c.325 0 .43-.092.43-.406V6.27c0-.305-.105-.407-.43-.407h-.536c-.316 0-.42.102-.42.407v.508c0 .314.104.406.42.406h.536zm2.544 0c.325 0 .43-.092.43-.406V6.27c0-.305-.105-.407-.43-.407h-.536c-.315 0-.42.102-.42.407v.508c0 .314.105.406.42.406h.536zm-7.633 2.835c.325 0 .43-.092.43-.397v-.517c0-.305-.105-.397-.43-.397h-.526c-.325 0-.43.092-.43.397v.517c0 .305.105.397.43.397h.526zm2.544 0c.325 0 .43-.092.43-.397v-.517c0-.305-.105-.397-.43-.397h-.526c-.325 0-.43.092-.43.397v.517c0 .305.105.397.43.397h.526zm2.545 0c.325 0 .43-.092.43-.397v-.517c0-.305-.105-.397-.43-.397h-.536c-.316 0-.42.092-.42.397v.517c0 .305.104.397.42.397h.536zm2.544 0c.325 0 .43-.092.43-.397v-.517c0-.305-.105-.397-.43-.397h-.536c-.315 0-.42.092-.42.397v.517c0 .305.105.397.42.397h.536zM4.62 18c2.506 0 4.62-2.023 4.62-4.46 0-2.448-2.095-4.461-4.62-4.461-2.535 0-4.62 2.013-4.62 4.46C0 15.987 2.085 18 4.62 18zm7.958-5.135c.325 0 .43-.093.43-.397v-.518c0-.304-.105-.397-.43-.397h-.526c-.325 0-.43.093-.43.397v.518c0 .304.105.397.43.397h.526zM4.702 10.58c.096 0 .187.034.256.097l2.38 2.185c.069.063.106.146.106.235 0 .088-.037.171-.105.234l-.216.198c-.067.063-.157.097-.253.097-.097 0-.185-.034-.253-.097l-1.4-1.29v3.7c0 .183-.172.327-.371.327H4.54c-.199 0-.355-.144-.355-.327v-3.685L2.795 13.53c-.068.063-.162.097-.258.097-.097 0-.188-.034-.256-.097l-.216-.198c-.068-.063-.105-.146-.105-.234 0-.09.037-.172.105-.235l2.381-2.185c.068-.063.16-.097.257-.097zm10.42.973c.326 0 .431.093.431.397v.518c0 .304-.105.397-.43.397h-.536c-.316 0-.42-.093-.42-.397v-.518c0-.304.104-.397.42-.397z"/>
</svg>
