<?xml version="1.0" encoding="utf-8"?>
<!-- Generator: Adobe Illustrator 16.0.0, SVG Export Plug-In . SVG Version: 6.00 Build 0)  -->
<!DOCTYPE svg PUBLIC "-//W3C//DTD SVG 1.1//EN" "http://www.w3.org/Graphics/SVG/1.1/DTD/svg11.dtd">
<svg version="1.1" id="Layer_1" xmlns="http://www.w3.org/2000/svg" xmlns:xlink="http://www.w3.org/1999/xlink" x="0px" y="0px"
	 width="14px" height="14px" viewBox="0 0 14 14" enable-background="new 0 0 14 14" xml:space="preserve">
<path d="M6.542,11.125c2.531,0,4.583-2.052,4.583-4.583c0-2.532-2.052-4.584-4.583-4.584c-2.532,0-4.584,2.052-4.584,4.584
	C1.958,9.073,4.01,11.125,6.542,11.125z M6.542,0.125c3.543,0,6.416,2.873,6.416,6.417c0,1.44-0.476,2.771-1.276,3.842l1.926,1.927
	c0.356,0.357,0.356,0.938,0,1.297c-0.358,0.356-0.939,0.356-1.297,0l-1.927-1.926c-1.071,0.801-2.401,1.276-3.842,1.276
	c-3.544,0-6.417-2.873-6.417-6.416C0.125,2.998,2.998,0.125,6.542,0.125z"/>
</svg>
