<svg xmlns="http://www.w3.org/2000/svg" width="132" height="132" viewBox="0 0 132 132">
    <defs>
        <linearGradient id="65mc0xmd0a" x1="23.56%" x2="75.915%" y1="0%" y2="100%">
            <stop offset="0%" stop-color="#F3CD84"/>
            <stop offset="100%" stop-color="#D9A757"/>
        </linearGradient>
    </defs>
    <g fill="none" fill-rule="evenodd">
        <g>
            <g>
                <g>
                    <path stroke="#DEAF69" stroke-dasharray="4 5" d="M65 130c35.899 0 65-29.101 65-65S100.899 0 65 0 0 29.101 0 65s29.101 65 65 65z" opacity=".364" transform="translate(-407 -5470) translate(0 5240) translate(408 231)"/>
                    <path fill="url(#65mc0xmd0a)" fill-rule="nonzero" stroke="#000" stroke-opacity=".137" stroke-width="1.622" d="M81.389 48.552l-15.584-5.5c-.197-.07-.413-.07-.61 0l-15.584 5.5c-.366.13-.611.477-.611.865v11c0 14.235 2.11 19.438 16.087 26.485.13.065.272.098.413.098.141 0 .283-.033.413-.098C79.889 79.855 82 74.652 82 60.417v-11c0-.388-.245-.735-.611-.865z" transform="translate(-407 -5470) translate(0 5240) translate(408 231)"/>
                </g>
            </g>
        </g>
    </g>
</svg>
