<?xml version="1.0" encoding="utf-8"?>
<!-- Generator: Adobe Illustrator 16.0.0, SVG Export Plug-In . SVG Version: 6.00 Build 0)  -->
<!DOCTYPE svg PUBLIC "-//W3C//DTD SVG 1.1//EN" "http://www.w3.org/Graphics/SVG/1.1/DTD/svg11.dtd">
<svg version="1.1" id="Layer_1" xmlns="http://www.w3.org/2000/svg" xmlns:xlink="http://www.w3.org/1999/xlink" x="0px" y="0px"
	 width="134px" height="134px" viewBox="0 0 134 134" enable-background="new 0 0 134 134" xml:space="preserve">
<path opacity="0.364" fill="#EFEFEF" stroke="#4E4E4E" stroke-width="3" stroke-dasharray="4,5" enable-background="new    " d="
	M67,132c35.898,0,65-29.102,65-65c0-35.899-29.102-65-65-65C31.101,2,2,31.101,2,67C2,102.898,31.101,132,67,132z"/>
<linearGradient id="SVGID_1_" gradientUnits="userSpaceOnUse" x1="-232.2217" y1="455.0283" x2="-231.4995" y2="454.0285" gradientTransform="matrix(37 0 0 -42 8643.3428 19159.5313)">
	<stop  offset="0" style="stop-color:#F3CD84"/>
	<stop  offset="1" style="stop-color:#D9A757"/>
</linearGradient>
<path fill="url(#SVGID_1_)" stroke="#000000" stroke-width="1.622" stroke-opacity="0.137" d="M84.439,88H73.1
	c-0.851,0-1.418-0.561-1.418-1.398V74.011h-8.506v12.591c0,0.84-0.567,1.398-1.417,1.398H50.418C49.567,88,49,87.439,49,86.602
	v-25.18c0-0.42,0.142-0.84,0.567-1.119l17.012-13.988c0.567-0.42,1.274-0.42,1.842,0l17.013,13.988c0.282,0.28,0.566,0.7,0.566,1.12
	V86.6C85.857,87.439,85.291,87.999,84.439,88L84.439,88z"/>
</svg>
