<?xml version="1.0" encoding="utf-8"?>
<!-- Generator: Adobe Illustrator 16.0.0, SVG Export Plug-In . SVG Version: 6.00 Build 0)  -->
<!DOCTYPE svg PUBLIC "-//W3C//DTD SVG 1.1//EN" "http://www.w3.org/Graphics/SVG/1.1/DTD/svg11.dtd">
<svg version="1.1" id="Layer_1" xmlns="http://www.w3.org/2000/svg" xmlns:xlink="http://www.w3.org/1999/xlink" x="0px" y="0px"
	 width="193px" height="132px" viewBox="0 7.5 193 132" enable-background="new 0 7.5 193 132" xml:space="preserve">
<g transform="translate(1 1)">
	<circle fill="#C4A576" fill-opacity="0.097" cx="54" cy="83.5" r="55"/>
	<path fill="#2F2E41" d="M116.699,24.085c0,0,0.395,0.453-0.282,1.328c-0.676,0.876-0.13,2.775,1.155,2.824
		c1.285,0.048,1.908,0.586,1.599,1.296c-0.31,0.709-0.683,2.394,0.718,2.137c1.399-0.256,1.842,0.301,1.594,0.73
		c-0.248,0.428,0.625-0.852,0.625-0.852s0.779,1.162,1.736,0.349c0.957-0.814,1.338-8.187-0.613-8.312
		S116.699,24.085,116.699,24.085L116.699,24.085z"/>
	<path fill="#9F616A" d="M126.593,59.15l0.445,3.113h2.001l-0.667-3.557L126.593,59.15z"/>
	<path fill="#F2F2F2" d="M129.262,60.373c0,0,2.668,2.447,2.002,2.669c-0.668,0.222-3.113,2.89-3.559,3.112
		c-0.398,0.199-4.67,1.558-4.003,0c0.667-1.555,2.224-2.445,2.224-2.445l0.445-2.668L129.262,60.373z"/>
	<path opacity="0.1" enable-background="new    " d="M129.262,60.373c0,0,2.668,2.447,2.002,2.669
		c-0.668,0.222-3.113,2.89-3.559,3.112c-0.398,0.199-4.67,1.558-4.003,0c0.667-1.555,2.224-2.445,2.224-2.445l0.445-2.668
		L129.262,60.373z"/>
	<path fill="#9F616A" d="M129.262,56.815l0.444,3.114h2.002l-0.668-3.558L129.262,56.815z"/>
	<path fill="#FFB8B8" d="M120.898,48.551l2.914-9.637c0,0-4.892-4.447-1.556-5.781c3.335-1.335,4.226,5.337,4.226,5.337
		l-1.112,11.563h-4.448L120.898,48.551L120.898,48.551z"/>
	<path fill="#C4A576" d="M127.705,41.472c0,0-5.748,7.371-4.875,8.466c0.872,1.096,2.429,7.767,2.429,7.767
		s-0.223,2.668,0.667,2.668c0.891,0,3.113-0.444,3.113-1.111c0-0.668-2.001-9.118-2.001-9.118l5.78-7.56L127.705,41.472
		L127.705,41.472z"/>
	<path fill="#C4A576" d="M128.15,41.916l5.781-3.113c0,0,4.002,2.001,2.891,3.78c-1.112,1.78-6.227,6.45-6.227,6.45
		s1.557,7.56,1.334,7.782c-0.222,0.223-2.668,1.112-3.336,0.89c-0.667-0.222-4.225-8.895-3.335-9.34
		c0.89-0.445,3.78-5.114,3.78-5.114l-0.891-1.335H128.15z"/>
	<path fill="#2F2E41" d="M112.361,123.527c0,0,4.002,2.447,4.447,2.447c0.444,0,6.449,1.555,3.779,2.668
		c-2.668,1.111-12.896-0.444-12.675-1.113c0.224-0.666,0-4.67,0.444-4.67C108.803,122.859,112.361,123.527,112.361,123.527
		L112.361,123.527z"/>
	<path fill="#2F2E41" d="M116.809,126.641c0,0,4.002,2.446,4.447,2.446s6.449,1.558,3.78,2.669
		c-2.668,1.111-12.897-0.445-12.675-1.111c0.222-0.668,0-4.67,0.445-4.67C113.25,125.975,116.809,126.641,116.809,126.641
		L116.809,126.641z"/>
	<path fill="#575A88" d="M112.583,79.498c0,0,0.667,3.335,1.78,5.781c1.111,2.445-0.223,14.01-0.891,15.789
		c-0.666,1.779-7.115,22.904-5.115,23.127c2.002,0.222,6.004,0,6.004,0l6.451-20.236l-1.113-27.13L112.583,79.498L112.583,79.498z"
		/>
	<path opacity="0.1" enable-background="new    " d="M112.583,79.498c0,0,0.667,3.335,1.78,5.781
		c1.111,2.445-0.223,14.01-0.891,15.789c-0.666,1.779-7.115,22.904-5.115,23.127c2.002,0.222,6.004,0,6.004,0l6.451-20.236
		l-1.113-27.13L112.583,79.498L112.583,79.498z"/>
	<path fill="#575A88" d="M113.918,79.721c0,0,0.891,6.004,2.891,7.338c2.002,1.334,1.334,2.668,1.334,2.668l-0.89,11.787
		c0,0-8.672,21.348-6.004,24.016c2.669,2.669,5.115,1.557,6.228,1.334c1.11-0.223,3.112-4.893,2-6.227
		c-1.11-1.334,2.225-9.34,3.113-10.674c0.891-1.334,0-3.113,1.112-3.558c1.112-0.445,3.558-3.337,3.558-5.337
		c0-2.002,3.113-23.351,1.112-24.685s-14.83,2.755-14.83,2.755L113.918,79.721L113.918,79.721z"/>
	<circle fill="#FFB8B8" cx="109.691" cy="43.695" r="4.892"/>
	<circle fill="#9F616A" cx="120.811" cy="25.905" r="4.003"/>
	<path fill="#FFB8B8" d="M113.027,43.695c0,0,2.67,4.893,4.004,4.893s-5.338,5.114-5.338,5.114s-2.223-6.449-2.668-6.671
		C108.581,46.809,113.027,43.695,113.027,43.695z"/>
	<path fill="#8985A8" d="M113.918,48.143c0,0-5.781,2.001-5.561,2.668c0.224,0.667-1.556,2.224-1.556,2.891
		s-0.444,6.671,2.224,11.564c2.668,4.892,6.894,8.45,4.893,10.673c-2.002,2.224-5.115,6.004-1.779,6.004s8.672-4.893,13.564-3.113
		s3.779-4.893,3.779-4.893s0.668-5.113-0.666-6.67c-1.334-1.558-6.004-12.676-6.004-14.011c0-1.334-4.447-6.448-5.56-6.448
		S113.918,48.143,113.918,48.143L113.918,48.143z"/>
	<path fill="#9F616A" d="M121.923,28.351c0,0,1.81,3.443,1.906,4.057c0.095,0.613,3.209-4.057,3.209-4.057l-3.558-2.446
		L121.923,28.351z"/>
	<path fill="#F2F2F2" d="M122.59,31.02l3.78-4.003l4.448,2.002c0,0,4.147,9.117,4.408,9.784c0.26,0.667-6.633,3.78-7.3,3.78
		s-5.337-6.893-5.337-6.893S121.479,32.354,122.59,31.02L122.59,31.02z"/>
	<path fill="#9F616A" d="M120.811,36.357v4.003h2.67l-0.879-4.003H120.811z"/>
	<path fill="#9F616A" d="M122.334,39.359c-0.689-0.01-1.314,0.41-1.566,1.053c-0.175,0.47-0.115,0.964,0.711,1.17
		c1.779,0.446,2.002,0,2.002,0s3.088-0.444,2.433-1.333c-0.654-0.89-2.433-0.89-2.433-0.89H122.334z"/>
	<path fill="#F2F2F2" d="M131.93,58.594c0,0,2.668,2.447,2.002,2.669c-0.668,0.222-3.113,2.89-3.559,3.113
		c-0.398,0.199-4.67,1.558-4.002,0c0.667-1.556,2.223-2.446,2.223-2.446l0.445-2.668L131.93,58.594L131.93,58.594z"/>
	<path fill="#2F2E41" d="M107.95,39.93c0.305-0.18,0.667-0.403,0.676-0.758c-0.017-0.266-0.19-0.497-0.44-0.589
		c-0.246-0.085-0.508-0.12-0.768-0.103c-0.1-0.005-0.2,0.004-0.297,0.03c-0.254,0.077-0.4,0.334-0.6,0.509
		c-0.289,0.253-0.688,0.328-1.061,0.425c-0.625,0.161-1.223,0.41-1.779,0.737c-0.111,0.055-0.205,0.134-0.281,0.231
		c-0.088,0.179-0.127,0.377-0.113,0.576c-0.051,0.754-0.502,1.411-0.84,2.088c-0.338,0.676-0.561,1.519-0.163,2.163
		c0.157,0.2,0.304,0.409,0.44,0.624c0.279,0.586-0.07,1.306,0.133,1.923c0.09,0.243,0.235,0.461,0.426,0.638
		c0.39,0.394,0.871,0.685,1.4,0.849c0.506,0.155,1.133,0.26,1.33,0.75c0.086,0.21,0.067,0.458,0.188,0.65
		c0.148,0.239,0.455,0.316,0.73,0.367c0.311,0.07,0.629,0.094,0.946,0.068c0.321-0.027,0.616-0.185,0.817-0.437
		c0.09-0.175,0.199-0.34,0.33-0.487c0.322-0.27,0.812-0.057,1.225-0.128c0.342-0.065,0.616-0.322,0.702-0.659
		c0.011-0.176,0.06-0.347,0.142-0.503c0.258-0.329,0.934-0.097,1.102-0.478c0.111-0.248-0.119-0.51-0.342-0.663
		c-0.363-0.252-0.771-0.445-1.096-0.743c-0.326-0.299-0.566-0.745-0.465-1.175c0.152-0.645,0.994-1,1.021-1.662
		c0.017-0.38-0.256-0.712-0.561-0.938c-0.306-0.226-0.66-0.388-0.932-0.652c-0.2-0.193-0.35-0.436-0.566-0.609
		c-0.393-0.313-0.929-0.351-1.428-0.402c-0.268-0.028-1.336-0.152-1.294-0.56C106.568,40.674,107.678,40.089,107.95,39.93
		L107.95,39.93z"/>
	<path fill="#F2F2F2" d="M122.59,30.798c0,0-2.445,0.89-2.445,2.001c0,1.112-1.112,4.67,0,4.67c1.111,0,3.336-0.854,3.336-0.854
		L122.59,30.798z"/>
	<path fill="#FFB8B8" d="M121.923,46.809c0,0,6.449-2.224,6.671-2.224c0.223,0,3.336-1.78,3.114-2.446l-0.89-5.56
		c0,0-3.559-7.338-1.112-7.338s3.78,5.782,3.78,5.782s5.338,10.007,2.447,12.23c-2.892,2.224-14.9,6.227-15.567,5.56
		S121.923,46.809,121.923,46.809L121.923,46.809z"/>
	<path fill="#9F616A" d="M128.15,32.354l1.5,1.447l-1.945,1.889c0,0-2.669-1.112-2.446-0.445c0.222,0.667,1.556,2.669,2.446,2.669
		s5.52-2.891,5.539-3.78c0.02-0.89-2.87-4.004-3.538-4.226C129.039,29.686,128.15,32.354,128.15,32.354z"/>
	<path fill="#F2F2F2" d="M125.327,30.804c0,0,3.267,2.884,3.712,2.884s1.254-4.333,1.254-4.333s-2.636-1.718-3.613-1.25
		C125.703,28.574,125.327,30.805,125.327,30.804L125.327,30.804z"/>
	<path fill="#8985A8" d="M113.918,49.477c0,0,0-3.113,6.67-3.113h2.893l-1.336,7.338l-4.447,1.334L113.918,49.477L113.918,49.477z"
		/>
	<path fill="#2F2E41" d="M128.49,24.283c-0.654-0.003-1.307-0.043-1.956-0.12c-0.511-1.233-1.16-2.267-1.862-2.652
		c-0.498-0.446-1.268-0.77-1.869-1.027c-1.482-0.63-3.949-0.237-4.094,0.48c-2.916,1.392-2.18,3.839-2.18,3.839
		c0.453,0.958,1.471,0.533,2.332,0.1c0.221,0.694,0.74,1.283,1.484,1.31c1.424,0.054,2.115,0.65,1.771,1.436
		s-0.756,2.652,0.795,2.369c1.55-0.284,2.04,0.333,1.766,0.808c-0.273,0.474,0.692-0.944,0.692-0.944s0.864,1.287,1.924,0.386
		c0.108-0.103,0.185-0.234,0.222-0.378c0.492,0.212,0.883,0.292,1.105,0.193c1.27-0.568,0.48-1.903,0.48-1.903
		s1.696-0.26,1.15-0.217c-0.547,0.043-0.893-0.665,0.032-1.942C131.209,24.745,129.348,24.312,128.49,24.283L128.49,24.283z"/>
	<path fill="#C4A576" d="M119.254,23.072l0.949,0.316l-0.633,1.898l-0.948-0.316L119.254,23.072z"/>
	<path fill="#2F2E41" d="M44.551,40.284c0,0-0.265,0.885,1.239,1.681c1.504,0.797,1.946,3.805,0.177,4.69
		c-1.77,0.884-2.3,2.035-1.416,2.831c0.885,0.796,2.478,2.92,0.354,3.45c-2.123,0.531-2.389,1.593-1.77,2.036
		c0.62,0.442-1.415-0.797-1.415-0.797s-0.354,2.124-2.212,1.593c-1.858-0.531-7.078-10.617-4.424-12.033
		C37.739,42.319,44.551,40.285,44.551,40.284L44.551,40.284z"/>
	<path fill="#9F616A" d="M37.696,115.293l0.575,5.369l-2.493,1.533l-2.3-0.383l1.15-6.52H37.696z"/>
	<circle fill="#9F616A" cx="39.613" cy="45.499" r="5.369"/>
	<path fill="#9F616A" d="M41.435,48.088c0,0,0.48,8.149,1.054,8.149c0.576,0-6.71-0.384-6.71-0.384s3.067-5.369,1.533-7.094
		C35.778,47.033,41.435,48.088,41.435,48.088z"/>
	<path fill="#2F2E41" d="M33.478,91.134l2.492,9.587l-1.917,16.299l4.41-0.385l1.725-25.501H33.478z"/>
	<path opacity="0.2" enable-background="new    " d="M33.478,91.134l2.492,9.587l-1.917,16.299l4.41-0.385l1.725-25.501H33.478z"/>
	<path fill="#2F2E41" d="M37.312,119.703c0,0,0.192-1.15,2.11,0c1.917,1.15,9.97,4.793,5.752,5.561
		c-4.219,0.766-12.847-0.959-12.847-1.533c0-0.576-0.192-4.22,0.575-3.836C33.669,120.277,36.162,122.771,37.312,119.703z"/>
	<path fill="#9F616A" d="M34.82,118.359c0,0-3.068,4.795-3.26,6.137c-0.192,1.343-3.068-3.066-3.068-3.066l2.685-4.986l3.643,1.918
		V118.359z"/>
	<path fill="#2F2E41" d="M44.982,91.9l-3.451,11.504c0,0-6.136,16.299-6.52,16.106c-0.383-0.192-4.985-1.342-5.177-1.917
		c-0.191-0.574,5.753-16.105,5.753-16.105l0.767-9.971L44.982,91.9z M27.917,120.662c1.073-0.074,2.075,0.542,2.493,1.533
		c0.767,1.726,1.725,1.918,1.917,2.109c0.192,0.191-0.575,4.219,0,4.603c0.575,0.383,1.15,4.409-0.767,4.409
		s-4.985-2.109-4.793-2.492c0.191-0.385,0.191-3.068-0.384-4.219c-0.575-1.149-1.534-3.067,0-4.219
		C27.917,121.236,27.917,120.662,27.917,120.662L27.917,120.662z"/>
	<path fill="#C4A576" d="M46.132,74.068l0.384,3.451c0,0,2.876,2.877,3.835,6.328c0.958,3.451,8.82,9.203,6.519,9.969
		c-2.301,0.769-4.985,1.151-11.696,0c-6.711-1.149-17.257,1.344-17.257-4.983c0,0-1.342-1.726-2.3,0.767
		c-0.676,1.702-1.444,3.366-2.302,4.985c0,0-2.3-4.026-1.534-5.752c0.767-1.726,0-1.534,0.959-3.452
		c0.959-1.917,5.752-9.012,7.67-9.395c1.917-0.385,5.56-5.369,5.368-5.944C35.587,69.467,46.132,74.068,46.132,74.068z"/>
	<path fill="#575A88" d="M35.778,52.594c0,0,7.862,1.725,8.245,2.876c0.216,0.647,1.22,1.84,2.058,2.76
		c1.414,1.53,2.354,3.438,2.706,5.491c0.2,1.224-0.64,2.324-1.025,3.732c-1.15,4.219-2.013,3.164-0.863,6.232
		c1.15,3.067-5.752,4.217-8.436,2.875c-2.685-1.342-5.657-9.3-5.657-10.258c0-0.959-2.588-11.792-0.479-12.559
		C34.437,52.977,35.778,52.594,35.778,52.594z"/>
	<path fill="#9F616A" d="M46.708,61.797l2.3,10.162l7.574,3.355c0,0,5.753-1.342,5.944,0.768c0.125,1.377-6.519,1.917-6.519,1.917
		l-11.025-4.313l-2.493-9.396L46.708,61.797z"/>
	<path fill="#575A88" d="M44.023,57.962c0,0,4.794,2.876,3.643,4.41c-1.15,1.534-4.026,4.026-4.793,4.026s-1.342-4.602-1.342-5.943
		C41.531,59.113,44.023,57.962,44.023,57.962L44.023,57.962z"/>
	<path fill="#2F2E41" d="M39.227,38.528c0,0-0.294,0.98,1.372,1.862c1.666,0.882,2.156,4.214,0.196,5.195
		c-1.96,0.98-2.548,2.254-1.568,3.136c0.98,0.882,2.744,3.234,0.392,3.823c-2.352,0.588-2.646,1.764-1.96,2.254
		c0.686,0.49-1.569-0.882-1.569-0.882s-0.392,2.352-2.45,1.764c-2.058-0.588-4.112-11.278-1.817-14.031
		C33.956,39.089,39.227,38.528,39.227,38.528z"/>
	<path fill="#2F2E41" d="M39.853,37.519c0-1.436-4.296-0.405-6.138,1.6c-1.276,1.389-3.213,3.478-1.59,4.95
		c1.624,1.472-2.782,3.402-3.964,3.988c-1.182,0.585-3.515,2.374-1.408,3.575c2.106,1.2,2.072,2.412,1.28,2.7
		c-0.793,0.286,1.748-0.427,1.748-0.427s-0.257,2.37,1.883,2.36c2.141-0.012,8.282-11.776,6.815-15.046
		C37.115,38.179,39.853,37.519,39.853,37.519z"/>
	<path fill="#2F2E41" d="M38.923,37.204c5.744-0.346,6.321,3.978,6.321,3.978c-0.04,2.503-4.014,1.284-5.118,1.657
		c-1.331-0.958-3.898-2.77-5.734-4.064C35.725,37.836,37.295,37.292,38.923,37.204L38.923,37.204z"/>
	<path fill="#381E1D" d="M81.797,87.338h1.837v42.867h-1.837V87.338z"/>
	<path fill="#381E1D" d="M81.797,87.338c0,0,3.123-3.92,5.695,1.163c0,0-1.225,2.267-1.592,1.164
		c-0.368-1.103-1.248-2.75-2.278-1.772"/>
	<path fill="#FDA57D" d="M81.52,79.85c0,0,4.623,4.551,2.347,8.393c-0.144,0.24-0.39,0.402-0.666,0.438
		c-0.278,0.035-0.558-0.06-0.755-0.256c-0.785-0.775-2.025-2.703-3.551-7.471l2.627-1.104H81.52z"/>
	<path opacity="0.1" enable-background="new    " d="M78.275,55.892c0,0,4.776,1.47,3.858,7.226
		c-0.919,5.756-0.552,9.798-0.552,9.798l1.225,7.35l-2.203,3c0,0-3.797-3.797-5.084-7.654
		C74.234,71.753,74.355,56.504,78.275,55.892L78.275,55.892z"/>
	<path fill="#C4A576" d="M78.214,55.83c0,0,4.777,1.47,3.858,7.227c-0.918,5.755-0.551,9.798-0.551,9.798l1.225,7.348l-2.205,3.001
		c0,0-3.796-3.797-5.082-7.655C74.173,71.691,74.295,56.443,78.214,55.83L78.214,55.83z"/>
	<path d="M72.613,121.381l-0.783,5.864c0,0,2.01,0.823,2.613,0.637c0.602-0.187,1.658,0.57,1.658,0.57s4.49,1.42,5.373,0.146
		c0.883-1.277-1.119-1.666-2.742-2.627s-2.311-4.671-2.311-4.671L72.613,121.381z"/>
	<path fill="#333333" d="M81.184,79.99v21.677l-4.164,20.699h-4.408l0.674-19.841c0,0-4.593-16.045-2.572-22.047L81.184,79.99
		L81.184,79.99z"/>
	<path fill="#FDA57D" d="M77.787,82.725c0,0,6.42,0.908,6.877,5.351c0.027,0.278-0.074,0.555-0.275,0.749
		c-0.203,0.193-0.482,0.283-0.761,0.242c-1.091-0.156-3.233-0.969-7.295-3.896L77.787,82.725z M78.582,54.85
		c0,0-1.041,1.777-0.613,4.839c0,0-6.154-0.521-5.97-4.073c0,0,3-0.735,3.705-3.46L78.582,54.85L78.582,54.85z"/>
	<path d="M68.326,122.667l-0.783,5.864c0,0,2.01,0.822,2.613,0.637c0.602-0.186,1.658,0.57,1.658,0.57s4.492,1.42,5.373,0.145
		c0.883-1.275-1.119-1.666-2.742-2.627c-1.622-0.96-2.309-4.67-2.309-4.67L68.326,122.667L68.326,122.667z"/>
	<path opacity="0.1" enable-background="new    " d="M76.561,81.673v21.679l-4.164,20.698h-4.41l0.674-19.841
		c0,0-4.593-16.045-2.572-22.046L76.561,81.673L76.561,81.673z"/>
	<path fill="#333333" d="M76.377,81.673v21.679l-4.164,20.698h-4.41l0.674-19.841c0,0-4.592-16.045-2.572-22.046L76.377,81.673z"/>
	<path opacity="0.1" enable-background="new    " d="M74.173,55.953c0,0-3.858-2.51-6.43,4.96c-2.572,7.471-1.531,21.25-1.531,21.25
		s10.961,3.552,14.88-1.408v-7.409c0,0,2.083-8.452-0.857-15.801C80.234,57.545,77.663,58.586,74.173,55.953z"/>
	<path opacity="0.1" enable-background="new    " d="M74.05,56.137c0,0-3.858-2.511-6.43,4.96c-2.572,7.471-1.53,21.25-1.53,21.25
		s10.96,3.551,14.881-1.41v-7.41c0,0,2.081-8.449-0.857-15.799C80.113,57.728,77.541,58.77,74.05,56.137L74.05,56.137z"/>
	<path fill="#C4A576" d="M74.05,55.953c0,0-3.858-2.51-6.43,4.96c-2.572,7.471-1.53,21.25-1.53,21.25s10.96,3.552,14.881-1.408
		v-7.409c0,0,2.081-8.452-0.857-15.801C80.113,57.545,77.541,58.586,74.05,55.953L74.05,55.953z"/>
	<path opacity="0.1" enable-background="new    " d="M70.13,59.689c0,0,4.777,1.47,3.858,7.226
		c-0.918,5.756-0.551,9.798-0.551,9.798l6.125,6.186l-2.205,3c0,0-8.696-2.633-9.982-6.49C66.089,75.549,66.212,60.301,70.13,59.689
		L70.13,59.689z"/>
	<path opacity="0.1" enable-background="new    " d="M69.825,59.872c0,0,4.776,1.47,3.858,7.226
		c-0.92,5.758-0.552,9.799-0.552,9.799l6.123,6.186l-2.204,3c0,0-8.696-2.633-9.982-6.491
		C65.783,75.732,65.905,60.485,69.825,59.872L69.825,59.872z"/>
	<path fill="#C4A576" d="M69.947,59.689c0,0,4.778,1.47,3.858,7.226c-0.918,5.756-0.551,9.798-0.551,9.798l6.124,6.186l-2.205,3
		c0,0-8.696-2.633-9.982-6.49C65.905,75.549,66.028,60.301,69.947,59.689L69.947,59.689z"/>
	<path opacity="0.1" enable-background="new    " d="M75.611,52.37l2.879,2.695c-0.047,0.085-0.09,0.172-0.129,0.261
		c-0.418,0.111-0.848,0.168-1.279,0.168c-1.1,0-2.057-0.559-2.879-1.164C74.777,53.81,75.271,53.307,75.611,52.37z"/>
	<circle fill="#E0E0E0" cx="76.348" cy="48.023" r="4.96"/>
	<circle fill="#FDA57D" cx="77.173" cy="50.319" r="4.96"/>
	<path fill="#E0E0E0" d="M72.244,48.023c0,0-1.858,4.863,2.072,6.35c0.662-0.338,1.123-0.975,1.238-1.711
		c0.115-0.737-0.13-1.483-0.66-2.008L72.244,48.023L72.244,48.023z"/>
	<path fill="#E0E0E0" d="M81.188,46.934c0,0,1.711,0.415-1.289,1.456c-0.998,0.335-1.813,1.07-2.248,2.029
		c-0.272,0.584-0.773,1.03-1.385,1.232c-0.613,0.202-1.281,0.142-1.848-0.167l-0.95-0.522l-1.653-3.858l1.961-2.266l3.367-0.428
		L81.188,46.934L81.188,46.934z"/>
	<circle fill="#FDA57D" cx="75.857" cy="51.942" r="1"/>
	<path fill="#333333" d="M74.173,55.953c0,0,3.337,5.236,5.235,5.236s-1.33-4.91-1.33-4.91L78,57.637L74.173,55.953z"/>
</g>
</svg>
