<?xml version="1.0" encoding="utf-8"?>
<!-- Generator: Adobe Illustrator 16.0.0, SVG Export Plug-In . SVG Version: 6.00 Build 0)  -->
<!DOCTYPE svg PUBLIC "-//W3C//DTD SVG 1.1//EN" "http://www.w3.org/Graphics/SVG/1.1/DTD/svg11.dtd">
<svg version="1.1" id="Layer_1" xmlns="http://www.w3.org/2000/svg" xmlns:xlink="http://www.w3.org/1999/xlink" x="0px" y="0px"
	 width="193px" height="132px" viewBox="-13 0 193 132" enable-background="new -13 0 193 132" xml:space="preserve">
<g>
	<circle fill="#C4A576" fill-opacity="0.097" cx="42" cy="69" r="55"/>
	<g transform="translate(37)">
		<g transform="translate(.54)" opacity="0.9">
			<path fill="#3A3768" d="M43.323,25.886h0.812c0.239,0,0.433,0.194,0.433,0.433v12.953c0,0.239-0.193,0.433-0.433,0.433h-0.812
				c-0.238,0-0.432-0.194-0.432-0.433V26.319C42.892,26.08,43.085,25.886,43.323,25.886z"/>
			<path fill="#3A3768" d="M-12.399,15.061h0.134c0.239,0,0.433,0.194,0.433,0.433v3.684c0,0.239-0.194,0.433-0.433,0.433h-0.134
				c-0.239,0-0.433-0.194-0.433-0.433v-3.684C-12.832,15.255-12.638,15.061-12.399,15.061z"/>
			<path fill="#3A3768" d="M-12.433,23.39h0.194c0.239,0,0.433,0.194,0.433,0.433v7.052c0,0.239-0.194,0.433-0.433,0.433h-0.194
				c-0.239,0-0.433-0.194-0.433-0.433v-7.052C-12.866,23.584-12.672,23.39-12.433,23.39z"/>
			<path fill="#3A3768" d="M-12.416,34.078h0.143c0.239,0,0.433,0.194,0.433,0.433v7.12c0,0.239-0.194,0.433-0.433,0.433h-0.143
				c-0.239,0-0.433-0.194-0.433-0.433v-7.12C-12.849,34.272-12.655,34.078-12.416,34.078z"/>
			<path fill="#3A3768" d="M-4.919,0.026h41.336c4.075,0,7.379,3.304,7.379,7.379v99.246c0,4.074-3.304,7.379-7.379,7.379H-4.919
				c-4.075,0-7.379-3.305-7.379-7.379V7.405C-12.298,3.33-8.994,0.026-4.919,0.026z"/>
			<path fill="#E6E8EC" d="M11.069,3.429h6.369c0.404,0,0.732,0.328,0.732,0.732v0.126c0,0.404-0.328,0.732-0.732,0.732h-6.369
				c-0.404,0-0.732-0.328-0.732-0.732V4.161C10.337,3.757,10.665,3.429,11.069,3.429z"/>
			<circle fill="#E6E8EC" cx="20.257" cy="4.226" r="1"/>
		</g>
		<ellipse opacity="0.1" fill="#C4A576" enable-background="new    " cx="38.576" cy="129.527" rx="17.729" ry="1.807"/>
		<ellipse opacity="0.1" fill="#C4A576" enable-background="new    " cx="99.156" cy="120.42" rx="17.729" ry="1.807"/>
		<path fill="#C4A576" d="M36.41,2.994h-6.416v0.774c0,2.026-1.642,3.668-3.668,3.668H5.853c-2.026,0-3.668-1.642-3.668-3.668V2.994
			H-3.84c-1.182,0-2.315,0.47-3.15,1.305c-0.835,0.835-1.304,1.969-1.304,3.15v99.154c0,1.181,0.469,2.314,1.304,3.149
			c0.835,0.836,1.968,1.306,3.15,1.306h40.25c2.46,0,4.453-1.994,4.453-4.455V7.45C40.863,4.99,38.87,2.995,36.41,2.994L36.41,2.994
			z"/>
		<path opacity="0.3" fill="#3A3768" enable-background="new    " d="M20.001,71.134h14.767V85.9H20.001V71.134z M-1.762,51.641
			h14.767v14.767H-1.762V51.641z M-0.343,90.293h14.767v14.768H-0.343V90.293z"/>
		<path fill="#FFFFFF" d="M-3.638,15.382h14.767v14.767H-3.638V15.382z"/>
		<path fill="#C4A576" d="M6.612,20.206l-0.524,0.523c0.347,0.346,0.542,0.817,0.542,1.308c0,0.491-0.195,0.962-0.542,1.309
			l0.524,0.526C7.624,22.86,7.624,21.219,6.612,20.206z"/>
		<path fill="#C4A576" d="M7.66,19.198l-0.516,0.516c1.282,1.284,1.282,3.364,0,4.648l0.516,0.517c1.567-1.568,1.567-4.11,0-5.678
			V19.198z M5.2,21.132v-2.366H4.471l-2.18,1.817h-2.907l-0.726,0.363v2.546l0.726,0.363l1.825,2.909h1.09l-0.681-2.909h0.68
			l2.181,1.455h0.729v-2.365c0.424-0.096,0.725-0.472,0.725-0.907c0-0.434-0.301-0.81-0.725-0.906H5.2z"/>
		<path fill="#FFFFFF" d="M20.858,75.718l10.95-9.908l9.909,10.95l-10.951,9.908L20.858,75.718z"/>
		<path fill="#C4A576" d="M27.011,74.209l1.071-0.973l5.867,6.467L32.87,80.68L27.011,74.209z M29.541,80.266l1.08-0.976
			l1.702,1.894l-1.078,0.975L29.541,80.266z M31.801,76.261l1.079-0.977l2.683,2.966l-1.078,0.975L31.801,76.261L31.801,76.261z
			 M31.954,73.18l1.08-0.977l4.146,4.582l-1.08,0.976L31.954,73.18z"/>
		<path fill="#FFFFFF" d="M19.757,33.178h14.767v14.767H19.757V33.178z"/>
		<path fill="#C4A576" d="M29.945,38.793l-1.982,3.028c0.16,0.194,0.247,0.437,0.246,0.689c-0.024,0.584-0.505,1.046-1.09,1.046
			c-0.586,0-1.068-0.462-1.092-1.046c0-0.068,0.007-0.136,0.019-0.203l-1.31-0.757c-0.348,0.332-0.872,0.398-1.292,0.163
			l-1.393,1.304v1.3c0.001,0.536,0.435,0.97,0.97,0.97h8.24c0.536-0.001,0.97-0.435,0.972-0.97v-4.83l-1.325-0.884
			c-0.19,0.15-0.426,0.232-0.668,0.231c-0.097,0-0.194-0.014-0.288-0.04L29.945,38.793z"/>
		<path fill="#C4A576" d="M23.981,39.675c0.29-0.001,0.567,0.114,0.772,0.318c0.205,0.205,0.32,0.482,0.32,0.772
			c0,0.047,0,0.096-0.01,0.142l1.367,0.757c0.194-0.161,0.439-0.248,0.691-0.246c0.079,0,0.158,0.008,0.235,0.026l1.987-3.077
			c-0.272-0.384-0.267-0.899,0.012-1.278c0.28-0.378,0.77-0.535,1.217-0.388c0.447,0.146,0.75,0.563,0.75,1.034
			c0,0.086-0.01,0.173-0.03,0.257l0.946,0.627v-1.821c-0.002-0.535-0.436-0.968-0.97-0.969h-8.246c-0.536,0-0.97,0.433-0.971,0.969
			v5.212l0.908-0.87c-0.044-0.122-0.067-0.25-0.068-0.38C22.893,40.16,23.381,39.675,23.981,39.675z"/>
		<path fill="#FFFFFF" d="M1.09,49.642h14.767v14.767H1.09V49.642z"/>
		<path fill="#C4A576" d="M12.93,52.322l-9.085,4.92c-0.063,0.035-0.101,0.102-0.098,0.174c0.002,0.072,0.046,0.136,0.111,0.165
			l1.55,0.585c0.09,0.035,0.163,0.103,0.205,0.19l1.203,2.479c0.023,0.11,0.225,0.14,0.227,0.028l-0.189-2.05
			c0.01-0.152,0.07-0.297,0.167-0.414l4.708-4.614c0.028-0.026,0.067-0.038,0.104-0.03c0.036,0.009,0.065,0.035,0.077,0.07
			c0.012,0.035,0.005,0.073-0.018,0.102l-4.06,4.962c-0.085,0.121-0.14,0.262-0.158,0.409l-0.243,1.77
			c0.02,0.155,0.14,0.213,0.239,0.075l0.874-1.027c0.061-0.08,0.174-0.099,0.257-0.042l2.254,1.643
			c0.052,0.033,0.115,0.039,0.172,0.017c0.056-0.022,0.099-0.07,0.114-0.13l1.85-9.083c0.011-0.07-0.016-0.14-0.072-0.182
			c-0.055-0.043-0.13-0.052-0.194-0.022L12.93,52.322L12.93,52.322z M93.3,117.447c0.86,0.111,1.75,0.189,2.574-0.088
			c0.127-0.039,0.272-0.127,0.255-0.256c-0.01-0.047-0.029-0.09-0.059-0.125c-0.312-0.465-0.573-0.963-0.781-1.482
			c-0.008-0.027-0.023-0.051-0.047-0.066c-0.027-0.01-0.057-0.01-0.083,0c-0.38,0.098-0.708,0.344-1.087,0.448
			c-0.192,0.054-0.393,0.069-0.59,0.046c-0.17-0.02-0.405-0.16-0.559-0.145C93.018,116.342,93.234,116.874,93.3,117.447
			L93.3,117.447z M109.563,116.007c0.567-0.379,1.154-0.799,1.489-1.399c0.024-0.034,0.038-0.075,0.04-0.118
			c-0.006-0.042-0.021-0.083-0.048-0.117c-0.319-0.506-0.729-0.949-1.209-1.306c-0.251,0.178-0.478,0.387-0.676,0.623
			c-0.142,0.149-0.535,0.395-0.539,0.619c0,0.133,0.149,0.279,0.22,0.377c0.094,0.141,0.189,0.285,0.27,0.429
			C109.154,115.201,109.604,115.984,109.563,116.007z"/>
		<path fill="#514E7F" d="M96.669,119.186c0.013,0.133-0.024,0.268-0.103,0.377c-0.061,0.061-0.135,0.104-0.217,0.127
			c-1.205,0.431-2.59-0.107-3.785,0.318c-0.248,0.088-0.48,0.213-0.729,0.295c-0.293,0.09-0.597,0.143-0.901,0.16
			c-0.427,0.042-0.853,0.066-1.279,0.078c-0.322,0.023-0.646-0.005-0.961-0.083c-0.317-0.082-0.586-0.294-0.737-0.585
			c-0.065-0.129-0.078-0.277-0.036-0.416c0.018-0.049,0.044-0.094,0.077-0.134c0.082-0.091,0.178-0.169,0.284-0.23l0.443-0.284
			c0.207-0.147,0.432-0.268,0.67-0.356c0.174-0.058,0.36-0.081,0.537-0.132c0.623-0.19,1.096-0.676,1.536-1.15l0.603-0.641
			c0.056-0.07,0.127-0.127,0.207-0.166c0.084-0.029,0.171-0.038,0.259-0.027c0.584,0.043,1.149,0.232,1.64,0.553
			c0.127,0.094,0.264,0.174,0.405,0.238c0.382,0.111,0.793,0.061,1.136-0.143c0.155-0.08,0.121-0.131,0.19-0.277
			c0.067-0.145,0.222-0.24,0.358-0.105c0.041,0.047,0.07,0.103,0.086,0.162c0.131,0.43,0.08,0.891,0.08,1.338
			c-0.002,0.07,0.006,0.141,0.027,0.209c0.033,0.066,0.072,0.129,0.117,0.189c0.01,0.016,0.018,0.032,0.025,0.049
			C96.675,118.752,96.699,118.97,96.669,119.186z"/>
		<path fill="#464353" d="M96.669,119.186c0.013,0.133-0.024,0.268-0.103,0.377c-0.061,0.061-0.135,0.104-0.217,0.127
			c-1.205,0.431-2.59-0.107-3.785,0.318c-0.248,0.088-0.48,0.213-0.729,0.295c-0.293,0.09-0.597,0.143-0.901,0.16
			c-0.427,0.042-0.853,0.066-1.279,0.078c-0.322,0.023-0.646-0.005-0.961-0.083c-0.317-0.082-0.586-0.294-0.737-0.585
			c-0.065-0.129-0.078-0.277-0.036-0.416c0.018-0.049,0.044-0.094,0.077-0.134c0.071,0.147,0.123,0.34,0.167,0.409
			c0.121,0.213,0.328,0.36,0.568,0.408c0.172,0.01,0.347-0.014,0.512-0.066c1.09-0.27,2.249-0.274,3.293-0.684
			c0.35-0.164,0.71-0.303,1.08-0.414c0.385-0.059,0.775-0.091,1.165-0.095c0.614-0.05,1.21-0.235,1.817-0.331
			C96.674,118.753,96.698,118.971,96.669,119.186z"/>
		<path fill="#514E7F" d="M112.311,115.934c-0.057,0.455-0.347,0.85-0.664,1.183c-0.34,0.31-0.65,0.649-0.928,1.016
			c-0.314,0.478-0.453,1.066-0.857,1.47c-0.153,0.149-0.326,0.276-0.514,0.377c-0.213,0.125-0.437,0.229-0.668,0.308
			c-0.604,0.19-1.256,0.149-1.894,0.104c-0.205-0.002-0.407-0.043-0.599-0.117c-0.088-0.045-0.172-0.096-0.252-0.154
			c-0.156-0.1-0.285-0.234-0.379-0.391c-0.048-0.088-0.061-0.188-0.037-0.283c0.039-0.107,0.104-0.202,0.19-0.276
			c0.142-0.147,0.294-0.285,0.455-0.41c0.224-0.144,0.423-0.319,0.595-0.522c0.105-0.16,0.182-0.336,0.229-0.522
			c0.091-0.323,0.148-0.657,0.166-0.994c0-0.223,0.023-0.446,0.07-0.663c0.098-0.341,0.351-0.649,0.32-1.004
			c-0.01-0.05-0.006-0.103,0.014-0.15c0.031-0.036,0.072-0.063,0.119-0.074c0.198-0.078,0.407-0.126,0.62-0.143
			c0.214-0.014,0.423,0.07,0.568,0.226c0.089,0.106,0.146,0.254,0.276,0.301c0.063,0.013,0.127,0.013,0.189,0
			c0.316-0.032,0.656-0.071,0.9-0.278c0.235-0.211,0.373-0.51,0.379-0.826c0-0.117-0.053-0.24,0.127-0.266
			c0.138-0.019,0.246,0.125,0.316,0.221c0.275,0.322,0.482,0.699,0.606,1.106c0.037-0.015,0.075-0.022,0.116-0.022
			c0.164-0.002,0.318,0.076,0.412,0.211C112.299,115.527,112.343,115.732,112.311,115.934L112.311,115.934z"/>
		<path fill="#464353" d="M112.311,115.934c-0.057,0.455-0.347,0.85-0.664,1.183c-0.34,0.31-0.65,0.649-0.928,1.016
			c-0.314,0.478-0.453,1.066-0.857,1.47c-0.153,0.149-0.326,0.276-0.514,0.377c-0.213,0.125-0.437,0.229-0.668,0.308
			c-0.604,0.19-1.256,0.149-1.894,0.104c-0.205-0.002-0.407-0.043-0.599-0.117c-0.088-0.045-0.172-0.096-0.252-0.154
			c-0.156-0.1-0.285-0.234-0.379-0.391c0.121-0.061,0.254-0.092,0.389-0.094c0.283,0.016,0.486,0.28,0.758,0.361
			c0.378,0.115,0.757-0.155,1.152-0.248c0.254-0.059,0.522-0.041,0.77-0.123c0.209-0.08,0.4-0.197,0.568-0.344
			c0.229-0.165,0.435-0.362,0.607-0.588c0.145-0.223,0.264-0.461,0.358-0.711c0.204-0.478,0.444-0.939,0.72-1.379
			c0.041-0.07,0.09-0.133,0.148-0.19c0.059-0.054,0.133-0.095,0.189-0.144c0.26-0.189,0.367-0.523,0.457-0.834
			c0.025-0.097,0.059-0.189,0.104-0.278c0.164-0.003,0.318,0.077,0.412,0.212C112.297,115.536,112.339,115.736,112.311,115.934
			L112.311,115.934z"/>
		<path fill="#A1616A" d="M85.123,75.507c0.32,0.241,0.583,0.55,0.771,0.903c0.189,0.355,1.229,3.119,1.168,3.514
			c0.34-0.344,1.691-0.4,2.03-0.742c0.144-0.145,0.923-0.863,1.037-1.031c0.116-0.166,0.981-0.523,1.077-0.693
			c0.354-0.634-2.51-3.027-2.145-3.664c0.021-0.029,0.031-0.063,0.03-0.1c-0.008-0.029-0.024-0.055-0.047-0.074
			c-0.255-0.221-0.532-0.41-0.83-0.568c-0.3-0.162-0.526-0.433-0.631-0.757c-0.271,0.124-0.517,0.292-0.733,0.496
			c-0.522,0.448-1.039,0.907-1.547,1.377c-0.201,0.19-0.584,0.431-0.676,0.692C84.536,75.123,84.932,75.352,85.123,75.507
			L85.123,75.507z"/>
		<path fill="#514E7F" d="M89.757,74.486c-0.44,0.296-0.85,0.631-1.226,1.004c-0.356,0.35-0.693,0.757-0.782,1.251
			c-0.036,0.19-0.03,0.39-0.06,0.585c-0.127,0.848-0.863,1.47-1.188,2.271c-0.095,0.244-0.164,0.498-0.208,0.756
			c-0.09,0.49-0.14,0.988-0.147,1.488c0,0.484,0.465,0.817,0.64,1.27c0.146,0.449,0.248,0.908,0.31,1.375
			c0.189,0.871,0.447,1.726,0.773,2.556c0.64,1.767,2.712,6.649,3.352,8.416c1.959-0.492,7.174-1.622,8.907-2.649
			c0.58-0.345-4.012-4.235-3.394-4.504c0.072-0.021,0.133-0.068,0.173-0.131c0.02-0.063,0.02-0.128,0-0.189
			c-0.617-2.705-2.554-4.92-3.429-7.57c-0.306-0.913-0.853-1.693-1.269-2.564c-0.378-0.787-0.577-1.656-1.026-2.402
			c-0.086-0.154-0.195-0.293-0.326-0.41c-0.113-0.086-0.235-0.159-0.363-0.219c-0.248-0.133-0.487-0.207-0.737-0.33V74.486z"/>
		<circle fill="#A1616A" cx="85.227" cy="72.133" r="3.066"/>
		<path fill="#464353" d="M88.346,73.573c0.313-0.288,0.771-0.354,1.152-0.164c0.219,0.094,0.355,0.313,0.343,0.552l1.515,0.023
			c0.242-0.006,0.483,0.017,0.72,0.065c0.239,0.052,0.452,0.187,0.602,0.38c0.021,0.023,0.04,0.053,0.07,0.057
			c0.026,0,0.05-0.008,0.069-0.023c0.234-0.12,0.498-0.166,0.759-0.137c0.819,0.053,1.582,0.466,2.225,0.979
			c0.118,0.08,0.21,0.192,0.265,0.323c0.054,0.173,0,0.394,0.125,0.511c0,1.43,0.49,2.76,0.818,4.15
			c0.057,0.249,0.295,0.466,0.46,0.661c0.203,0.216,0.37,0.464,0.491,0.733c0.277,0.723-0.105,1.567,0.165,2.293
			c0.138,0.297,0.313,0.572,0.522,0.823c0.244,0.306,0.397,0.675,0.444,1.063c0.013,0.174-0.011,0.348,0,0.523
			c0.017,0.234,0.058,0.465,0.125,0.69c0.11,0.417,0.228,0.836,0.349,1.252c0.189,0.674,0.455,1.401,1.058,1.762
			c-1.459,0.248-2.996,0.488-4.388-0.017c-0.192-0.066-0.377-0.159-0.547-0.274c-0.5-0.358-0.742-0.971-0.959-1.549
			c-0.242-0.649-0.487-1.308-0.537-1.998c0.002-0.22-0.029-0.44-0.09-0.653c-0.143-0.377-0.518-0.604-0.861-0.812
			c-0.387-0.212-0.736-0.483-1.036-0.806c-0.302-0.328-0.454-0.768-0.42-1.211c0.026-0.215,0.11-0.42,0.12-0.637
			c0.025-0.22-0.094-0.433-0.297-0.523c-1.061-0.322-1.568-1.579-1.805-2.663c-0.103-0.563-0.148-1.132-0.137-1.703l-0.014-1.097
			c-0.295-0.269-0.469-0.647-0.477-1.049c0.018-0.113,0.018-0.23,0-0.346c-0.05-0.143-0.133-0.273-0.242-0.378
			C88.697,74.141,88.499,73.87,88.346,73.573z M85.08,77.08c-0.035,0.343,0.043,0.693-0.035,1.029
			c-0.029,0.129-0.081,0.252-0.12,0.379c-0.114,0.482-0.063,0.99,0.144,1.441c0.205,0.448,0.451,0.875,0.736,1.278
			c0.096,0.136,0.176,0.284,0.235,0.44c0.05,0.164,0.08,0.334,0.091,0.506c0.075,0.685,0.196,1.363,0.362,2.031
			c0.144,0.584,0.33,1.172,0.715,1.635c0.069,0.1,0.175,0.172,0.295,0.199c0.087,0.004,0.174-0.015,0.252-0.053l0.784-0.297
			c0.068-0.02,0.133-0.053,0.189-0.098c0.07-0.086,0.109-0.195,0.109-0.307c0.055-0.633-0.135-1.259-0.345-1.856
			c-0.636-1.806-1.479-3.545-1.892-5.413c-0.117-0.521-0.177-1.325-0.558-1.732c-0.157-0.17-0.104-0.098-0.291,0
			c-0.095,0.043-0.187,0.092-0.274,0.146C85.25,76.561,85.104,76.809,85.08,77.08L85.08,77.08z"/>
		<path fill="#C4A576" d="M87.439,80.505c0.211,1.103,0.422,2.204,0.64,3.308l3.043-0.799c0.024-0.318-0.146-0.613-0.263-0.91
			c-0.278-0.697-0.284-1.471-0.51-2.187c-0.17-0.545-0.466-1.047-0.625-1.597c-0.093-0.316-0.138-0.649-0.229-0.969
			c-0.098-0.317-0.219-0.627-0.357-0.927c-0.172-0.435-0.395-0.849-0.664-1.231c-0.391,0.146-0.805,0.313-1.026,0.664
			c-0.115,0.199-0.181,0.425-0.189,0.654c-0.053,0.686,0.19,1.372,0.112,2.051c-0.082,0.646-0.059,1.304,0.07,1.942H87.439z"/>
		<path fill="#464353" d="M91.173,95.189c0.17,0.65-0.077,1.324-0.278,1.972c-0.305,0.967-0.513,1.962-0.621,2.97
			c-0.01,0.26-0.063,0.514-0.152,0.758c-0.113,0.207-0.236,0.409-0.37,0.604c-0.306,0.542-0.298,1.204-0.231,1.823
			c0.043,0.408,0.109,0.815,0.189,1.219c0.1,0.49,0.223,1.005,0.079,1.482c0.239-0.053,0.405,0.258,0.396,0.506
			c-0.011,0.248-0.097,0.514,0.021,0.73c0.299,0.107,0.303,0.52,0.293,0.835c0.005,0.552,0.073,1.101,0.207,1.636
			c0.45,2.168,0.93,4.332,1.438,6.489c1.096,0.341,2.375,0.694,3.42,0.224c0.205-0.067,0.367-0.23,0.433-0.437
			c0.01-0.112-0.004-0.228-0.042-0.335l-0.495-1.801c-0.149-0.426-0.21-0.876-0.179-1.325c0.05-0.335,0.189-0.694,0.031-0.988
			c-0.058-0.1-0.145-0.19-0.209-0.276c-0.261-0.379-0.125-0.887-0.102-1.35c0.007-0.103,0-0.207-0.023-0.308
			c-0.035-0.118-0.084-0.231-0.146-0.339c-0.408-0.795-0.604-1.682-0.567-2.574c0.016-0.114,0-0.23-0.046-0.337
			c-0.032-0.042-0.06-0.088-0.083-0.136c-0.02-0.084-0.011-0.17,0.026-0.248c-0.149-0.108-0.283-0.236-0.4-0.379
			c0.144-0.092,0.237-0.244,0.257-0.414c0.018-0.17-0.041-0.338-0.16-0.461c0.107-0.02,0.193-0.101,0.224-0.207
			c0.03-0.105-0.003-0.219-0.084-0.293c-0.065-0.047-0.147-0.064-0.19-0.129c-0.07-0.095-0.013-0.229,0.045-0.332l0.303-0.547
			c0.225-0.404,0.275-0.906,0.518-1.302c0.328-0.579,0.596-1.19,0.799-1.821l0.863-2.404l0.586,0.51
			c0.197,0.148,0.359,0.336,0.482,0.55c0.084,0.21,0.137,0.433,0.156,0.658c0.215,1.306,1.039,2.438,1.344,3.728
			c0.041,0.291,0.136,0.572,0.275,0.832c0.061,0.075,0.113,0.154,0.16,0.238c0.042,0.127,0.064,0.262,0.064,0.396
			c0.056,0.533,0.34,1.017,0.779,1.324c0.287,0.189,0.652,0.334,0.805,0.649c0.033,0.097,0.076,0.19,0.132,0.276
			c0.14,0.168,0.442,0.188,0.503,0.398c0.033,0.12-0.03,0.26,0.038,0.363c0.036,0.048,0.086,0.085,0.142,0.105l0.846,0.424
			c0.946,0.473,1.424,1.553,2.123,2.346c0.239,0.256,0.453,0.538,0.633,0.84c0.301,0.538,0.44,1.213,0.947,1.561
			c0.135,0.07,0.26,0.162,0.366,0.271c0.161,0.21,0.103,0.506,0.116,0.77c0.014,0.267,0.217,0.58,0.469,0.5
			c-0.09,0.32-0.09,0.66,0,0.979c1.104-0.058,2.157-0.483,2.99-1.212c0.246-0.215,0.484-0.49,0.486-0.814
			c0.002-0.058-0.01-0.113-0.036-0.164c-0.048-0.063-0.114-0.113-0.189-0.144c-0.788-0.429-1.026-1.42-1.423-2.226
			c-0.35-0.709-0.865-1.324-1.302-1.983c-0.946-1.42-1.578-3.136-3-4.074c-0.312-0.207-0.675-0.39-0.83-0.729
			c-0.067-0.2-0.122-0.402-0.167-0.606c-0.055-0.208-0.232-0.358-0.445-0.379c0.09-0.308,0.125-0.627,0.102-0.946
			c0.01-0.138-0.006-0.275-0.047-0.406c-0.053-0.143-0.123-0.276-0.207-0.401c-0.371-0.63-0.557-1.353-0.537-2.082
			c0.013-0.379,0.078-0.757-0.035-1.119c-0.057-0.188-0.155-0.346-0.225-0.522c-0.104-0.314-0.158-0.643-0.164-0.975l-0.076-1.247
			c-0.01-0.415-0.065-0.827-0.161-1.231c-0.263-0.967-0.515-5.02-1.406-5.475c-0.892-0.457-2.413,2.66-3.407,2.723
			c-0.443,0.02-0.882,0.104-1.302,0.25c-0.664,0.25-1.222,0.716-1.765,1.17l-1.84,1.546C91.964,94.68,91.581,94.956,91.173,95.189
			L91.173,95.189z M82.348,68.729c0.435-0.543,1.09-0.863,1.785-0.871c0.688,0,1.366,0.17,1.973,0.496
			c0.179,0.102,0.369,0.181,0.567,0.236c0.325,0.066,0.685-0.023,0.978,0.133c0.391,0.207,0.465,0.732,0.431,1.172
			s-0.116,0.92,0.117,1.295c0.081,0.108,0.155,0.221,0.225,0.338c0.073,0.236,0.065,0.49-0.021,0.721
			c-0.135-0.15-0.26-0.311-0.379-0.475c-0.135-0.15-0.369-0.252-0.535-0.141c-0.166,0.112-0.166,0.318-0.174,0.502
			s-0.058,0.405-0.23,0.465c-0.146,0.028-0.293-0.031-0.38-0.15c-0.296-0.363-0.177-0.946-0.47-1.311
			c-0.17-0.207-0.447-0.308-0.603-0.525c-0.121-0.17-0.151-0.391-0.258-0.567c-0.106-0.176-0.354-0.319-0.521-0.19
			c-0.056,0.056-0.103,0.121-0.138,0.19c-0.212,0.302-0.603,0.42-0.946,0.283c-0.129-0.077-0.267-0.136-0.41-0.177
			c-0.192-0.01-0.373,0.089-0.469,0.255c-0.09,0.165-0.133,0.353-0.123,0.541c0,0.256,0.047,0.536-0.102,0.743
			c-0.061,0.076-0.135,0.141-0.221,0.19c-0.217,0.138-0.514,0.229-0.719,0.073c-0.137-0.128-0.197-0.319-0.16-0.503
			c0.039-0.181,0.091-0.358,0.154-0.532c0.112-0.4-0.035-0.854,0.09-1.232C81.943,69.344,82.124,69.021,82.348,68.729z"/>
		<path fill="#C4A576" d="M83.99,77.875c-0.02,0.096-0.01,0.193,0.029,0.282c0.039,0.06,0.09,0.11,0.153,0.147
			c0.437,0.271,0.933,0.43,1.445,0.467c0.067,0.002,0.131,0.021,0.19,0.052c0.109,0.103,0.144,0.264,0.084,0.403
			c-0.06,0.135-0.09,0.279-0.091,0.428c0.038,0.27,0.358,0.393,0.63,0.428c0.381,0.077,0.773,0,1.096-0.212
			c0.205-0.187,0.361-0.42,0.453-0.681c0.744-1.703,1.004-3.596,1.758-5.299c0.058-0.109,0.097-0.229,0.113-0.354
			c0.017-0.126-0.037-0.251-0.14-0.327c-0.14-0.087-0.358-0.038-0.452-0.172c-0.048-0.07-0.042-0.163-0.084-0.235
			c-0.087-0.154-0.314-0.136-0.47-0.22c-0.122-0.065-0.207-0.188-0.343-0.226c-0.135-0.006-0.266,0.051-0.354,0.154
			c-0.44,0.412-0.674,0.997-0.92,1.549c-0.38,0.848-0.821,1.664-1.325,2.444c0.06-0.091-0.279-0.782-0.412-0.808
			c-0.23-0.049-0.529,0.359-0.654,0.512C84.309,76.688,84.064,77.264,83.99,77.875L83.99,77.875z"/>
		<path fill="#FFFFFF" d="M85.539,80.297h14.768v14.768H85.539V80.297z"/>
		<path fill="#C4A576" d="M93.037,85.256v-1.938h-4.842v8.724h9.453v-6.786H93.037z M90.132,91.07h-0.967v-0.969h0.967v0.971V91.07z
			 M90.132,89.133h-0.967v-0.969h0.967V89.133L90.132,89.133z M90.132,87.195h-0.967v-0.971h0.967V87.195z M90.132,85.255h-0.967
			v-0.97h0.967V85.255z M92.068,91.07h-0.965v-0.969h0.967l-0.002,0.971V91.07z M92.068,89.133h-0.965v-0.969h0.967L92.068,89.133
			L92.068,89.133z M92.068,87.195h-0.965v-0.971h0.967L92.068,87.195L92.068,87.195z M92.068,85.255h-0.965v-0.97h0.967
			L92.068,85.255L92.068,85.255z M96.682,91.07h-3.645v-0.969h0.967v-0.969h-0.967v-0.969h0.967v-0.971h-0.967v-0.969h3.645V91.07z
			 M95.834,87.195h-0.967v0.971h0.967V87.195L95.834,87.195z M95.834,89.133h-0.967v0.971h0.967V89.133L95.834,89.133z"/>
		<path fill="#A1616A" d="M100.188,88.432c-0.254,0.225-0.488,0.469-0.701,0.734c-0.215,0.268-0.329,0.602-0.321,0.945
			c0.001,0.1,0.033,0.195,0.09,0.277c0.062,0.079,0.168,0.112,0.265,0.08c0.051-0.027,0.094-0.066,0.129-0.115
			c0.136-0.164,0.281-0.322,0.435-0.473c0.058-0.055,0.129-0.113,0.204-0.093c0.033,0.012,0.064,0.032,0.09,0.06
			c0.089,0.074,0.154,0.174,0.188,0.285c0.021,0.204-0.053,0.407-0.199,0.551c-0.148,0.141-0.264,0.312-0.34,0.502
			c-0.02,0.051-0.02,0.109,0,0.16c0.026,0.037,0.061,0.067,0.101,0.088c0.377,0.205,0.825,0.233,1.226,0.08
			c0.262-0.105,0.489-0.287,0.756-0.381c0.115-0.029,0.229-0.072,0.336-0.124c0.154-0.102,0.261-0.261,0.297-0.442
			c0.033-0.18,0.039-0.365,0.02-0.547c-0.033-0.709-0.187-1.406-0.455-2.063c-0.014-0.042-0.039-0.08-0.074-0.11
			c-0.037-0.021-0.08-0.033-0.125-0.035c-0.33-0.035-0.875-0.205-1.195-0.082c-0.112,0.061-0.209,0.147-0.282,0.252
			C100.555,88.047,100.188,88.344,100.188,88.432z"/>
		<path fill="#464353" d="M100.073,88.139c0-0.318-0.394-1.08,0.229-1.137c0-0.336-0.479-0.548-0.392-0.904
			c0.03-0.121,0.126-0.218,0.142-0.339c0.04-0.346-0.585-0.534-0.482-0.866c0.037-0.127,0.176-0.205,0.205-0.334
			c0.07-0.299-0.465-0.433-0.475-0.74c0-0.104,0.057-0.201,0.053-0.303c0-0.132-0.112-0.23-0.176-0.342
			c-0.16-0.29-0.082-0.738-0.378-0.886c0.189,0.015,0.263-0.274,0.181-0.452c-0.084-0.178-0.246-0.331-0.246-0.527
			c0.009-0.072,0.009-0.146,0-0.219c-0.055-0.189-0.366-0.201-0.418-0.392c-0.004-0.07-0.004-0.142,0-0.214
			c-0.019-0.147-0.17-0.238-0.312-0.281c-0.147-0.023-0.288-0.074-0.416-0.148c-0.091-0.07-0.19-0.189-0.294-0.123
			c-0.036,0.021-0.055,0.063-0.083,0.096c-0.116,0.134-0.337,0.074-0.485-0.025c-0.433-0.293-0.646-0.82-0.74-1.336
			c-0.096-0.516-0.09-1.047-0.203-1.559c-0.035-0.157-0.081-0.313-0.139-0.465c-0.09-0.146-0.162-0.303-0.22-0.466
			c-0.022-0.297,0.595-0.094,0.83-0.063c0.228,0.021,0.453,0.063,0.673,0.127c0.234,0.088,0.463,0.188,0.688,0.3
			c0.945,0.415,2.066,0.466,2.82,1.16c0.248,0.229,0.455,0.528,0.775,0.63c0.146,0.029,0.292,0.068,0.436,0.113
			c0.357,0.17,0.412,0.643,0.607,0.986c0.061,0.09,0.114,0.185,0.16,0.282c0.037,0.118,0.055,0.24,0.052,0.364l0.026,0.898
			c0.044,1.515,0.089,3.016-0.072,4.512c-0.053,0.492-0.127,1,0.018,1.477c0.037,0.128,0.092,0.251,0.125,0.378
			c0.029,0.154,0.047,0.31,0.049,0.468l0.021,0.58c0.009,0.047-0.002,0.096-0.028,0.135c-0.043,0.035-0.102,0.051-0.156,0.039
			c-0.813-0.072-1.631-0.53-2.396-0.254"/>
		<path fill="#A1616A" d="M84.982,85.768c-0.035,0.017-0.067,0.043-0.09,0.074c-0.17,0.229-0.17,0.54,0,0.77
			c0.02,0.021,0.033,0.048,0.045,0.074c0.006,0.045-0.002,0.09-0.023,0.129c-0.08,0.156-0.057,0.346,0.061,0.478
			c0.058,0.05,0.137,0.074,0.174,0.138c0.066,0.11-0.025,0.25-0.01,0.379c0.019,0.168,0.217,0.252,0.377,0.272
			c0.133,0.03,0.271-0.006,0.37-0.099c0.066-0.102,0.066-0.232,0-0.334c-0.067-0.101-0.151-0.185-0.25-0.25
			c0.189-0.01,0.341-0.158,0.357-0.347c0.014-0.184-0.068-0.362-0.216-0.472c-0.034-0.028-0.075-0.057-0.086-0.102
			c-0.01-0.045,0.037-0.108,0.078-0.151c0.19-0.19,0.336-0.653-0.021-0.757c-0.126-0.022-0.255-0.016-0.378,0.017
			c-0.092,0.028-0.092,0.083-0.161,0.12C85.141,85.746,85.063,85.727,84.982,85.768L84.982,85.768z"/>
		<path opacity="0.1" enable-background="new    " d="M88.701,72.695c-0.188,0.004-0.365,0.093-0.48,0.242
			c-0.119,0.194-0.188,0.416-0.201,0.644c-0.115,0.728-0.373,1.426-0.756,2.055 M89.363,73.214
			c-0.262,0.005-0.502,0.149-0.629,0.378c-0.086,0.204-0.139,0.42-0.158,0.643c-0.11,0.488-0.325,0.947-0.631,1.345"/>
		
			<linearGradient id="SVGID_1_" gradientUnits="userSpaceOnUse" x1="35.2891" y1="79.7051" x2="35.2891" y2="80.7051" gradientTransform="matrix(26.8301 0 0 -56.869 -914.897 4662.9507)">
			<stop  offset="0" style="stop-color:#808080;stop-opacity:0.25"/>
			<stop  offset="0.54" style="stop-color:#808080;stop-opacity:0.12"/>
			<stop  offset="1" style="stop-color:#808080;stop-opacity:0.1"/>
		</linearGradient>
		<path fill="url(#SVGID_1_)" d="M45.348,128.975c-0.154-0.649-0.246-1.217-0.246-1.217c0.014-0.43-0.084-0.855-0.281-1.236v-1.483
			c0.09-0.237,0.199-0.466,0.328-0.683c0.235-0.41,0-1.912,0-1.912s-0.869-2.117-0.66-3.461c0.211-1.344-1.786-5.967-1.786-5.967
			c0.013-0.447,0.075-0.893,0.19-1.326c0.02-0.09,0.029-0.183,0.023-0.275v-0.034v0.011c-0.029-0.886-0.73-2.547-0.73-2.547
			l0.094-3.164c0,0,0.447-1.867-0.281-4.373c-0.255-0.875-0.418-1.574-0.521-2.115l-0.033-0.176c1.5-0.229,2.649-0.42,2.649-0.42
			s-0.87-3.643-1.46-4.279c-0.588-0.64-1.057-2.642-1.057-2.642s-0.307-2.573,0.189-3.325c0.496-0.75,0.567-2.05,0.567-2.05
			s1.135-0.819,1.271-1.184c0.199-0.519,0.328-1.063,0.377-1.617c0-0.433-0.142-0.819-0.094-1.048c0.047-0.23-0.33-1.092-0.14-1.503
			c0.048-0.126,0.073-0.261,0.073-0.396v-0.012c0-0.357-0.032-0.716-0.1-1.068c-0.326-0.277-0.707-0.48-1.117-0.599l-0.024-0.097
			l-0.063-0.256c-0.037-0.024-0.074-0.047-0.113-0.065v-0.474l0.177-0.832c0.348-1.444-1.582-1.66-1.582-1.66
			c-0.117-0.223-0.312-0.393-0.547-0.48c-0.38-0.137-0.063,2.176,0.116,2.324c0.138,0.109,0.568,0.836,0.758,1.191l0.033,0.06
			c-0.031,0.028-0.062,0.06-0.088,0.092l0.073,0.503l0.013,0.076c-0.129,0.159-0.233,0.336-0.31,0.525c0,0,0.354,0.388,0.282,0.82
			c-0.027,0.34,0.013,0.68,0.117,1.002c-0.021-0.025-0.269-0.293-0.516-0.228c-0.248,0.065-0.947,0.272-0.947,0.272
			s-0.519,0.091-0.471,0.205c0.047,0.112-0.353,0.614-0.353,0.614l-1.39-1.325c-0.017-0.039-0.03-0.08-0.043-0.119
			c-0.057-0.185-0.097-0.375-0.119-0.567c0.15-0.036,0.3-0.083,0.442-0.142c0.144-0.051,0.274-0.135,0.38-0.246
			c0.115-0.182,0.192-0.387,0.223-0.601c0.109-0.405,0.346-0.766,0.517-1.149c0.28-0.646,0.374-1.358,0.269-2.055
			c-0.021-0.216-0.095-0.423-0.213-0.604c-0.227-0.313-0.64-0.44-0.945-0.69c-0.307-0.248-0.492-0.627-0.842-0.814
			c-0.334-0.146-0.705-0.178-1.057-0.09c-0.695,0.112-1.363,0.354-1.97,0.715c-0.204,0.119-0.426,0.259-0.66,0.217
			c-0.194-0.059-0.361-0.182-0.476-0.348v-0.021l-0.017-0.019c-0.146,0.328-0.22,0.684-0.215,1.041v0.273
			c-0.001,0.025-0.005,0.051-0.012,0.073c-0.028,0.071-0.072,0.137-0.128,0.19c-0.044,0.047-0.082,0.099-0.114,0.154
			c0-0.019,0.011-0.037,0.019-0.057c-0.09,0.129-0.14,0.279-0.146,0.438c-0.007,0.114,0.03,0.228,0.106,0.313
			c0.069,0.069,0.144,0.134,0.225,0.19c-0.026,0.151-0.04,0.307-0.04,0.461c0.006,0.941,0.502,1.813,1.311,2.295l0.047,0.121
			c0.201,0.477,0.287,0.996,0.252,1.513c0,0.038,0,0.073-0.018,0.112l-0.049,0.057c0,0-2.297,0.021-2.839-0.469
			c-0.54-0.489-1.364,1.197-1.364,1.197s-0.823,0.16-0.988,0s-1.136-0.022-1.136-0.022c-0.394-0.351-0.907-0.536-1.434-0.523
			c-0.322-0.245-0.677-0.442-1.054-0.586l-0.027-0.01c-0.166-0.06-0.343-0.082-0.518-0.063c0,0-1.136-0.936-1.457-1.436
			c-0.322-0.5-1.893-2.359-1.906-2.37v-0.088l-0.02-0.271c-0.046,0.008-0.092,0.012-0.14,0.014c0-0.029-0.018-0.061-0.031-0.096
			c-0.09-0.261-0.202-0.514-0.333-0.756c0,0,0-0.341,0.1-0.427c0.1-0.085-0.042-1.338-0.042-1.338s-1.018-2.379-1.928-0.604
			c0,0-1.724,1.15-0.278,2.49c0,0,0.567,0.277,0.658,0.499c0.055,0.144,0.25,0.548,0.379,0.813l0.058,0.119l-0.017,0.014
			l0.023,0.223v0.088c-0.273,0.153-0.456,0.307-0.413,0.424c0.081,0.197,0.137,0.404,0.165,0.615c0,0,2,2.504,2.26,3.574
			c0,0,5.363,3.188,7.127,3.416l-0.305,1.594c-0.045,0.432-0.069,0.864-0.07,1.299c0.023,0.34-0.212,1.892-0.212,1.892
			s-0.306,2.272-0.568,2.595c-0.26,0.324-0.211,1.686-0.211,1.686c-0.062,0.654-0.18,1.302-0.353,1.935
			c-0.259,0.867-0.07,1.937-0.07,1.937s-0.895,2.051,1.248,0.66c0,0,1.05-0.063,2.27-0.105v0.623
			c-0.014,1.173-0.022,2.791,0.03,4.016c0.096,2.163,0.758,6.434,0.758,6.434v2.15c-0.041,0.202-0.062,0.408-0.06,0.615
			c-0.016,0.758,0.184,1.506,0.578,2.154l0.165,1.434c0,0,0.379,0.947,0.394,1.514c-0.002,0.047-0.007,0.092-0.017,0.137
			c-0.014,0.072-0.02,0.146-0.02,0.221c-0.02,0.65,0.38,2.21,0.38,2.21s0.024,1.569,0.259,1.661c0.2,0.078-0.27,0.906-0.41,1.136
			l-0.009-0.046l-0.028,0.048c-0.049,0.126-0.074,0.261-0.074,0.397c-0.028,0.22,0.074,0.435,0.261,0.553
			c0.447,0.273,0.687,0.501,0.309,0.592c-0.14,0.021-0.278,0.051-0.415,0.088c0-0.018-0.015-0.037-0.02-0.054
			c-0.102,0.046-0.162,0.151-0.148,0.263c0.004,0.187,0.053,0.368,0.142,0.532c0.166,0.41,0.38,0.8,0.636,1.162l0.189-0.021
			c-0.028,0.066-0.063,0.129-0.106,0.189c-0.068,0.098-0.159,0.18-0.265,0.234c-0.099,0.059-0.208,0.097-0.322,0.111
			c-0.258,0.006-0.5,0.125-0.666,0.323c-0.235,0.304-0.378,0.718,0.082,1.08l1.682,0.58c0,0,2.895,0.378,2.74-0.272
			c-0.153-0.65-0.246-1.217-0.246-1.217c0.012-0.398-0.07-0.792-0.236-1.152c-0.029-0.061-0.063-0.117-0.102-0.17l0.102-0.013
			c0,0,0.213-1.434,0.494-1.702c0.066-0.063,0.081-0.113,0.064-0.15c0.029-0.077-0.045-0.122-0.139-0.149l-0.021,0.058
			c-0.093-0.021-0.187-0.03-0.28-0.03c0,0-0.095-0.757,0.21-1.026c0.05-0.063,0.072-0.145,0.06-0.224
			c0.002-0.103-0.008-0.206-0.031-0.306l-0.01,0.019c-0.176-0.606-0.4-1.198-0.678-1.767c0,0-0.021-0.683,0.165-0.957
			s-0.022-3.711-0.022-3.711s0.07-1.662-0.143-2.436c-0.212-0.773,0.26-1.688,0.26-1.688v-0.06l-0.028-0.263v0.017
			c-0.048-0.44-0.136-1.237-0.202-1.604c-0.096-0.524,0.023-3.028,0.023-3.028l0.422-1.069l0.758,1.844l0.8,2.459
			c0.228,0.306,0.368,0.666,0.406,1.045v0.078c-0.005,0.055-0.005,0.11,0,0.164c-0.013,0.311,0.071,0.619,0.243,0.877
			c0,0,0.213,1.162,0.541,1.457c0.33,0.295,0.33,0.865,0.33,0.865s0.399,1.687,0.588,1.981c0.16,0.25,0.168,0.935,0.166,1.135v0.063
			c0,0,0.055,0.602,0.053,1.108v0.19v-0.014c0,0.138-0.018,0.274-0.051,0.408v-0.061c-0.084,0.344-0.123,0.697-0.119,1.05
			c-0.012,0.606,0.08,1.325,0.447,1.744c0.637,0.728,1.035,0.637,1.035,0.637s-0.306,0.91-0.683,1.095
			c-0.015,0.006-0.026,0.014-0.04,0.024c0-0.017,0-0.036-0.01-0.054c-0.082,0.094-0.122,0.218-0.109,0.341
			c0.018,0.487,0.18,0.957,0.467,1.35c0.088,0.089,0.196,0.154,0.317,0.189l-0.06,0.036c-0.041,0.022-0.086,0.043-0.131,0.062
			c-0.06,0.027-0.123,0.043-0.188,0.05c-0.258,0.008-0.501,0.125-0.666,0.323c-0.235,0.304-0.379,0.718,0.081,1.08l1.684,0.58
			C42.637,129.247,45.493,129.633,45.348,128.975L45.348,128.975z"/>
		<path fill="#2D293D" d="M34.295,130.05l-1.629-0.579c-0.448-0.363-0.305-0.779-0.078-1.08c0.157-0.197,0.392-0.316,0.644-0.324
			c0.11-0.016,0.217-0.053,0.312-0.112c0.103-0.056,0.192-0.138,0.258-0.233c0.12-0.189,0.186-0.408,0.189-0.631
			c0,0,1.788-0.523,2.271,0c0.088,0.094,0.161,0.202,0.217,0.317c0.162,0.362,0.239,0.757,0.229,1.153c0,0,0.09,0.567,0.238,1.217
			C37.093,130.426,34.295,130.049,34.295,130.05L34.295,130.05z M42.266,129.255l-1.629-0.58c-0.449-0.362-0.306-0.776-0.08-1.077
			c0.157-0.199,0.394-0.318,0.646-0.326c0.066-0.006,0.13-0.022,0.189-0.049c0.043-0.019,0.084-0.039,0.125-0.063
			c0.455-0.25,0.444-0.865,0.444-0.865s1.787-0.525,2.271,0c0.065,0.07,0.123,0.148,0.17,0.232c0.193,0.384,0.287,0.81,0.275,1.238
			c0,0,0.09,0.567,0.238,1.217S42.266,129.255,42.266,129.255z"/>
		<path opacity="0.1" enable-background="new    " d="M36.264,127.09c0.088,0.094,0.16,0.202,0.217,0.317l-2.68,0.31
			c0.121-0.188,0.187-0.406,0.19-0.63C33.991,127.087,35.775,126.566,36.264,127.09L36.264,127.09z M44.404,126.52v0.502
			c-0.416,0.687-2.432,0.537-3.016,0.189c0.043-0.018,0.084-0.039,0.125-0.063c0.457-0.25,0.444-0.865,0.444-0.865
			s1.787-0.524,2.271,0C44.297,126.355,44.355,126.434,44.404,126.52z"/>
		<path fill="#464353" d="M44.725,124.357c-0.125,0.218-0.232,0.447-0.32,0.683v1.8c-0.453,0.758-2.822,0.501-3.141,0.09
			c-0.318-0.41-0.66-1.479-0.297-1.66c0.363-0.183,0.66-1.095,0.66-1.095s-0.378,0.091-1.001-0.638s-0.433-2.346-0.317-2.732
			c0.113-0.388,0-1.685,0-1.685s0.022-0.91-0.16-1.207c-0.182-0.297-0.567-1.981-0.567-1.981s0-0.568-0.317-0.865
			c-0.318-0.297-0.525-1.457-0.525-1.457c-0.186-0.291-0.266-0.637-0.227-0.979c0.068-0.568-0.388-1.186-0.388-1.186l-0.774-2.459
			l-0.729-1.846l-0.408,1.069c0,0-0.115,2.506-0.023,3.028c0.094,0.521,0.228,1.91,0.228,1.91s-0.456,0.912-0.25,1.688
			c0.206,0.773,0.136,2.436,0.136,2.436s0.205,3.438,0.023,3.713s-0.159,0.947-0.159,0.947s0.933,2.004,0.636,2.27
			c-0.297,0.267-0.203,1.025-0.203,1.025s0.637,0,0.364,0.273c-0.272,0.271-0.479,1.703-0.479,1.703l-2.756,0.348
			c-0.25-0.363-0.456-0.752-0.617-1.162c-0.364-0.842,0.068-0.757,0.435-0.842c0.367-0.085,0.134-0.318-0.299-0.592
			c-0.433-0.275-0.19-0.889-0.19-0.889s0.661-1.115,0.434-1.207c-0.227-0.09-0.252-1.661-0.252-1.661s-0.454-1.868-0.34-2.367
			c0.113-0.5-0.365-1.704-0.365-1.704l-0.16-1.434c-0.485-0.816-0.66-1.78-0.491-2.715v-2.215c0,0-0.638-4.281-0.731-6.436
			c-0.057-1.385-0.042-3.276-0.023-4.457c0.012-0.66,0.023-1.1,0.023-1.1l9.841-1.023c0.016,0.492,0.075,0.98,0.18,1.461
			c0.101,0.54,0.257,1.24,0.503,2.114c0.706,2.504,0.275,4.372,0.275,4.372l-0.092,3.164c0,0,0.865,2.117,0.684,2.839
			c-0.111,0.433-0.176,0.877-0.189,1.325c0,0,1.937,4.623,1.731,5.967c-0.204,1.343,0.64,3.451,0.64,3.451
			S44.952,123.956,44.725,124.357z"/>
		<path opacity="0.05" enable-background="new    " d="M39.1,112.495l2.987-0.399c0,0-1.688,1.729-2.985,0.399H39.1z"/>
		<path opacity="0.1" enable-background="new    " d="M41.661,109.17c0,0,0.104,1.057-0.545,1.457
			C41.116,110.627,42.275,110.445,41.661,109.17L41.661,109.17z M41.479,105.799c0,0-2.502,2.061-3.408,1.893
			C37.166,107.523,41.479,105.799,41.479,105.799z M35.387,113.462c0,0-1.892,0.433-1.956,1.196
			C33.366,115.42,35.387,113.462,35.387,113.462z"/>
		<path opacity="0.05" enable-background="new    " d="M35.807,122.956c0,0-2.687,0.502-1.924,0.844
			c0.654,0.259,1.328,0.464,2.016,0.614C35.898,124.414,36.764,124.459,35.807,122.956z"/>
		<g opacity="0.05">
			<path d="M33.34,124.334c-0.137-0.085-0.228-0.229-0.246-0.391l-0.027,0.051c0,0-0.251,0.613,0.19,0.887
				c0.049,0.03,0.096,0.063,0.14,0.094c0.08-0.016,0.166-0.026,0.248-0.048C34.005,124.843,33.773,124.614,33.34,124.334z
				 M36.801,124.16c0.074-0.068,0.07-0.244,0.027-0.471c-0.11,0.203-0.163,0.432-0.153,0.662
				C36.702,124.279,36.745,124.213,36.801,124.16L36.801,124.16z M36.387,112.832c-0.101,0.27-0.164,0.55-0.189,0.836
				c0.053-0.195,0.121-0.385,0.209-0.568C36.406,113.1,36.41,112.99,36.387,112.832L36.387,112.832z M42.539,111.637
				c0.018-0.082,0.027-0.166,0.025-0.25c-0.035,0.17-0.058,0.329-0.074,0.467C42.505,111.781,42.52,111.709,42.539,111.637
				L42.539,111.637z M36.322,120.928c0.053-0.162,0.076-0.334,0.068-0.505c-0.084,0.201-0.129,0.418-0.131,0.638
				C36.275,121.014,36.296,120.971,36.322,120.928z M36.887,125.221c-0.141,0.456-0.246,0.924-0.313,1.398l-2.753,0.32
				c-0.25-0.363-0.457-0.754-0.617-1.164c-0.03-0.064-0.056-0.131-0.078-0.199c-0.165,0.076-0.23,0.246-0.013,0.757
				c0.16,0.41,0.367,0.799,0.617,1.16l2.75-0.32c0,0,0.207-1.434,0.48-1.702C37.096,125.324,37.009,125.256,36.887,125.221
				L36.887,125.221z M33.249,121.13c0,0,0.023,1.573,0.25,1.664c0.115-0.26,0.19-0.505,0.089-0.547
				c-0.227-0.09-0.25-1.662-0.25-1.662s-0.456-1.868-0.34-2.37c0.115-0.5-0.366-1.701-0.366-1.701l-0.159-1.436
				c-0.487-0.814-0.665-1.776-0.501-2.71v-2.212c0,0-0.638-4.281-0.729-6.444c-0.059-1.386-0.042-3.276-0.023-4.457v-0.567h-0.077
				c0,0-0.012,0.437-0.023,1.1c-0.019,1.179-0.036,3.07,0.023,4.456c0.09,2.164,0.728,6.444,0.728,6.444v2.209
				c-0.167,0.942,0.016,1.914,0.513,2.732l0.16,1.434c0,0,0.478,1.207,0.363,1.705C32.791,119.264,33.249,121.13,33.249,121.13z
				 M41.355,126.323c-0.225-0.324-0.373-0.693-0.437-1.082c-0.282,0.253,0.042,1.239,0.345,1.63s2.688,0.66,3.144-0.094v-0.434
				C43.79,126.955,41.657,126.711,41.355,126.323L41.355,126.323z M44.816,123.75c-0.125,0.218-0.231,0.447-0.318,0.684v0.319
				c0.051-0.118,0.125-0.272,0.227-0.457c0.073-0.18,0.107-0.373,0.101-0.567L44.816,123.75L44.816,123.75z M41.495,124.109
				c0.087-0.176,0.162-0.356,0.226-0.541c0,0-0.38,0.09-1.004-0.639c-0.447-0.529-0.471-1.529-0.408-2.186
				c-0.113,0.388-0.297,2.004,0.317,2.732C41.029,123.956,41.33,124.079,41.495,124.109L41.495,124.109z M40.309,119.061
				c0.039,0.448,0.055,0.898,0.045,1.35c0.016-0.09,0.033-0.162,0.045-0.213c0.115-0.379,0-1.684,0-1.684s0.023-0.912-0.158-1.207
				c-0.182-0.297-0.568-1.982-0.568-1.982s0-0.568-0.318-0.865c-0.317-0.297-0.523-1.457-0.523-1.457
				c-0.188-0.29-0.268-0.636-0.229-0.979c0.069-0.567-0.379-1.185-0.379-1.185l-0.773-2.46l-0.739-1.834l-0.41,1.069
				c0,0,0,0.134-0.013,0.346l0.333-0.868l0.728,1.844l0.774,2.459c0,0,0.454,0.615,0.379,1.184c-0.034,0.34,0.049,0.684,0.235,0.969
				c0,0,0.205,1.16,0.523,1.457s0.32,0.865,0.32,0.865s0.378,1.684,0.566,1.982C40.337,118.148,40.309,119.061,40.309,119.061z"/>
		</g>
		<path fill="#FFCDD3" d="M42.221,77.163l-0.171,0.833l0.009,0.378v0.272l-0.947,0.099l-0.105-0.188
			c-0.189-0.356-0.605-1.08-0.738-1.192c-0.176-0.148-0.488-2.46-0.113-2.322c0.23,0.088,0.42,0.259,0.531,0.479
			c0,0,1.871,0.195,1.533,1.642H42.221z"/>
		<path opacity="0.1" enable-background="new    " d="M42.066,78.639l-0.946,0.098l-0.106-0.19c0.264-0.3,0.703-0.372,1.049-0.172
			L42.066,78.639z"/>
		<path fill="#DCE6F2" d="M42.305,79.088l-1.25,0.291l-0.027-0.189l-0.072-0.5c0.138-0.185,0.344-0.307,0.572-0.338
			c0.228-0.031,0.459,0.03,0.641,0.17l0.063,0.256L42.305,79.088L42.305,79.088z"/>
		<path fill="#FFCDD3" d="M22.01,77.254l-1.337,0.721l-0.12-0.254c-0.13-0.268-0.319-0.669-0.38-0.813
			c-0.079-0.223-0.637-0.502-0.637-0.502c-1.4-1.338,0.267-2.487,0.267-2.487c0.883-1.776,1.868,0.603,1.868,0.603
			s0.136,1.254,0.04,1.338c-0.097,0.084-0.097,0.428-0.097,0.428c0.127,0.242,0.236,0.497,0.323,0.757
			C21.988,77.177,22.009,77.254,22.01,77.254L22.01,77.254z"/>
		<path opacity="0.1" enable-background="new    " d="M22.01,77.254l-1.337,0.721l-0.12-0.254c0.188-0.158,0.856-0.701,1.076-0.677
			c0.106,0.011,0.212,0.011,0.318,0C21.988,77.177,22.009,77.254,22.01,77.254L22.01,77.254z"/>
		<path fill="#DCE6F2" d="M22.146,77.66l-1.503,0.74l-0.03-0.325l-0.021-0.222c0,0,0.87-0.748,1.135-0.72
			c0.13,0.021,0.263,0.021,0.394,0l0.017,0.271L22.146,77.66L22.146,77.66z"/>
		<path fill="#FFCDD3" d="M38.576,82.686c0,0-6.553,0.74-5.329,0.342c0.854-0.277,1.192-0.819,1.265-1.42
			c0.032-0.518-0.051-1.034-0.244-1.515c-0.156-0.413-0.353-0.81-0.587-1.185c0,0,5.009-2.756,4.009-0.25
			c-0.156,0.379-0.252,0.779-0.285,1.188c-0.029,0.403,0.013,0.809,0.128,1.199C37.723,81.678,38.083,82.245,38.576,82.686
			L38.576,82.686z"/>
		<path opacity="0.1" enable-background="new    " d="M37.689,78.656c-0.156,0.379-0.252,0.779-0.285,1.187
			c-0.473,0.396-0.989,0.38-1.653,0.38c-0.511,0-1.077,0.123-1.483-0.123c-0.156-0.412-0.353-0.81-0.587-1.184
			C33.68,78.916,38.689,76.15,37.689,78.656z"/>
		<circle fill="#FFCDD3" cx="35.662" cy="77.678" r="2.71"/>
		<path opacity="0.1" enable-background="new    " d="M38.576,82.686c0,0-6.553,0.74-5.329,0.342
			c0.854-0.277,1.192-0.819,1.265-1.42c0.325-0.354,0.979-0.61,1.402-0.744c0.384-0.129,0.798-0.137,1.186-0.02
			c0.153,0.041,0.299,0.105,0.433,0.19C37.721,81.67,38.082,82.242,38.576,82.686z M42.305,79.088l-1.25,0.291l-0.027-0.189
			c0.273-0.377,0.756-0.543,1.203-0.412L42.305,79.088L42.305,79.088z M22.146,77.66l-1.503,0.74l-0.03-0.325
			c0.487-0.261,0.993-0.484,1.514-0.671L22.146,77.66L22.146,77.66z M41.17,99.2c-2.539,0.399-6.152,0.921-6.725,0.747
			c-0.475-0.146-1.993-0.131-3.316-0.086c0.012-0.659,0.023-1.1,0.023-1.1l9.841-1.022C41.008,98.229,41.066,98.719,41.17,99.2
			L41.17,99.2z"/>
		<path fill="#3F3D56" d="M43.7,98.596c0,0-8.358,1.434-9.255,1.16c-0.897-0.273-5.502,0.025-5.502,0.025
			c-2.072,1.387-1.205-0.66-1.205-0.66s-0.19-1.072,0.068-1.938c0.167-0.635,0.281-1.281,0.34-1.936c0,0-0.045-1.366,0.205-1.684
			c0.25-0.318,0.547-2.598,0.547-2.598s0.229-1.548,0.206-1.892c-0.022-0.345,0.068-1.298,0.068-1.298l0.296-1.594
			c-1.704-0.228-6.9-3.416-6.9-3.416c-0.25-1.07-2.186-3.576-2.186-3.576c-0.028-0.209-0.082-0.416-0.16-0.614
			c-0.135-0.363,1.914-1.093,1.914-1.093s1.525,1.869,1.843,2.369s1.412,1.434,1.412,1.434c0.17-0.018,0.342,0.006,0.502,0.066
			h0.026c0.366,0.145,0.71,0.342,1.018,0.584c0.514-0.013,1.012,0.176,1.39,0.524c0,0,0.934-0.136,1.093,0.022
			c0.16,0.16,0.947,0,0.947,0s0.798-1.684,1.324-1.195c0.527,0.488,2.747,0.467,2.747,0.467c0.297-0.393,1.017-0.675,1.469-0.82
			c0.384-0.131,0.799-0.137,1.187-0.02c0.169,0.047,0.327,0.124,0.47,0.227l1.347,1.325c0,0,0.379-0.502,0.343-0.614
			c-0.036-0.114,0.456-0.205,0.456-0.205s0.66-0.205,0.91-0.274s0.481,0.204,0.5,0.228c-0.101-0.324-0.14-0.664-0.114-1
			c0.021-0.301-0.077-0.595-0.271-0.82c0.804-1.946,2.604-0.301,2.604-0.301s0.204,1.07,0.023,1.48
			c-0.183,0.411,0.188,1.275,0.136,1.503c-0.054,0.228,0.09,0.615,0.09,1.048c-0.048,0.553-0.17,1.096-0.362,1.617
			c-0.139,0.363-1.23,1.184-1.23,1.184s-0.068,1.297-0.547,2.049c-0.479,0.75-0.189,3.324-0.189,3.324s0.454,2.006,1.023,2.65
			C42.85,94.98,43.7,98.596,43.7,98.596L43.7,98.596z"/>
		<path opacity="0.1" enable-background="new    " d="M31.517,83.62c0,0-0.25-0.757-0.479-0.82c-0.226-0.084-0.447-0.183-0.66-0.296
			l0.148-0.279c0,0,0.855,0.233,0.991,0.483C31.654,82.958,31.517,83.62,31.517,83.62z M26.947,81.957
			c-0.046,0.229-2.07,0.434-2.07,0.434l1.023-1.027l0.027,0.01C26.294,81.516,26.637,81.713,26.947,81.957z"/>
		<circle fill="#575988" cx="21.076" cy="78.832" r="1"/>
		<circle fill="#575988" cx="21.309" cy="79.198" r="1"/>
		<circle fill="#575988" cx="21.538" cy="79.533" r="1"/>
		<circle fill="#575988" cx="21.777" cy="79.898" r="1"/>
		<circle fill="#575988" cx="43.241" cy="79.877" r="1"/>
		<circle fill="#575988" cx="43.264" cy="80.214" r="1"/>
		<circle fill="#575988" cx="43.283" cy="80.549" r="1"/>
		<path opacity="0.1" enable-background="new    " d="M31.529,89.79c-0.021-0.026,5.11,6.455,9.097,2.71
			C40.626,92.5,34.328,93.354,31.529,89.79z M28.58,93.16c0,0,3.072,0.084,3.393,0.968v0.92c-0.176,0.097-0.39,0.097-0.567,0
			c-0.31-0.167-2.167-1.11-2.822-0.657L28.58,93.16L28.58,93.16z"/>
		<path fill="#3F3D56" d="M28.637,93.16c0,0,2.937,0.08,3.246,0.922v0.878c-0.17,0.095-0.377,0.095-0.547,0
			c-0.298-0.16-2.082-1.06-2.7-0.626L28.637,93.16L28.637,93.16z"/>
		<path opacity="0.1" enable-background="new    " d="M30.257,86.484c0.314,0.726,0.713,1.41,1.19,2.041
			c0.52,0.699,1.15,1.308,1.866,1.803C33.313,90.328,30.308,86.913,30.257,86.484z M29.252,82.922c0,0,0.513,2.213,1.832,2.964
			L29.252,82.922z M28.46,83.145c-0.012-0.041-0.455,1.75,1.704,2.74C30.164,85.885,29.252,85.575,28.46,83.145L28.46,83.145z
			 M41.879,81.662c-0.033,0,1.063,0.699,1.362,1.023C43.241,82.686,42.527,81.616,41.879,81.662z"/>
		<path fill="#2D293D" d="M34.93,80.133c0.021,0.145,0.096,0.275,0.211,0.367c0.08,0.037,0.166,0.057,0.254,0.057
			c0.828,0.051,1.687,0.088,2.461-0.23c0.145-0.051,0.274-0.135,0.379-0.248c0.108-0.182,0.177-0.387,0.199-0.596
			c0.108-0.405,0.338-0.758,0.502-1.151c0.276-0.651,0.369-1.366,0.268-2.067c-0.02-0.215-0.092-0.422-0.207-0.604
			c-0.221-0.313-0.618-0.44-0.908-0.69c-0.29-0.249-0.477-0.63-0.814-0.816c-0.319-0.144-0.68-0.176-1.021-0.09
			c-0.675,0.114-1.322,0.358-1.906,0.717c-0.191,0.119-0.414,0.259-0.639,0.217c-0.193-0.063-0.36-0.189-0.47-0.36
			c-0.16,0.372-0.23,0.776-0.202,1.181c0.01,0.059,0.01,0.119,0,0.178c-0.029,0.07-0.072,0.135-0.127,0.189
			c-0.204,0.235-0.33,0.61-0.13,0.85c0.089,0.104,0.223,0.16,0.308,0.267c0.153,0.189,0.1,0.464,0.097,0.707
			c-0.008,0.085,0.014,0.17,0.06,0.24c0.09,0.084,0.217,0.114,0.335,0.08c0.115-0.034,0.236-0.046,0.356-0.034
			c0.126,0.043,0.236,0.127,0.31,0.239C34.619,79.016,34.77,79.548,34.93,80.133L34.93,80.133z"/>
		<g opacity="0.1">
			<path d="M38.301,79.87c-0.103,0.112-0.232,0.196-0.378,0.246c-0.757,0.319-1.624,0.282-2.45,0.229
				c-0.088,0.002-0.175-0.017-0.255-0.056c-0.114-0.09-0.19-0.22-0.212-0.365c-0.16-0.585-0.308-1.118-0.689-1.603
				c-0.074-0.113-0.184-0.197-0.311-0.239c-0.12-0.013-0.242,0-0.357,0.034c-0.118,0.033-0.245,0.004-0.335-0.08
				c-0.046-0.07-0.067-0.155-0.058-0.24c0-0.244,0.055-0.518-0.099-0.707c-0.085-0.105-0.22-0.163-0.308-0.267
				c-0.116-0.159-0.136-0.368-0.051-0.546c-0.146,0.23-0.209,0.527-0.04,0.727c0.089,0.105,0.223,0.161,0.308,0.268
				c0.154,0.189,0.1,0.463,0.097,0.707c-0.007,0.086,0.014,0.17,0.06,0.24c0.09,0.084,0.218,0.114,0.335,0.08
				c0.116-0.035,0.237-0.046,0.356-0.033c0.127,0.041,0.236,0.125,0.311,0.237c0.379,0.487,0.529,1.019,0.69,1.603
				c0.021,0.146,0.097,0.276,0.21,0.367c0.08,0.039,0.168,0.059,0.256,0.057c0.827,0.052,1.686,0.088,2.46-0.229
				c0.146-0.05,0.275-0.136,0.38-0.249c0.051-0.064,0.09-0.14,0.116-0.22C38.326,79.846,38.318,79.861,38.301,79.87L38.301,79.87z
				 M33.036,75.922c0.037-0.04,0.066-0.087,0.083-0.138c0.01-0.06,0.01-0.12,0-0.179c-0.023-0.332,0.021-0.664,0.127-0.98
				l-0.015-0.016c-0.162,0.369-0.231,0.774-0.202,1.179C33.035,75.832,33.037,75.877,33.036,75.922z"/>
		</g>
		<path opacity="0.1" enable-background="new    " d="M34.445,81.775c0,0,3.386,0.449,3.689-0.061 M41.027,80.375
			c0,0,1.88,0,2.293,0.708"/>
	</g>
</g>
</svg>
