<?xml version="1.0" encoding="utf-8"?>
<!-- Generator: Adobe Illustrator 16.0.0, SVG Export Plug-In . SVG Version: 6.00 Build 0)  -->
<!DOCTYPE svg PUBLIC "-//W3C//DTD SVG 1.1//EN" "http://www.w3.org/Graphics/SVG/1.1/DTD/svg11.dtd">
<svg version="1.1" id="Layer_1" xmlns="http://www.w3.org/2000/svg" xmlns:xlink="http://www.w3.org/1999/xlink" x="0px" y="0px"
	 width="193px" height="132px" viewBox="-15.5 -4 193 132" enable-background="new -15.5 -4 193 132" xml:space="preserve">
<g>
	<circle fill="#C4A576" fill-opacity="0.097" cx="39.5" cy="73" r="55"/>
	<g transform="translate(24)">
		<path fill="#3F3D56" d="M111.323,66.977l-0.21-0.078c-0.045-0.017-4.604-1.764-6.739-5.724c-2.136-3.961-1.09-8.73-1.08-8.778
			l0.05-0.217l0.208,0.078c0.046,0.018,4.605,1.764,6.74,5.725c2.136,3.96,1.09,8.73,1.08,8.777L111.323,66.977L111.323,66.977z
			 M104.716,60.99c1.806,3.349,5.408,5.064,6.32,5.457c0.174-0.979,0.719-4.934-1.085-8.28c-1.805-3.345-5.408-5.064-6.321-5.457
			C103.456,53.689,102.912,57.645,104.716,60.99z"/>
		<path fill="#D0CDE1" d="M106.17,60.114c3.838,2.31,5.316,6.896,5.316,6.896s-4.744,0.844-8.582-1.467
			c-3.838-2.309-5.316-6.895-5.316-6.895S102.332,57.805,106.17,60.114z"/>
		<path fill="#3F3D56" d="M110.738,79.835c-6.447-0.007-11.672-5.231-11.68-11.681v-0.163h23.359v0.165
			C122.41,74.604,117.186,79.828,110.738,79.835L110.738,79.835z M99.389,68.32c0.09,6.203,5.145,11.187,11.35,11.187
			s11.26-4.983,11.35-11.187H99.389z"/>
		<path fill="#C4A576" d="M110.738,77.779c4.27,0,7.732-3.461,7.732-7.731h-15.465C103.006,74.318,106.468,77.779,110.738,77.779
			L110.738,77.779z"/>
		<circle fill="#2F2E41" cx="7.595" cy="14.199" r="8.39"/>
		<path fill="#A0616A" d="M4.881,19.874c0,0,1.151,7.732-0.987,9.542c-2.139,1.81,3.454,9.376,3.454,9.376l7.568-12.173
			c0,0-5.758-1.48-2.797-5.922L4.881,19.874z"/>
		<path fill="#575A89" d="M2.084,42.576l-1.15,4.514l-1.153,4.533l-3.948-0.329l1.81-7.567c0,0-0.33-7.073-0.494-8.718
			c-0.039-0.302-0.016-0.61,0.068-0.902c0.115-0.42,0.485-0.718,0.92-0.743L2.084,42.576z"/>
		<path fill="#A0616A" d="M6.526,105.58l-4.935,0.986l-0.48-4.195l-1.73-15.137l-0.422-3.697l5.757-1.645l-0.037,1.315l-0.127,4.44
			C4.8,88.516,4.984,89.4,5.103,90.295c0.243,1.684,0.334,3.387,0.271,5.086C5.21,99.986,6.526,105.581,6.526,105.58L6.526,105.58z"
			/>
		<path fill="#2F2E41" d="M1.262,106.238l5.1-1.48l2.796,6.909l3.948,9.212c0,0,5.1,6.744-0.329,5.922
			c-5.429-0.822-6.251-2.139-6.251-2.797v-1.15l-0.658,0.164l-0.494-0.494l-0.658-4.935c0,0-1.48-1.315-0.822-3.126L1.262,106.238z"
			/>
		<path opacity="0.2" enable-background="new    " d="M5.103,90.295l-0.058,0.15c0,0-0.857,7.996-3.637,11.4l-0.297,0.525
			l-1.73-15.137l1.086-4.026h4.212l-0.127,4.44C4.8,88.516,4.984,89.4,5.103,90.295z"/>
		<path fill="#A0616A" d="M7.348,83.208l-2.796,7.237c0,0-0.857,7.996-3.636,11.4l-3.602,6.366c0,0-4.277-1.479-3.948-1.479
			c0.329,0,2.796-8.391,2.796-8.391l2.303-9.541l1.509-5.593H7.348z"/>
		<path fill="#2F2E41" d="M-1.206,106.238l-5.1-1.48l-2.796,6.909l-3.948,9.212c0,0-5.1,6.744,0.33,5.922
			c5.428-0.822,6.25-2.139,6.25-2.797v-1.15l0.658,0.164l0.494-0.494l0.658-4.935c0,0,1.48-1.315,0.822-3.126L-1.206,106.238z"/>
		<circle fill="#A0616A" cx="8.911" cy="16.338" r="5.758"/>
		<path opacity="0.2" enable-background="new    " d="M2.084,42.576l-1.15,4.514l-0.988-0.073c-0.027-0.403-0.139-0.795-0.33-1.151
			c-0.328-0.658,0-0.165,0.659-0.823c0.658-0.658,0.164-0.329-0.33-1.151c-0.493-0.823,0.33-2.632,0.33-2.632
			c-0.921-0.658-2.139-7.896-2.139-7.896L2.084,42.576z"/>
		<path fill="#575A89" d="M7.513,36.325l-3.455-7.567l-6.58,4.606c0,0,2.139,7.073,3.29,7.896c0,0-0.822,1.81-0.329,2.632
			c0.494,0.822,0.987,0.493,0.33,1.151c-0.659,0.658-0.988,0.165-0.659,0.823c0.19,0.356,0.303,0.748,0.33,1.151l15.627,1.152
			l0.987-2.797c0,0,1.974-3.783,1.316-9.047l2.468-9.048l-6.91-1.151L7.513,36.325z"/>
		<path fill="#2F2E41" d="M16.592,47.216c0,0,2.765,6.052-0.031,15.923c-2.797,9.87-5.264,20.233-5.264,20.233L-1.37,84.852
			l-0.33-5.756l-4.44-0.658c0,0,0.657-18.589,2.631-23.195c1.974-4.606,3.856-8.768,3.856-8.768L16.592,47.216L16.592,47.216z"/>
		<path opacity="0.2" enable-background="new    " d="M-1.776,78.988l3.119-20.235l0.989,0.152l-3.119,20.235L-1.776,78.988z"/>
		<path fill="#2F2E41" d="M13.245,11.752c-0.354-0.966-1.07-1.756-1.997-2.203C10.1,9.002,8.763,9.046,7.505,9.229
			c-1.451,0.21-2.977,0.648-3.913,1.776c-0.601,0.724-0.89,1.65-1.165,2.549c-0.318,1.04-0.64,2.095-0.667,3.182
			c0.004,0.753,0.079,1.503,0.223,2.242c0.04,0.406,0.156,0.801,0.34,1.166c0.206,0.351,0.582,0.634,0.988,0.608
			c-0.818-1.47-0.711-3.28,0.274-4.644c0.237-0.301,0.493-0.587,0.768-0.854l2.092-2.123c0.641-0.651,1.311-1.322,2.168-1.642
			c1-0.362,2.114-0.205,2.975,0.42c0.354,0.264,0.648,0.6,0.862,0.986c0.154,0.273,0.51,1.153,0.51,1.153
			S13.371,12.103,13.245,11.752z"/>
		<ellipse fill="#A0616A" cx="3.236" cy="16.338" rx="1" ry="1.152"/>
		<circle fill="#2F2E41" cx="3.812" cy="6.632" r="2.632"/>
		<path fill="#3F3D56" d="M10.084,57.646h-9.8c-0.513,0-0.93-0.416-0.93-0.93l-0.431-12.822c0-0.513,0.416-0.93,0.93-0.93h10.663
			c0.513,0,0.93,0.417,0.93,0.93l-0.432,12.822C11.014,57.23,10.597,57.646,10.084,57.646z"/>
		<circle fill="#D0CDE1" cx="5.184" cy="46.851" r="1"/>
		<path fill="#A0616A" d="M16.89,47.182l-5.54,0.64c0,0-9.43-0.476-7.127,2.32c2.303,2.797,7.567,0.494,7.567,0.494l6.91-0.329
			L16.89,47.182z M-3.198,48.74c0,0-1.829,0.81-0.933,2.3c0.895,1.488,5.133,2.994,5.683,0.78c0.551-2.214-2.621-2.913-3.409-3.018
			c-0.444-0.063-0.893-0.084-1.34-0.062H-3.198z"/>
		<path fill="#575A89" d="M18.864,27.935l1.974-0.658c0.661,0.617,1.12,1.42,1.316,2.303c0.329,1.48,5.593,18.26,2.96,19.576
			c-2.631,1.316-7.237,3.454-7.237,3.454l-2.139-5.593l3.455-1.81l-1.316-7.237C17.877,37.97,16.561,27.935,18.864,27.935z"/>
		<path fill="#3F3D56" d="M86.803,79.753H44.689V37.641h42.113V79.753L86.803,79.753z M45.02,79.424h41.455V37.97H45.02V79.424z"/>
		<path fill="#C4A576" d="M49.79,42.74h31.913v31.912H49.79V42.74z"/>
		<path fill="#3F3D56" d="M61.691,65.143c-0.955-2.961-2.159-5.061-3.789-6.604l-0.104-0.099l0.083-0.116
			c3.12-4.355,5.694-8.616,7.652-12.664l0.145-0.3l0.15,0.298c2.5,4.947,5.045,9.089,7.781,12.662l0.084,0.11l-0.096,0.102
			c-1.981,2.105-3.266,4.266-3.926,6.607l-0.316-0.091c0.664-2.354,1.942-4.528,3.908-6.64c-2.662-3.492-5.145-7.522-7.58-12.307
			c-1.93,3.939-4.435,8.074-7.451,12.297c1.619,1.574,2.819,3.69,3.771,6.644L61.691,65.143L61.691,65.143z"/>
		<path fill="#3F3D56" d="M65.516,45.731h1v12.688h-1V45.731z"/>
		<circle fill="#3F3D56" cx="65.682" cy="58.419" r="1"/>
		<path fill="#CFCCE0" d="M59.219,72.991l12.795-8.509l0.554,0.832l-12.795,8.51L59.219,72.991z"/>
		<path fill="#3F3D56" d="M58.529,68.709c-0.566-0.387-0.727-0.766-0.742-0.807l0.306-0.119l-0.153,0.06l0.153-0.061
			c0.011,0.022,1.05,2.345,7.741,1.077c7.01-1.327,7.826,0.742,7.857,0.83l-0.311,0.11c-0.006-0.017-0.822-1.879-7.486-0.616
			C61.527,70.01,59.471,69.35,58.529,68.709L58.529,68.709z"/>
		<path fill="#3F3D56" d="M57.075,67.254l1.616-0.307l0.307,1.616l-1.617,0.306L57.075,67.254z"/>
		<path fill="#3F3D56" d="M72.383,68.959l1.615-0.307l0.307,1.616l-1.616,0.306L72.383,68.959z"/>
		<circle fill="#CFCCE0" cx="65.779" cy="68.911" r="1"/>
		<circle fill="#CFCCE0" cx="59.309" cy="73.128" r="1"/>
		<circle fill="#CFCCE0" cx="72.104" cy="64.619" r="1"/>
		<path fill="#3F3D56" d="M65.582,58.691h1v2.961h-1V58.691z M41.236,79.582h79.62v1h-79.62V79.582z"/>
	</g>
</g>
</svg>
