<svg xmlns="http://www.w3.org/2000/svg" width="42" height="41" viewBox="0 0 42 41">
    <g fill="none" fill-rule="evenodd">
        <g>
            <g>
                <g>
                    <g>
                        <g>
                            <path fill="#FFF" d="M0 0H42V41H0z" transform="translate(-1144 -500) translate(159 341) translate(561) translate(14 159) translate(410)"/>
                            <path fill="#000" fill-rule="nonzero" d="M19.025 26.198c.279 0 .52-.095.71-.293l5.619-5.493c.256-.242.366-.505.366-.813 0-.315-.11-.571-.366-.813l-5.618-5.493c-.19-.198-.425-.293-.71-.293-.565 0-1.026.454-1.026 1.018 0 .278.117.535.322.74l4.98 4.834-4.98 4.848c-.205.198-.322.455-.322.74 0 .564.461 1.018 1.025 1.018z" transform="translate(-1144 -500) translate(159 341) translate(561) translate(14 159) translate(410)"/>
                        </g>
                    </g>
                </g>
            </g>
        </g>
    </g>
</svg>
