<?xml version="1.0" encoding="utf-8"?>
<!-- Generator: Adobe Illustrator 16.0.0, SVG Export Plug-In . SVG Version: 6.00 Build 0)  -->
<!DOCTYPE svg PUBLIC "-//W3C//DTD SVG 1.1//EN" "http://www.w3.org/Graphics/SVG/1.1/DTD/svg11.dtd">
<svg version="1.1" id="Layer_1" xmlns="http://www.w3.org/2000/svg" xmlns:xlink="http://www.w3.org/1999/xlink" x="0px" y="0px"
	 width="140px" height="63px" viewBox="0 0 140 63" enable-background="new 0 0 140 63" xml:space="preserve">
<g>
	<path fill-rule="evenodd" clip-rule="evenodd" fill="#DEAF69" d="M0,17.967c3.065,0.028,6.131,0.096,9.195,0.059
		c0.92-0.011,1.366,0.273,1.722,1.124c1.948,4.65,3.97,9.268,5.936,13.911c0.18,0.425,0.307,0.992,0.181,1.409
		c-1.388,4.561-2.832,9.104-4.35,13.939c-0.265-0.578-0.438-0.928-0.587-1.288C8.297,37.992,4.502,28.862,0.697,19.735
		C0.508,19.283,0.234,18.867,0,18.434C0,18.278,0,18.122,0,17.967z"/>
	<path fill-rule="evenodd" clip-rule="evenodd" fill="#DEAF69" d="M140,40.833c-0.153,0.383-0.329,0.758-0.457,1.148
		c-1.018,3.119-3.109,5.11-6.322,6.057c0.432-0.637,0.907-1.167,1.189-1.785c0.979-2.151,0.604-4.287-1.222-5.812
		c-1.238-1.034-2.705-1.799-4.085-2.66c-2.298-1.437-4.835-2.59-6.868-4.332c-4.841-4.149-4.064-11.63,1.345-14.913
		c0.412-0.25,0.869-0.424,1.498-0.726c-0.504,0.797-0.938,1.343-1.22,1.958c-0.897,1.948-0.582,3.71,1.106,5.013
		c1.249,0.963,2.681,1.7,4.072,2.463c1.803,0.988,3.69,1.828,5.463,2.865c2.522,1.476,4.462,3.488,5.238,6.42
		c0.034,0.126,0.172,0.225,0.262,0.336C140,38.189,140,39.511,140,40.833z"/>
	<path fill-rule="evenodd" clip-rule="evenodd" fill="#DEAF69" d="M31.267,0c1.237,1.316,2.519,2.595,3.688,3.97
		c0.405,0.477,0.718,1.183,0.747,1.799c0.093,2.01,0.035,4.026,0.035,6.132c-3.134,0-6.181,0-9.392,0
		c0-2.299-0.02-4.614,0.026-6.928c0.005-0.284,0.324-0.597,0.559-0.837c1.358-1.389,2.734-2.76,4.104-4.137
		C31.111,0,31.189,0,31.267,0z"/>
	<path fill-rule="evenodd" clip-rule="evenodd" fill="#DEAF69" d="M100.566,63c0-2.325,0-4.649,0-7.393
		c0.595,0.372,1.115,0.541,1.394,0.898c0.942,1.21,1.8,2.486,2.972,3.655c0-1.399,0-2.799,0-4.198
		c0.105-0.078,0.211-0.156,0.315-0.234c0.283,0.219,0.812,0.438,0.813,0.657c0.007,2.204-0.071,4.409-0.126,6.614
		c-0.233,0-0.467,0-0.7,0c-1.117-1.563-2.233-3.124-3.351-4.686c-0.102,0.028-0.203,0.058-0.305,0.086
		c0,0.758,0.01,1.516-0.003,2.272c-0.014,0.776-0.049,1.552-0.075,2.327C101.189,63,100.878,63,100.566,63z"/>
	<path fill-rule="evenodd" clip-rule="evenodd" fill="#DEAF69" d="M48.067,63c0-2.344,0-4.687,0-7.149
		c1.066,0,2.064-0.048,3.056,0.014c1.008,0.063,1.801,0.546,2.026,1.595c0.217,1.011,0.011,1.927-0.943,2.533
		c-0.127,0.08-0.247,0.174-0.34,0.24c0.458,0.949,0.896,1.858,1.335,2.768c-0.312,0-0.623,0-0.934,0
		c-0.394-0.565-0.847-1.1-1.167-1.704c-0.458-0.863-1.072-1.08-1.97-0.726C49.085,61.4,49.042,62.2,49,63
		C48.689,63,48.378,63,48.067,63z M49.153,59.577c1.026-0.309,1.92-0.517,2.744-0.881c0.151-0.067,0.15-1.066-0.002-1.134
		c-0.824-0.363-1.717-0.569-2.742-0.876C49.153,57.772,49.153,58.488,49.153,59.577z"/>
	<path fill-rule="evenodd" clip-rule="evenodd" fill="#DEAF69" d="M117.6,63c0-2.348,0-4.695,0-7.163
		c1.381,0,2.731-0.042,4.073,0.037c0.248,0.015,0.467,0.514,0.699,0.789c-0.074,0.095-0.148,0.188-0.223,0.282
		c-1.146,0-2.293,0-3.502,0c0,0.644,0,1.164,0,1.806c1.032,0,2.024,0,2.993,0c0.183,1.137,0.183,1.141-0.911,1.151
		c-0.656,0.007-1.313,0.002-2.062,0.002c0,0.63,0,1.182,0,1.858c1.174,0,2.32,0,3.599,0c0,0.494,0,0.865,0,1.237
		C120.711,63,119.155,63,117.6,63z"/>
	<path fill-rule="evenodd" clip-rule="evenodd" fill="#DEAF69" d="M31.967,63c-1.387-0.754-1.845-1.983-1.809-3.483
		c0.022-0.931-0.008-1.862,0.009-2.793c0.015-0.799,0.029-0.799,1.12-0.84c0,1.265-0.054,2.532,0.024,3.792
		c0.036,0.589,0.166,1.332,0.549,1.691c0.364,0.343,1.208,0.51,1.665,0.323c0.452-0.185,0.902-0.882,0.966-1.401
		c0.146-1.186,0.089-2.401,0.051-3.603c-0.024-0.762,0.275-0.988,1.213-0.722c-0.078,1.654-0.004,3.402-0.311,5.081
		c-0.132,0.726-1.05,1.308-1.61,1.954C33.211,63,32.589,63,31.967,63z"/>
	<path fill-rule="evenodd" clip-rule="evenodd" fill="#DEAF69" d="M39.667,63c0-2.343,0-4.686,0-7.131
		c0.935,0,1.857-0.069,2.765,0.017c1.284,0.121,2.045,0.984,2.099,2.216c0.053,1.206-0.656,2.154-1.89,2.42
		c-0.597,0.129-1.222,0.132-1.938,0.201C40.669,61.479,40.635,62.239,40.6,63C40.289,63,39.978,63,39.667,63z M40.686,59.827
		c0.997-0.394,1.815-0.613,2.491-1.052c0.188-0.122,0.108-1.196-0.117-1.312c-0.685-0.353-1.5-0.451-2.374-0.676
		C40.686,57.867,40.686,58.596,40.686,59.827z"/>
	<path fill-rule="evenodd" clip-rule="evenodd" fill="#DEAF69" d="M56.467,63c0.859-2.271,1.696-4.552,2.593-6.809
		c0.239-0.601,1.094-0.598,1.333,0.004c0.9,2.256,1.743,4.534,2.607,6.805c-0.311,0-0.622,0-0.933,0
		c-0.204-0.407-0.372-0.838-0.624-1.212c-0.167-0.249-0.432-0.551-0.694-0.598c-1.937-0.345-2.424-0.081-3.228,1.615
		c-0.033,0.068-0.081,0.13-0.122,0.194C57.089,63,56.778,63,56.467,63z M60.821,60.056c-0.398-0.938-0.714-1.683-1.155-2.722
		c-0.398,1.096-0.677,1.86-0.99,2.722C59.443,60.056,60.011,60.056,60.821,60.056z"/>
	<path fill-rule="evenodd" clip-rule="evenodd" fill="#DEAF69" d="M90.533,63c0.479-1.378,0.942-2.762,1.441-4.133
		c0.317-0.873,0.658-1.74,1.049-2.582c0.104-0.222,0.424-0.459,0.655-0.472c0.236-0.012,0.625,0.187,0.71,0.392
		c0.875,2.109,1.706,4.238,2.533,6.367c0.044,0.114-0.056,0.284-0.089,0.428c-0.311,0-0.622,0-0.933,0
		c-0.296-0.602-0.46-1.559-0.915-1.727c-0.773-0.286-1.76-0.201-2.597-0.01c-0.331,0.075-0.503,0.854-0.742,1.314
		c-0.069,0.136-0.12,0.281-0.18,0.422C91.155,63,90.845,63,90.533,63z M94.772,60.037c-0.355-0.913-0.669-1.719-1.075-2.763
		c-0.402,1.052-0.715,1.868-1.057,2.763C93.436,60.037,94.033,60.037,94.772,60.037z"/>
	<path fill-rule="evenodd" clip-rule="evenodd" fill="#DEAF69" d="M68.367,63c-0.837-2.326-1.673-4.652-2.523-7.017
		c0.804-0.344,1.205-0.113,1.463,0.702c0.455,1.437,1.013,2.84,1.623,4.519c0.617-1.7,1.139-3.163,1.681-4.618
		c0.287-0.771,0.304-0.764,1.455-0.607C71.134,58.343,70.217,60.672,69.3,63C68.989,63,68.678,63,68.367,63z"/>
	<path fill-rule="evenodd" clip-rule="evenodd" fill="#DEAF69" d="M110.6,63c-0.367-0.329-0.735-0.659-1.175-1.053
		c0.22-0.292,0.413-0.551,0.616-0.822c0.158,0.087,0.249,0.157,0.351,0.188c0.482,0.149,1.087,0.528,1.421,0.363
		c0.352-0.174,0.6-0.86,0.626-1.338c0.08-1.427,0.029-2.862,0.029-4.402c0.354-0.04,0.673-0.076,1.097-0.124
		c0,1.856,0.116,3.634-0.061,5.382c-0.065,0.638-0.827,1.206-1.271,1.806C111.689,63,111.145,63,110.6,63z"/>
	<path fill-rule="evenodd" clip-rule="evenodd" fill="#DEAF69" d="M84,63c-0.356-0.34-0.713-0.68-1.133-1.08
		c0.227-0.28,0.431-0.533,0.467-0.578c0.793,0.154,1.568,0.547,1.927,0.311c0.404-0.268,0.562-1.093,0.601-1.69
		c0.084-1.306,0.026-2.621,0.026-4.032c0.378-0.032,0.695-0.059,1.011-0.085c0.068,0.188,0.139,0.293,0.14,0.398
		c0.011,1.315-0.032,2.632,0.025,3.944c0.055,1.235-0.35,2.182-1.43,2.813C85.089,63,84.544,63,84,63z"/>
	<path fill-rule="evenodd" clip-rule="evenodd" fill="#DEAF69" d="M75.6,63c-0.031-2.166-0.08-4.332-0.069-6.498
		c0.002-0.221,0.367-0.439,0.563-0.659c0.165,0.244,0.468,0.484,0.474,0.732c0.043,1.692,0.022,3.386,0.022,5.203
		c1.208,0,2.275,0,3.491,0c-0.117,0.51-0.199,0.865-0.281,1.222C78.4,63,77,63,75.6,63z"/>
	<path fill-rule="evenodd" clip-rule="evenodd" fill="#DEAF69" d="M81.749,46.938c-0.588,0.316-1.145,0.723-1.768,0.935
		c-4.776,1.623-9.487-1.108-10.423-6.044c-0.172-0.909-0.253-1.85-0.256-2.776c-0.021-6.839-0.013-13.678-0.011-20.516
		c0-0.231,0.02-0.462,0.034-0.77c4.903-1.245,8.061-4.257,9.352-9.262c0,0.433,0,0.866,0,1.3c0,10.918-0.002,21.837,0.004,32.755
		c0,0.581,0.015,1.168,0.1,1.741C79.08,46.324,79.707,46.849,81.749,46.938z"/>
	<path fill-rule="evenodd" clip-rule="evenodd" fill="#DEAF69" d="M26.274,18.132c3.185,0,6.235,0,9.339,0
		c0,9.785,0,19.487,0,29.275c-3.116,0-6.198,0-9.339,0C26.274,37.629,26.274,27.932,26.274,18.132z"/>
	<path fill-rule="evenodd" clip-rule="evenodd" fill="#DEAF69" d="M53.107,47.436c-3.124,0-6.143,0-9.312,0
		c-0.027-0.415-0.076-0.821-0.076-1.229c-0.005-8.976,0.009-17.952-0.023-26.927c-0.003-0.949,0.231-1.283,1.225-1.253
		c2.329,0.071,4.662,0.02,6.993,0.026c0.379,0.001,0.758,0.04,1.192,0.064C53.107,27.906,53.107,37.605,53.107,47.436z"/>
	<path fill-rule="evenodd" clip-rule="evenodd" fill="#DEAF69" d="M103.414,18.11c3.141,0,6.159,0,9.262,0
		c0,9.793,0,19.525,0,29.311c-3.108,0-6.161,0-9.262,0C103.414,37.636,103.414,27.924,103.414,18.11z"/>
	<path fill-rule="evenodd" clip-rule="evenodd" fill="#DEAF69" d="M98.886,47.67c-3.329,1.559-8.323,0.083-10.229-3.223
		c-0.921-1.599-1.692-3.532-1.744-5.337c-0.199-6.948-0.081-13.905-0.081-20.96c3.061,0,6.103,0,9.317,0c0,0.408,0,0.816,0,1.225
		c0.005,7.501,0,15.003,0.026,22.505c0.004,1.084,0.087,2.179,0.255,3.25C96.639,46.464,97.162,47.605,98.886,47.67z"/>
	<path fill-rule="evenodd" clip-rule="evenodd" fill="#DEAF69" d="M65.356,24.301c-0.025,2.803-2.252,4.949-5.097,4.909
		c-2.717-0.038-4.947-2.334-4.89-5.036c0.058-2.737,2.295-4.935,5.02-4.93C63.192,19.25,65.381,21.478,65.356,24.301z"/>
	<path fill-rule="evenodd" clip-rule="evenodd" fill="#DEAF69" d="M125.498,46.707c-3.967-1.129-4.628-0.967-6.074,1.435
		c0-4.137,0-8.133,0-12.128C120.502,39.983,122.242,43.616,125.498,46.707z"/>
	<path fill-rule="evenodd" clip-rule="evenodd" fill="#DEAF69" d="M132.073,18.439c1.879,0.322,3.497,1.837,5.366,0.32
		c0,2.919,0,5.763,0,8.608C136.315,24.064,134.929,20.924,132.073,18.439z"/>
	<path fill-rule="evenodd" clip-rule="evenodd" fill="#DEAF69" d="M25.513,59.786c-3.608,0-7.216,0.008-10.824-0.021
		c-0.216-0.002-0.43-0.291-0.645-0.446c0.215-0.198,0.428-0.565,0.645-0.567c3.421-0.038,6.843-0.043,10.264-0.002
		c0.279,0.003,0.553,0.401,0.829,0.616C25.692,59.506,25.603,59.646,25.513,59.786z"/>
	<path fill-rule="evenodd" clip-rule="evenodd" fill="#DEAF69" d="M127.045,59.413c0.276-0.23,0.55-0.657,0.829-0.661
		c3.373-0.046,6.747-0.04,10.12-0.008c0.248,0.003,0.492,0.313,0.738,0.479c-0.261,0.188-0.52,0.539-0.782,0.542
		c-3.527,0.036-7.056,0.024-10.583,0.024C127.26,59.664,127.152,59.538,127.045,59.413z"/>
</g>
</svg>
