<?xml version="1.0" encoding="utf-8"?>
<!-- Generator: Adobe Illustrator 24.3.0, SVG Export Plug-In . SVG Version: 6.00 Build 0)  -->
<svg version="1.1" id="Layer_1" xmlns="http://www.w3.org/2000/svg" xmlns:xlink="http://www.w3.org/1999/xlink" x="0px" y="0px"
	 viewBox="0 0 52 49.1" style="enable-background:new 0 0 52 49.1;" xml:space="preserve">
<style type="text/css">
	.st0{fill:#DEAF69;}
</style>
<g>
	<path class="st0" d="M43.3,3.5H27.9c-0.6,0-1.1,0.5-1.1,1.1v17.9H10.4c-1.6,0-2.8,1.3-2.8,2.8c0,0.9,0.4,1.7,1.1,2.2l6.4,15.8v3.5
		c0,0.6,0.5,1.1,1.1,1.1h27.1c0.6,0,1.1-0.5,1.1-1.1V4.6C44.4,4,43.9,3.5,43.3,3.5z M10.4,24.6H37c0.4,0,0.7,0.3,0.7,0.7
		S37.4,26,37,26H10.4c-0.4,0-0.7-0.3-0.7-0.7S10,24.6,10.4,24.6z M37,28.1c1.6,0,2.8-1.3,2.8-2.8s-1.3-2.8-2.8-2.8h-8l0-16.8h13.2
		v40.1H17.3v-2.7c0-0.1,0-0.3-0.1-0.4l-5.9-14.6H37z"/>
	<path class="st0" d="M42,13.3V9.8c0-1.8-1.5-3.2-3.2-3.2S35.5,8,35.5,9.8v3.5c0,1.8,1.5,3.2,3.2,3.2S42,15.1,42,13.3z M39.8,9.9
		C39.7,9.4,39.3,9,38.8,9c-0.5,0-1,0.4-1.1,0.9V9.8c0-0.6,0.5-1.1,1.1-1.1c0.6,0,1.1,0.5,1.1,1.1V9.9z M37.7,13.2
		c0.1,0.5,0.5,0.9,1.1,0.9c0.5,0,1-0.4,1.1-0.9v0.1c0,0.6-0.5,1.1-1.1,1.1c-0.6,0-1.1-0.5-1.1-1.1V13.2z"/>
</g>
</svg>
