<?xml version="1.0" encoding="utf-8"?>
<!-- Generator: Adobe Illustrator 24.3.0, SVG Export Plug-In . SVG Version: 6.00 Build 0)  -->
<svg version="1.1" id="Layer_1" xmlns="http://www.w3.org/2000/svg" xmlns:xlink="http://www.w3.org/1999/xlink" x="0px" y="0px"
	 viewBox="0 0 700 582.7" style="enable-background:new 0 0 700 582.7;" xml:space="preserve">
<style type="text/css">
	.st0{fill:#DEAF69;}
</style>
<path class="st0" d="M373.6,549.2c-2.2,0-4.4-0.3-6.5-0.9c-6.6-1.8-12.2-6.1-15.6-11.9c-3.4-5.9-4.4-12.9-2.6-19.5l20.9-78.8v0
	c0.1-0.4,0.2-0.8,0.4-1.1l46.3-88.4l4.6-53.8l-34.6,26.9l-9.6,59.2c-1.2,7.2-6,13.2-12.8,15.8c-6.8,2.6-14.4,1.4-20.1-3.2
	c-5.6-4.6-8.4-11.8-7.2-19l11.1-72.3c0.2-1.1,0.7-2.2,1.5-3l62.2-62.9c0.8-0.9,1.9-1.4,3.1-1.6l71.7-9.2l59.2-110.3
	c2.6-4.8,6.9-8.4,12-10c5.2-1.7,10.8-1.2,15.6,1.2c4.9,2.4,8.6,6.6,10.4,11.7c1.9,5.3,1.5,11.1-1,16.2
	c-23.3,44.5-43.9,90.3-61.9,137.2l-9.7,87.9l29.8,80.8v0c0,0.4,0,0.7,0,1.1l10.8,77.1c0.9,6.7-0.9,13.5-4.9,18.9
	c-4,5.4-10,9.1-16.7,10.2s-13.5-0.4-19-4.3c-5.8-4-9.8-10.2-10.8-17.2L490,454.5l-30.7-52.7l-40.5,57l-20.3,71.7
	c-1.5,5.4-4.8,10.1-9.3,13.5C384.7,547.4,379.3,549.2,373.6,549.2L373.6,549.2z M380,441.5l-20.7,78.2c-1.4,5.1,0,10.6,3.7,14.4
	c3.7,3.8,9.2,5.3,14.4,4c5.2-1.3,9.2-5.3,10.6-10.4l20.6-72.7h0c0.2-0.6,0.4-1.1,0.8-1.6l45.9-64.6v0c1.1-1.5,2.8-2.4,4.6-2.3
	c1.8,0.1,3.5,1.1,4.4,2.7L500,450c0.4,0.6,0.6,1.3,0.6,1.9l10.8,72.3c0.6,4.1,2.9,7.7,6.2,10c3.3,2.4,7.5,3.2,11.5,2.4
	c3.8-0.7,7.2-2.8,9.5-5.9c2.3-3.1,3.3-7,2.8-10.9l-10.8-76.5L500.8,362c-0.3-0.8-0.4-1.6-0.3-2.5l9.9-89.8h0
	c0.1-0.4,0.2-0.9,0.3-1.3c18-47.4,38.8-93.8,62.2-138.8c1.3-2.4,1.5-5.3,0.5-7.9c-1.3-3.8-4.8-6.4-8.7-6.7c-4-0.3-7.8,1.8-9.7,5.3
	l-60.3,112.7c-0.8,1.5-2.3,2.6-4,2.8l-72.6,9.3l-60,60.4l-10.8,70.5c-0.4,2.6,0.4,5.3,2.1,7.3c1.7,2,4.1,3.3,6.8,3.4
	c4.8,0.2,9-3.1,10-7.8l10.1-61.4c0.2-1.3,0.9-2.5,2-3.3l45.9-35.7v0c1.7-1.3,4-1.5,5.9-0.5c2,1.1,3.1,3.2,2.8,5.4l-5.8,67
	c-0.1,0.7-0.3,1.4-0.6,2L380,441.5z"/>
<path class="st0" d="M444.9,221c-11.2,0-21.9-4.4-29.8-12.3c-7.9-7.9-12.3-18.6-12.3-29.8c0-11.2,4.4-21.9,12.3-29.8
	c7.9-7.9,18.6-12.3,29.8-12.3c11.2,0,21.9,4.4,29.8,12.3c7.9,7.9,12.4,18.6,12.4,29.8c0,11.2-4.5,21.9-12.4,29.8
	C466.8,216.6,456.1,221,444.9,221z M444.9,147.5c-8.3,0-16.3,3.3-22.2,9.2c-5.9,5.9-9.2,13.9-9.2,22.2c0,8.3,3.3,16.3,9.2,22.2
	s13.9,9.2,22.2,9.2c8.3,0,16.3-3.3,22.2-9.2c5.9-5.9,9.2-13.9,9.2-22.2c0-8.3-3.3-16.3-9.2-22.2
	C461.2,150.8,453.3,147.5,444.9,147.5L444.9,147.5z"/>
<path class="st0" d="M207.9,547.1c-6.1,0-12.1-2.2-16.7-6.2c-4.6-4-7.7-9.6-8.5-15.7L159.4,365c-0.1-1.2,0.1-2.4,0.6-3.4l37.2-65.4
	L140,218.8c-0.9-1.2-1.2-2.6-1-4l11.7-73.4c0.6-4.7,2.9-9,6.4-12.2c3.5-3.2,8-4.9,12.8-5.1c5.9-0.2,11.7,2.3,15.6,6.7
	c4,4.4,5.8,10.3,5.1,16.2l-7.5,55.6l39.3,40.8l56.1-8.3l32.3-48.5l-17.6-55.5c-0.7-2-1-4.2-1-6.3c0-7.1,3.7-13.7,9.7-17.5
	c6-3.8,13.6-4.2,20-1.1c5.1,2.4,9,6.7,10.8,12.1l24.1,72.4c0.4,1.4,0.3,3-0.4,4.3l-54.4,100.1l-11.1,62.5l33.3,75.1
	c0.4,1.2,0.4,2.4,0,3.6l-24.8,91.5v0c-2.2,8.9-9.1,15.8-17.9,18.3s-18.2,0.1-24.8-6.3c-6.5-6.4-9.2-15.8-6.9-24.6l17.8-74.7
	l-35.6-49.3l-5.4,3.7l8.8,124.5h0c0.5,6.6-1.6,13.1-5.8,18.1c-4.2,5.1-10.2,8.3-16.8,9h-1.8L207.9,547.1z M170.3,365.2l23,158.5
	c0.5,3.8,2.5,7.2,5.5,9.6c3,2.3,6.8,3.4,10.6,3h1.8c3.8-0.4,7.3-2.3,9.8-5.2c2.5-2.9,3.7-6.7,3.4-10.5l-9-127.6
	c-0.1-1.9,0.8-3.8,2.4-4.8l12.4-8.3c2.4-1.6,5.7-1,7.4,1.3l40.4,55c0.9,1.3,1.2,2.9,0.9,4.4l-18.4,77.3c-1.3,5.1,0.2,10.6,4,14.3
	c3.8,3.7,9.3,5.1,14.4,3.7c5.1-1.4,9-5.5,10.3-10.6l24.3-89.8l-33.2-74.6c-0.4-1-0.6-2.1-0.4-3.1l11.6-64.9c0.1-0.6,0.3-1.1,0.5-1.6
	l53.5-98.9l-23.3-70v0c-0.8-2.5-2.6-4.6-5-5.8c-3.1-1.5-6.7-1.3-9.6,0.5c-2.9,1.8-4.6,5-4.7,8.4c0,1,0.2,2,0.5,3l18.7,58
	c0.5,1.6,0.3,3.3-0.6,4.6l-35.2,52.6c-0.9,1.3-2.2,2.1-3.7,2.3l-61.2,8.7c-1.7,0.3-3.5-0.3-4.7-1.6l-43.1-44.6v0
	c-1.1-1.2-1.7-2.8-1.5-4.5l7.6-58c0.4-2.7-0.4-5.5-2.2-7.6c-3.5-3.8-9.4-4.2-13.2-0.8c-1.7,1.5-2.8,3.5-3.1,5.7l-10.8,71.2
	l57.8,78.1h0c1.3,1.7,1.4,4,0.3,5.9L170.3,365.2z"/>
<path class="st0" d="M244.1,227.3c-10.5,0-20.7-4.2-28.1-11.6c-7.5-7.4-11.7-17.6-11.7-28.1c0-10.5,4.2-20.7,11.6-28.1
	c7.4-7.5,17.6-11.7,28.1-11.7c10.5,0,20.7,4.2,28.1,11.6c7.5,7.4,11.6,17.6,11.6,28.1c0,10.5-4.2,20.6-11.6,28.1
	C264.8,223.1,254.7,227.3,244.1,227.3L244.1,227.3z M244.1,158.7L244.1,158.7c-7.7,0-15.1,3-20.5,8.5c-5.4,5.4-8.5,12.8-8.5,20.5
	c0,7.7,3,15.1,8.5,20.5s12.8,8.5,20.5,8.5c7.7,0,15.1-3.1,20.5-8.5c5.4-5.4,8.5-12.8,8.5-20.5c0-7.7-3.1-15-8.5-20.4
	C259.2,161.7,251.8,158.7,244.1,158.7L244.1,158.7z"/>
<path class="st0" d="M405.6,127.7c-15.7,0-28.1-9.7-28.1-22s12.4-22,28.1-22c15.7,0,28.2,9.6,28.2,22S421.4,127.7,405.6,127.7z
	 M405.6,94.4c-9.4,0-17.3,5.1-17.3,11.3s8,11.3,17.3,11.3s17.4-5.4,17.4-11.3C423,99.8,415,94.4,405.6,94.4z"/>
<path class="st0" d="M428.4,111.1h-0.5h0c-3-0.3-5.1-2.9-4.8-5.9l7.8-80.6c0.2-2.4,2-4.3,4.4-4.8c11.2-2.2,34.2-1.1,41.1,18.4l0,0
	c1,2.8-0.5,5.9-3.3,6.9c-2.8,1-5.9-0.5-6.9-3.3C462,30.1,448,29.6,441.1,30l-7.3,76.2C433.5,108.9,431.2,111.1,428.4,111.1
	L428.4,111.1z"/>
<path class="st0" d="M104.9,375.3c-12.4,0-22.1-7.8-22.1-17.7s9.7-17.7,22.1-17.7s22.2,7.8,22.2,17.7
	C127.1,367.5,117.3,375.3,104.9,375.3z M104.9,350.7c-6.7,0-11.4,3.7-11.4,6.9c0,3.2,4.7,6.9,11.4,6.9c6.7,0,11.4-3.8,11.4-6.9
	C116.3,354.4,111.6,350.7,104.9,350.7z"/>
<path class="st0" d="M121.7,363h-0.5c-3-0.3-5.1-2.9-4.8-5.9l5.4-59.2v0c0.2-2.4,2-4.3,4.4-4.8c8.7-1.7,26.5-0.8,31.9,14.4
	c0.6,1.4,0.6,2.9,0,4.3s-1.7,2.4-3.1,2.9s-2.9,0.4-4.3-0.3c-1.3-0.7-2.3-1.9-2.7-3.3c-2.5-7.1-10.8-8-15.8-7.8l-5.4,55h0
	C126.3,360.8,124.2,362.8,121.7,363L121.7,363z"/>
<path class="st0" d="M563.7,342c-12.4,0-22.2-7.8-22.2-17.7c0-9.9,9.7-17.4,22.2-17.4s22.1,7.8,22.1,17.7
	C585.8,334.5,576.2,342,563.7,342L563.7,342z M563.7,317.4c-6.7,0-11.4,3.7-11.4,6.9c0,3.3,4.7,6.9,11.4,6.9
	c6.7,0,11.4-3.7,11.4-6.9c0-3.2-4.7-6.7-11.4-6.7V317.4z"/>
<path class="st0" d="M580.4,329.8h-0.5c-3-0.3-5.1-2.9-4.8-5.9l5.4-59.2c0.2-2.4,2-4.3,4.4-4.8c8.7-1.7,26.6-0.8,32,14.4
	c1,2.8-0.5,5.9-3.3,6.9c-2.8,1-5.9-0.5-6.9-3.3c-2.5-7.1-10.8-8-15.8-7.8l-5.4,55v0C585.1,327.6,583,329.6,580.4,329.8L580.4,329.8z
	"/>
<path class="st0" d="M562.9,84.1c-2.5,0.1-4.7-1.5-5.4-3.9l-16.2-54.2c-0.4-1.4-0.3-2.9,0.4-4.1c0.7-1.3,1.8-2.2,3.2-2.6
	c1.4-0.4,2.9-0.3,4.1,0.4c1.3,0.7,2.2,1.9,2.6,3.2l16.2,54.2h0c0.4,1.4,0.2,2.8-0.4,4.1c-0.7,1.2-1.8,2.2-3.2,2.6
	C563.8,84,563.4,84.1,562.9,84.1L562.9,84.1z"/>
<path class="st0" d="M597.2,84.1c-1.8,0-3.5-0.9-4.5-2.4l-5.4-8.3v0c-0.8-1.2-1.1-2.7-0.8-4.1c0.3-1.4,1.1-2.6,2.3-3.4
	c1.2-0.8,2.6-1.1,4.1-0.8c1.4,0.3,2.6,1.1,3.4,2.3l5.4,8.4c1.6,2.5,0.9,5.8-1.5,7.4C599.3,83.8,598.3,84.1,597.2,84.1L597.2,84.1z"
	/>
<path class="st0" d="M509.4,84.1c-1.1,0-2.1-0.3-3-0.9c-2.5-1.6-3.1-5-1.5-7.4l5.4-8.4c1.7-2.5,5-3.2,7.5-1.5c2.5,1.6,3.2,5,1.5,7.5
	l-5.4,8.3v0C512.9,83.2,511.2,84.1,509.4,84.1L509.4,84.1z"/>
<path class="st0" d="M261.8,107c-2.5,0.1-4.7-1.5-5.4-3.9l-16.2-54.2c-0.8-2.9,0.8-5.8,3.7-6.7c1.4-0.4,2.8-0.2,4.1,0.4
	c1.3,0.7,2.2,1.8,2.6,3.2l16.2,54.2v0c0.4,1.4,0.3,2.9-0.4,4.1s-1.9,2.2-3.2,2.6C262.7,106.9,262.2,107,261.8,107L261.8,107z"/>
<path class="st0" d="M296.1,107c-1.8,0-3.5-0.9-4.5-2.4l-5.4-8.3c-0.8-1.2-1.1-2.7-0.8-4.1c0.3-1.4,1.1-2.6,2.3-3.4
	c2.5-1.7,5.8-1,7.5,1.5l5.4,8.3l0,0c1.1,1.7,1.2,3.8,0.3,5.5C300,106,298.1,107.1,296.1,107L296.1,107z"/>
<path class="st0" d="M208.3,107c-1.1,0-2.1-0.3-3-0.9c-1.2-0.8-2-2-2.3-3.4c-0.3-1.4,0-2.9,0.8-4.1l5.4-8.3v0c0.8-1.3,2-2.2,3.4-2.5
	c1.4-0.3,3,0,4.2,0.8c1.2,0.8,2.1,2.1,2.3,3.6c0.2,1.5-0.1,3-1,4.1l-5.4,8.3C211.8,106.1,210.1,107,208.3,107L208.3,107z"/>
<path class="st0" d="M127.8,75.8c-0.5,0.1-1,0.1-1.6,0c-1.4-0.4-2.5-1.4-3.2-2.6c-0.7-1.3-0.8-2.7-0.4-4.1l16.2-54.2h0
	c0.4-1.4,1.3-2.5,2.6-3.2c1.3-0.7,2.7-0.8,4.1-0.4c2.9,0.8,4.5,3.8,3.7,6.7L133,72.1v0C132.3,74.3,130.2,75.8,127.8,75.8L127.8,75.8
	z"/>
<path class="st0" d="M93.5,75.8c-1.1,0-2.1-0.3-3-0.9c-1.2-0.8-2-2-2.3-3.4c-0.3-1.4,0-2.9,0.8-4.1l5.4-8.3c1.6-2.5,5-3.1,7.4-1.5
	c1.2,0.8,2,2,2.3,3.4c0.3,1.4,0,2.9-0.8,4.1l-5.4,8.3h0C97,74.8,95.3,75.8,93.5,75.8L93.5,75.8z"/>
<path class="st0" d="M181.4,75.8c-1.8,0-3.5-0.9-4.5-2.4l-5.4-8.3h0c-0.9-2.4-0.1-5.1,2.1-6.5c2.1-1.4,5-1.1,6.8,0.7l5.4,8.3
	c0.8,1.2,1.1,2.6,0.8,4.1c-0.3,1.4-1.1,2.6-2.3,3.4C183.3,75.5,182.3,75.8,181.4,75.8L181.4,75.8z"/>
</svg>
